%!PS-Adobe-1.0
/localeprolog 0 def

%!PS-Adobe-1.0
%%Creator: Steve Holden
%%Modified: John Macdonald, Rich Burridge, Rainer Klute
%%Modified: Bertrand Decouty, Bjorn P. Brox
%%Title: @(#)mp.pro.ps 3.3 93/03/11
%%CreationDate: see above
%%PageLength 60
%%LineLength 80
%%DocumentFonts: Courier Helvetica-BoldOblique Times-Bold Times-Roman
%%Pages: (atend)
%%EndComments

%  @(#)mp.common.ps 3.1 92/04/03
%
%  Mp PostScript routines common to all prologue files.
%
%  The initial header comments are read (and output to stdout)
%  from the individual prologue file, then the contents of this
%  file are read (and output to stdout), then the remainder of
%  the individual prologue file.

/inch { 72 mul } bind def
%
%  IMPORTANT NOTE: The following two variables should be set correctly.
%                  Reasonable values for fullwidth and fullheight are
%                  8.5/11 inch for US Letter, and 8.5/11.4 inch for A4.
%                  Since sites usually have one single format of paper,
%                  mp should be installed with either the USLetter or A4
%                  values.
%
/fullwidth 8.5 inch def
/fullheight 11 inch def

% Define /ISOLatin1Encoding only if it's not already there.
/ISOLatin1Encoding where { pop save true }{ false } ifelse
  /ISOLatin1Encoding [ StandardEncoding 0 45 getinterval aload pop /minus
    StandardEncoding 46 98 getinterval aload pop /dotlessi /grave /acute
    /circumflex /tilde /macron /breve /dotaccent /dieresis /.notdef /ring
    /cedilla /.notdef /hungarumlaut /ogonek /caron /space /exclamdown /cent
    /sterling /currency /yen /brokenbar /section /dieresis /copyright
    /ordfeminine /guillemotleft /logicalnot /hyphen /registered /macron
    /degree /plusminus /twosuperior /threesuperior /acute /mu /paragraph
    /periodcentered /cedilla /onesuperior /ordmasculine /guillemotright
    /onequarter /onehalf /threequarters /questiondown /Agrave /Aacute
    /Acircumflex /Atilde /Adieresis /Aring /AE /Ccedilla /Egrave /Eacute
    /Ecircumflex /Edieresis /Igrave /Iacute /Icircumflex /Idieresis /Eth
    /Ntilde /Ograve /Oacute /Ocircumflex /Otilde /Odieresis /multiply
    /Oslash /Ugrave /Uacute /Ucircumflex /Udieresis /Yacute /Thorn
    /germandbls /agrave /aacute /acircumflex /atilde /adieresis /aring /ae
    /ccedilla /egrave /eacute /ecircumflex /edieresis /igrave /iacute
    /icircumflex /idieresis /eth /ntilde /ograve /oacute /ocircumflex
    /otilde /odieresis /divide /oslash /ugrave /uacute /ucircumflex
    /udieresis /yacute /thorn /ydieresis ] def
{ restore } if

%Title: backspacefont.ps suggested by Glenn Reid (Adobe Systems).

/backspacefont {
    /CourierISO findfont dup length dict begin
        { %forall
            1 index /FID eq { pop pop } { def } ifelse
        } forall
        currentdict /UniqueID known { %if
              /UniqueID UniqueID 16#800000 xor def
        } if
        CharStrings length 1 add dict begin
            CharStrings { def } forall
          /backspace { -600 0 setcharwidth pop } bind def
            currentdict
      end
        /CharStrings exch def
        /Encoding Encoding 256 array copy def
        Encoding 8 /backspace put
        currentdict
    end
    definefont
} bind def

/reencodeISO { %def
    findfont dup length dict begin
    { 1 index /FID ne { def }{ pop pop } ifelse } forall
    /Encoding ISOLatin1Encoding def
    currentdict end definefont pop
} bind def

/fontHd_size 14 def
/fontH2_size 10 def
/fontNd_size 12 def

/setmargin {
  /leftedge 0 def
  /bottomedge 0 def
  fullheight fullwidth LandscapeMode { exch } if
    /rightedge exch def
    /topedge exch def
  9 7 LandscapeMode { exch } if pop
    /FontSize exch def

  0 localeprolog eq
  {
  /font1d /Times-Bold           reencodeISO
  /font2d /Times-Roman          reencodeISO
  /CourierISO /Courier          reencodeISO
  /fontHd /Helvetica-BoldOblique        reencodeISO
  /fontH2 /Helvetica-BoldOblique        reencodeISO
  /fontNd /Times-Bold           reencodeISO
  /font3d backspacefont
  /BoldFont      { /font1d findfont FontSize scalefont setfont } def
  /pf            { /font2d findfont FontSize scalefont setfont } def
  /sf            { /font3d findfont FontSize scalefont setfont } def
  /fontH         { /fontHd findfont fontHd_size scalefont setfont } def
  /fontD         { /fontH2 findfont fontH2_size scalefont setfont } def
  /fontN         { /fontNd findfont fontNd_size scalefont setfont } def
  }
  {
  /font1d /LC_Times-Bold def
  /font2d /LC_Times-Roman def
  /CourierISO /LC_Courier def
  /fontHd /LC_Helvetica-BoldOblique def
  /fontH2 /LC_Helvetica-BoldOblique def
  /fontNd /LC_Times-Bold def
  /font3d /LC_Courier def
  /BoldFont      { font1d findfont FontSize scalefont setfont } def
  /pf            { font2d findfont FontSize scalefont setfont } def
  /sf            { font3d findfont FontSize scalefont setfont } def
  /fontH         { fontHd findfont fontHd_size scalefont setfont } def
  /fontD         { fontH2 findfont fontH2_size scalefont setfont } def
  /fontN         { fontNd findfont fontNd_size scalefont setfont } def
  }
  ifelse

} def

/graybox	% grey x1 y1 x2 y2 graybox --
{
    newpath
      4 -1 roll 2 copy			% y2 x1
      10 sub exch moveto
      4 -1 roll 2 copy			% x1 y1
      10 180 270 arc
      4 -1 roll 1 copy 3 -1 roll	% x2 y1
      10 270 0 arc
      3 -1 roll 1 copy 3 1 roll		% x1 y2 x2 y2
      10 0 90 arc
      10 90 180 arc
    closepath
    gsave
      setgray fill
    grestore
    0 setgray stroke
} bind def

/endpage		% page_number endpage --
{
  gsave
    % listing type, user, date across the top
    0.88                                % gray level
    leftedge  50 add topedge 56 sub     % bottom lt corner
    rightedge 95 sub topedge 36 sub     % top rt corner
    graybox

    currentdict /sfactor known not
    {
      % determine a suitable factor to scale down the header text (done
      % only once per document)
      rightedge 95 sub leftedge 50 add sub % available space
      fontD MailFor stringwidth pop
      fontH User    stringwidth pop add
            (  )    stringwidth pop add
      fontD TimeNow stringwidth pop add    % total length of strings
      div
      dup 1 gt {pop 1} if                  % does it fit?
      /sfactor exch def                    % if not scale down
    }
    if

    leftedge 50 add topedge 50 sub moveto
    gsave
    sfactor dup scale
    fontD MailFor show
    fontH User    show
          (  )    show
    grestore
    fontD
    rightedge 95 sub TimeNow stringwidth pop sfactor mul sub
    topedge 50 sub moveto
    gsave
    sfactor dup scale
    TimeNow show
    grestore
    % page number to the top right corner
    1                                   % gray level
    rightedge 70 sub topedge 56 sub     % bottom lt
    rightedge 50 sub topedge 36 sub     % top rt
    graybox
    fontD
    (Page) dup stringwidth
       topedge 40 sub exch sub                  % y-centered
       exch 2 div rightedge 60 sub exch sub     % x-centered
       exch moveto show
    fontH
    dup stringwidth
       topedge 58 sub exch sub                  % y-centered
       exch 2 div rightedge 60 sub exch sub     % x-centered
       exch moveto show
    0.88                                   % gray level
    leftedge  50 add bottomedge 50 add     % bottom lt corner
    rightedge 50 sub bottomedge 70 add     % top rt corner
    graybox
    fontH
    % compute x pos for centring
      % ((l+50) + (r-50)) / 2 is the page centre
      leftedge rightedge add 2 div
      % but we want to start at the beginning of the string, not the middle
      Subject stringwidth pop 2 div sub
    % y pos is simple
      bottomedge 54 add
      moveto
    Subject show
  grestore
%  PageSave restore      % restore *always* before showpage
  showpage		% display it
} bind def

/endcol			% page_number col_number endcol --
{
  pop			% get rid of col_number
  pop                   % get rid of page_number
  /ypos topedge 92 sub def
  /xpos rightedge leftedge sub 2 div def
  xpos ypos moveto
} bind def

/newpage	% page_number newpage --
{
  pop		% pageno
%  /PageSave save def
  LandscapeMode {setlandscape} if
  /lct 0 def
  /ypos topedge 92 sub def
  /xpos leftedge 50 add def
  xpos ypos moveto
  sf
} bind def

/setlandscape
{
  612 0 translate
  90 rotate
} bind def

/showline
{
  show
  /ypos ypos FontSize sub def
  xpos ypos moveto
} bind def

% see the trouble shooting section in the README for details on setscreen.
106 45 {dup mul exch dup mul add 1.0 exch sub} setscreen

/LandscapeMode false def

setmargin
%%EndProlog
%%Page: ? 1
1 newpage
/MailFor (Listing for ) def
/User (Florian Niedermann) def
/TimeNow (Fri Oct 21 08:52:16 2005) def
/Subject () def
sf (/*) showline
(# $Header: /home/ralph/progs/concordance/RCS/alphalst.cc,v 0.3 1996/11/26 23:52:) showline
(11 ralph Exp ralph $) showline
(# $Date: 1996/11/26 23:52:11 $) showline
(# $Author: ralph $) showline
(# $Log: alphalst.cc,v $) showline
(# Revision 0.3  1996/11/26 23:52:11  ralph) showline
(# Changed loop ints to unsigned ints to get rid of warnings that there were comp) showline
(arisons between signed and unsigned ints.) showline
(# .) showline
(# \033[AChanged alphabet type from unsigned to signed char.) showline
(#) showline
(# Revision 0.2  1996/11/23 00:51:19  ralph) showline
(# Added GNU public license.) showline
(#) showline
(# Revision 0.1  1996/11/10 22:08:51  ralph) showline
(# Alpha test version.) showline
(#) showline
(# Revision 1.1  1996/11/10 20:41:50  ralph) showline
(# Initial revision) showline
(#) showline
(# Revision 0.1  1996/05/21 22:59:26  ralph) showline
(# Initial revision) showline
(#) showline
(*/) showline
(/* Edited: 12-30-93 13:18 */) showline
(/************************************************************************) showline
(* File: alphalst.cc - used by Concordancing program) showline
(* Creates a count of the usage of letters in a document;) showline
(* Keeps track of percentage of each character's usage of total) showline
(* eof functions in concutils.cc file.) showline
(* Keeps track of total alpha/numeric characters) showline
(* Copyright \(C\) 12-16-93 Ralph L. Meyer - R & R Consulting) showline
(* 39 Nelson Avenue, Spotswood, NJ 08884) showline
(*) showline
(* This program is free software; you can redistribute it and/or) showline
(* modify it under the terms of the GNU General Public License) showline
(* as published by the Free Software Foundation; either version 2) showline
(* of the License, or \(at your option\) any later version.) showline
(*) showline
(*) showline
(* This program is distributed in the hope that it will be useful,) showline
(* but WITHOUT ANY WARRANTY; without even the implied warranty of) showline
(* MERCHANTABILITY or FITNESS FOR A PARTICULAR PURPOSE.  See the) showline
(* GNU General Public License for more details.) showline
(*) showline
(* You should have received a copy of the GNU General Public License) showline
(* along with this program; if not, write to the Free Software) showline
(* Foundation, Inc., 675 Mass Ave, Cambridge, MA 02139, USA.) showline
(*) showline
(* Bug reports and suggestions can be sent to:) showline
(* meyer@princeton.edu) showline
(* Ralph L. Meyer, 39 Nelson Ave. Spotswood, NJ 08884) showline
() showline
(DEBUGGING:) showline
(*************************************************************************/) showline
(#include "alphalst.h") showline
() showline
(//note: this alphabet could be expanded to include ascii diacriticals!) showline
() showline
sf (1) 1 endcol
(1) endpage
%%Page: ? 2
2 newpage
/MailFor (Listing for ) def
/User (Florian Niedermann) def
/TimeNow (Fri Oct 21 08:52:16 2005) def
/Subject () def
sf (char *alphabet={"abcdefghijklmnopqrstuvwxyz0123456789"};) showline
() showline
(//EXPERIMENTAL: UNIMPLEMENTED!: to use this expanded diacritical alphabet list..) showline
(.) showline
(//must change incChar function & define constant ALPHABETLEN) showline
(//char *alphabet="a\203\204\205\206\340\221b\341\143\207\144\353\145\202\210\211\212fg\342\150i\213\214\215\241jklm\346\156\244\157\223\224\225\242p\343\350qrs\345\164\351\165\201\226\227\243\347\166wxy\230\172\352\060) showline
(123456789";) showline
() showline
(enum SORTORDER {descending,ascending};) showline
() showline
(//*****  class CharCt functions* ***********************************************) showline
(**********) showline
() showline
(CharCt &CharCt::operator = \(CharCt &cc\)) showline
({) showline
(   character=cc.getCharacter\(\);) showline
(   useAmt=cc.getUse\(\);) showline
(   percentUse=cc.getPercentUse\(\);) showline
(   return *this;) showline
(}) showline
() showline
(CharCt &CharCt::operator = \(char &ch\)) showline
({) showline
(   character=ch;) showline
(   useAmt=0;) showline
(   percentUse=0.0;) showline
(   return *this;) showline
(}) showline
() showline
(int CharCt::operator == \(CharCt &cc\)) showline
({) showline
(   return character==cc.getCharacter\(\) ? 1 : 0;) showline
(}) showline
() showline
(int CharCt::operator < \(CharCt &cc\)) showline
({) showline
(   return character < cc.getCharacter\(\) ? 1 : 0;) showline
(}) showline
() showline
(int CharCt::operator > \(CharCt &cc\)) showline
({) showline
(   return character > cc.getCharacter\(\) ? 1 : 0;) showline
(}) showline
() showline
(void CharCt::saveChar\(FILE *fp\)) showline
({) showline
(   fwrite\(&character,sizeof\(char\),1,fp\);) showline
(   fwrite\(&useAmt,sizeof\(long\),1,fp\);) showline
(   fwrite\(&percentUse,sizeof\(float\),1,fp\);) showline
(}) showline
() showline
(void CharCt::loadChar\(FILE *fp\)) showline
({) showline
(   fread\(&character,sizeof\(char\),1,fp\);) showline
(   fread\(&useAmt,sizeof\(long\),1,fp\);) showline
(   fread\(&percentUse,sizeof\(float\),1,fp\);) showline
(}) showline
() showline
(istream &operator>>\(istream &is,CharCt &cc\)) showline
({) showline
sf (2) 1 endcol
(2) endpage
%%Page: ? 3
3 newpage
/MailFor (Listing for ) def
/User (Florian Niedermann) def
/TimeNow (Fri Oct 21 08:52:16 2005) def
/Subject () def
sf (   is >> cc.character;) showline
(   cc.useAmt=1;) showline
(   return is;) showline
(}) showline
() showline
(ostream &operator<<\(ostream &os,CharCt &cc\)) showline
({) showline
(   os.width\(2\);) showline
(   os.fill\(' '\);) showline
(   os << cc.character << ' ';) showline
(   os.width\(5\);) showline
(   os.fill\('.'\);) showline
(   os << cc.useAmt;) showline
(   os.width\(6\);) showline
(   os.fill\(' '\);) showline
(   os.precision\(2\);) showline
(   os << cc.percentUse*100 << "% ";) showline
(   for \(int n=0;n<\(cc.percentUse*100\);n++\)) showline
(      os << cc.character;  //put the char in file as graph) showline
(//    os << '*';) showline
(   return os;) showline
(}) showline
() showline
(//***** End of CharCt *********************************************************) showline
() showline
() showline
(//*****  CharCtVector functions ************************************************) showline
(*********) showline
() showline
(CharCtVector::CharCtVector\(void\)) showline
(   :totAlphaNums\(0\)) showline
({) showline
(   for \(int n=0;n<ALPHABETLEN;n++\){) showline
(      charVector[n]=*\(alphabet+n\);  //use in relation to overloaded = that sets ) showline
(usage to 0) showline
(   }) showline
(}) showline
() showline
(CharCtVector::CharCtVector\(CharCtVector &ccv\)) showline
(   :totAlphaNums\(0\)) showline
({) showline
(   for \(int n=0;n<ALPHABETLEN;n++\){) showline
(      charVector[n].setCharacter\(ccv[n].getCharacter\(\),ccv[n].getUse\(\)\);) showline
(   }) showline
(}) showline
() showline
(void CharCtVector::saveVector\(FILE *fp\)) showline
({) showline
(   if \(totAlphaNums>0\)doPercentages\(\);) showline
(   fwrite\(&totAlphaNums,sizeof\(long\),1,fp\);) showline
(   for \(int n=0;n<ALPHABETLEN;n++\){) showline
(      charVector[n].saveChar\(fp\);) showline
(   }) showline
(}) showline
() showline
(void CharCtVector::loadVector\(FILE *fp\)) showline
({) showline
(   fread\(&totAlphaNums,sizeof\(long\),1,fp\);) showline
(   for \(int n=0;n<ALPHABETLEN;n++\){) showline
(      charVector[n].loadChar\(fp\);) showline
sf (3) 1 endcol
(3) endpage
%%Page: ? 4
4 newpage
/MailFor (Listing for ) def
/User (Florian Niedermann) def
/TimeNow (Fri Oct 21 08:52:16 2005) def
/Subject () def
sf (   }) showline
(}) showline
() showline
(void CharCtVector::incChar\(int ch\)   //increment character ch) showline
({) showline
(   int index;) showline
(   if\(isalpha\(ch\)\){) showline
(      index=tolower\(ch\)-'a';               //index into the vector to the char) showline
(      charVector[index].incChar\(\);) showline
(      totAlphaNums++;) showline
(   }) showline
(   else if \(isdigit\(ch\)\){) showline
(      index='z'-'a'+ch-'/';       //index to the numeral) showline
(      charVector[index].incChar\(\);) showline
(      totAlphaNums++;) showline
(   }) showline
(   else return;   //character wasn't an alphanumeric. don't count.) showline
(}) showline
() showline
(void CharCtVector::doPercentages\(void\)  //set percentages of total alphanumeric ) showline
(characters for all characters) showline
({) showline
(   if \(totAlphaNums>0\)) showline
(      for \(int n=0;n<ALPHABETLEN;n++\){) showline
(         charVector[n].setPercent\(charVector[n].getUse\(\)/float\(totAlphaNums\)\);) showline
(      }) showline
(}) showline
() showline
(CharCt &CharCtVector::operator[]\(int elem\)) showline
({) showline
(   assert \(elem>=0 && elem < ALPHABETLEN\);) showline
(   return charVector[elem];) showline
(}) showline
() showline
(ostream &operator<<\(ostream &os,CharCtVector &ccv\)) showline
({) showline
(   if \(ccv.totAlphaNums>0\)ccv.doPercentages\(\);) showline
(   for \(int n=0;n<ALPHABETLEN;n++\){) showline
(      os << ccv[n] << endl;) showline
(   }) showline
(   os << endl << "Total Characters: "<< ccv.totAlphaNums << endl;) showline
(   return os;) showline
(}) showline
() showline
(//***** end of CharCtVector class  *********************************************) showline
(************) showline
sf (4) 1 endcol
(4) endpage
%%Trailer
%%Pages: 4
