%!PS-Adobe-1.0
/localeprolog 0 def

%!PS-Adobe-1.0
%%Creator: Steve Holden
%%Modified: John Macdonald, Rich Burridge, Rainer Klute
%%Modified: Bertrand Decouty, Bjorn P. Brox
%%Title: @(#)mp.pro.ps 3.3 93/03/11
%%CreationDate: see above
%%PageLength 60
%%LineLength 80
%%DocumentFonts: Courier Helvetica-BoldOblique Times-Bold Times-Roman
%%Pages: (atend)
%%EndComments

%  @(#)mp.common.ps 3.1 92/04/03
%
%  Mp PostScript routines common to all prologue files.
%
%  The initial header comments are read (and output to stdout)
%  from the individual prologue file, then the contents of this
%  file are read (and output to stdout), then the remainder of
%  the individual prologue file.

/inch { 72 mul } bind def
%
%  IMPORTANT NOTE: The following two variables should be set correctly.
%                  Reasonable values for fullwidth and fullheight are
%                  8.5/11 inch for US Letter, and 8.5/11.4 inch for A4.
%                  Since sites usually have one single format of paper,
%                  mp should be installed with either the USLetter or A4
%                  values.
%
/fullwidth 8.5 inch def
/fullheight 11 inch def

% Define /ISOLatin1Encoding only if it's not already there.
/ISOLatin1Encoding where { pop save true }{ false } ifelse
  /ISOLatin1Encoding [ StandardEncoding 0 45 getinterval aload pop /minus
    StandardEncoding 46 98 getinterval aload pop /dotlessi /grave /acute
    /circumflex /tilde /macron /breve /dotaccent /dieresis /.notdef /ring
    /cedilla /.notdef /hungarumlaut /ogonek /caron /space /exclamdown /cent
    /sterling /currency /yen /brokenbar /section /dieresis /copyright
    /ordfeminine /guillemotleft /logicalnot /hyphen /registered /macron
    /degree /plusminus /twosuperior /threesuperior /acute /mu /paragraph
    /periodcentered /cedilla /onesuperior /ordmasculine /guillemotright
    /onequarter /onehalf /threequarters /questiondown /Agrave /Aacute
    /Acircumflex /Atilde /Adieresis /Aring /AE /Ccedilla /Egrave /Eacute
    /Ecircumflex /Edieresis /Igrave /Iacute /Icircumflex /Idieresis /Eth
    /Ntilde /Ograve /Oacute /Ocircumflex /Otilde /Odieresis /multiply
    /Oslash /Ugrave /Uacute /Ucircumflex /Udieresis /Yacute /Thorn
    /germandbls /agrave /aacute /acircumflex /atilde /adieresis /aring /ae
    /ccedilla /egrave /eacute /ecircumflex /edieresis /igrave /iacute
    /icircumflex /idieresis /eth /ntilde /ograve /oacute /ocircumflex
    /otilde /odieresis /divide /oslash /ugrave /uacute /ucircumflex
    /udieresis /yacute /thorn /ydieresis ] def
{ restore } if

%Title: backspacefont.ps suggested by Glenn Reid (Adobe Systems).

/backspacefont {
    /CourierISO findfont dup length dict begin
        { %forall
            1 index /FID eq { pop pop } { def } ifelse
        } forall
        currentdict /UniqueID known { %if
              /UniqueID UniqueID 16#800000 xor def
        } if
        CharStrings length 1 add dict begin
            CharStrings { def } forall
          /backspace { -600 0 setcharwidth pop } bind def
            currentdict
      end
        /CharStrings exch def
        /Encoding Encoding 256 array copy def
        Encoding 8 /backspace put
        currentdict
    end
    definefont
} bind def

/reencodeISO { %def
    findfont dup length dict begin
    { 1 index /FID ne { def }{ pop pop } ifelse } forall
    /Encoding ISOLatin1Encoding def
    currentdict end definefont pop
} bind def

/fontHd_size 14 def
/fontH2_size 10 def
/fontNd_size 12 def

/setmargin {
  /leftedge 0 def
  /bottomedge 0 def
  fullheight fullwidth LandscapeMode { exch } if
    /rightedge exch def
    /topedge exch def
  9 7 LandscapeMode { exch } if pop
    /FontSize exch def

  0 localeprolog eq
  {
  /font1d /Times-Bold           reencodeISO
  /font2d /Times-Roman          reencodeISO
  /CourierISO /Courier          reencodeISO
  /fontHd /Helvetica-BoldOblique        reencodeISO
  /fontH2 /Helvetica-BoldOblique        reencodeISO
  /fontNd /Times-Bold           reencodeISO
  /font3d backspacefont
  /BoldFont      { /font1d findfont FontSize scalefont setfont } def
  /pf            { /font2d findfont FontSize scalefont setfont } def
  /sf            { /font3d findfont FontSize scalefont setfont } def
  /fontH         { /fontHd findfont fontHd_size scalefont setfont } def
  /fontD         { /fontH2 findfont fontH2_size scalefont setfont } def
  /fontN         { /fontNd findfont fontNd_size scalefont setfont } def
  }
  {
  /font1d /LC_Times-Bold def
  /font2d /LC_Times-Roman def
  /CourierISO /LC_Courier def
  /fontHd /LC_Helvetica-BoldOblique def
  /fontH2 /LC_Helvetica-BoldOblique def
  /fontNd /LC_Times-Bold def
  /font3d /LC_Courier def
  /BoldFont      { font1d findfont FontSize scalefont setfont } def
  /pf            { font2d findfont FontSize scalefont setfont } def
  /sf            { font3d findfont FontSize scalefont setfont } def
  /fontH         { fontHd findfont fontHd_size scalefont setfont } def
  /fontD         { fontH2 findfont fontH2_size scalefont setfont } def
  /fontN         { fontNd findfont fontNd_size scalefont setfont } def
  }
  ifelse

} def

/graybox	% grey x1 y1 x2 y2 graybox --
{
    newpath
      4 -1 roll 2 copy			% y2 x1
      10 sub exch moveto
      4 -1 roll 2 copy			% x1 y1
      10 180 270 arc
      4 -1 roll 1 copy 3 -1 roll	% x2 y1
      10 270 0 arc
      3 -1 roll 1 copy 3 1 roll		% x1 y2 x2 y2
      10 0 90 arc
      10 90 180 arc
    closepath
    gsave
      setgray fill
    grestore
    0 setgray stroke
} bind def

/endpage		% page_number endpage --
{
  gsave
    % listing type, user, date across the top
    0.88                                % gray level
    leftedge  50 add topedge 56 sub     % bottom lt corner
    rightedge 95 sub topedge 36 sub     % top rt corner
    graybox

    currentdict /sfactor known not
    {
      % determine a suitable factor to scale down the header text (done
      % only once per document)
      rightedge 95 sub leftedge 50 add sub % available space
      fontD MailFor stringwidth pop
      fontH User    stringwidth pop add
            (  )    stringwidth pop add
      fontD TimeNow stringwidth pop add    % total length of strings
      div
      dup 1 gt {pop 1} if                  % does it fit?
      /sfactor exch def                    % if not scale down
    }
    if

    leftedge 50 add topedge 50 sub moveto
    gsave
    sfactor dup scale
    fontD MailFor show
    fontH User    show
          (  )    show
    grestore
    fontD
    rightedge 95 sub TimeNow stringwidth pop sfactor mul sub
    topedge 50 sub moveto
    gsave
    sfactor dup scale
    TimeNow show
    grestore
    % page number to the top right corner
    1                                   % gray level
    rightedge 70 sub topedge 56 sub     % bottom lt
    rightedge 50 sub topedge 36 sub     % top rt
    graybox
    fontD
    (Page) dup stringwidth
       topedge 40 sub exch sub                  % y-centered
       exch 2 div rightedge 60 sub exch sub     % x-centered
       exch moveto show
    fontH
    dup stringwidth
       topedge 58 sub exch sub                  % y-centered
       exch 2 div rightedge 60 sub exch sub     % x-centered
       exch moveto show
    0.88                                   % gray level
    leftedge  50 add bottomedge 50 add     % bottom lt corner
    rightedge 50 sub bottomedge 70 add     % top rt corner
    graybox
    fontH
    % compute x pos for centring
      % ((l+50) + (r-50)) / 2 is the page centre
      leftedge rightedge add 2 div
      % but we want to start at the beginning of the string, not the middle
      Subject stringwidth pop 2 div sub
    % y pos is simple
      bottomedge 54 add
      moveto
    Subject show
  grestore
%  PageSave restore      % restore *always* before showpage
  showpage		% display it
} bind def

/endcol			% page_number col_number endcol --
{
  pop			% get rid of col_number
  pop                   % get rid of page_number
  /ypos topedge 92 sub def
  /xpos rightedge leftedge sub 2 div def
  xpos ypos moveto
} bind def

/newpage	% page_number newpage --
{
  pop		% pageno
%  /PageSave save def
  LandscapeMode {setlandscape} if
  /lct 0 def
  /ypos topedge 92 sub def
  /xpos leftedge 50 add def
  xpos ypos moveto
  sf
} bind def

/setlandscape
{
  612 0 translate
  90 rotate
} bind def

/showline
{
  show
  /ypos ypos FontSize sub def
  xpos ypos moveto
} bind def

% see the trouble shooting section in the README for details on setscreen.
106 45 {dup mul exch dup mul add 1.0 exch sub} setscreen

/LandscapeMode false def

setmargin
%%EndProlog
%%Page: ? 1
1 newpage
/MailFor (Listing for ) def
/User (Florian Niedermann) def
/TimeNow (Fri Oct 21 08:45:20 2005) def
/Subject () def
sf (/*) showline
(# $Header: /home/ralph/progs/concordance/RCS/concordance.cc,v 0.5 1996/11/26 23:) showline
(49:48 ralph Exp ralph $) showline
(# $Date: 1996/11/26 23:49:48 $) showline
(# $Author: ralph $) showline
(# $Log: concordance.cc,v $) showline
(# Revision 0.5  1996/11/26 23:49:48  ralph) showline
(# Fixed SIGSEG seg fault occurring with 4 letter filenames.) showline
(# Checked and changed instructions so they all conform to UNIX standards) showline
(# set up in file.) showline
(# Made cosmetic changes to copyright function.) showline
(#) showline
(# Revision 0.4  1996/11/23 12:33:45  ralph) showline
(# main\(\) rewritten to handle UNIX-like type parameter switches.) showline
(# function copyright\(\) to put copyright\(left\) on screen.) showline
(# parameters to parse\(\) - which must be modified - changed/added.) showline
(#) showline
(# Revision 0.3  1996/11/23 00:50:20  ralph) showline
(# Added function copyright\(\), GNU public license.) showline
(#) showline
(# Revision 0.2  1996/11/21 22:13:25  ralph) showline
(# Minor cosmetic changes. Fixed bug with .wds file.) showline
(#) showline
(# Revision 0.1  1996/11/16 18:47:12  ralph) showline
(# Program runs as of this date, and compiles well, but there is a problem:) showline
(# It only writes to the .wds file 2 words and then then quits.  It writes the .a) showline
(bc) showline
(# file all right, and apparently properly, though I haven't checked the) showline
(# counts yet.) showline
(#) showline
(*) showline
(* File: concordance.cc - main file for program 'concordancer') showline
(* Copyright \(C\) 12-16-93 Ralph L. Meyer - R & R Consulting) showline
(* 39 Nelson Avenue, Spotswood, NJ 08884) showline
(*) showline
(* This program is free software; you can redistribute it and/or) showline
(* modify it under the terms of the GNU General Public License) showline
(* as published by the Free Software Foundation; either version 2) showline
(* of the License, or \(at your option\) any later version.) showline
(*) showline
(*) showline
(* This program is distributed in the hope that it will be useful,) showline
(* but WITHOUT ANY WARRANTY; without even the implied warranty of) showline
(* MERCHANTABILITY or FITNESS FOR A PARTICULAR PURPOSE.  See the) showline
(* GNU General Public License for more details.) showline
(*) showline
(* You should have received a copy of the GNU General Public License) showline
(* along with this program; if not, write to the Free Software) showline
(* Foundation, Inc., 675 Mass Ave, Cambridge, MA 02139, USA.) showline
(*) showline
(* Bug reports and suggestions can be sent to:) showline
(* meyer@princeton.edu) showline
(* Ralph L. Meyer, 39 Nelson Ave. Spotswood, NJ 08884) showline
(*) showline
(* NOTES & SUGGESTIONS TO MYSELF:) showline
(*) showline
(* DONE 1. Could add command line statement of beginning line number) showline
(* as an argv.  Words on first line of the document will be considered as) showline
(* beginning on line ...whatever the beginning line number is....) showline
(* DONE 2. Add word counter - number of words in document) showline
sf (1) 1 endcol
(1) endpage
%%Page: ? 2
2 newpage
/MailFor (Listing for ) def
/User (Florian Niedermann) def
/TimeNow (Fri Oct 21 08:45:20 2005) def
/Subject () def
sf (* DONE 3. # of lines in document) showline
(* DONE 4. Add facilities to do stanzas as 57>) showline
(* DONE 5. Add facilities to do pages as on formfeed char ASCII 12) showline
(* 6. Alter line count saving not to save a line already present) showline
(*    in Word.cpp locus) showline
(* 7. DOS - Count Word/WordPerfect page breaks? - necessitates seeing what) showline
(*    codes these programs use to break/count pages.) showline
(* DONE 8. UNIX - set argvs to take flags before filename) showline
(* 9. Average the word lengths at end of .abc file...  keep a running count of th) showline
(e) showline
(*    number of words in the file, and add the size of the words to create a word) showline
(*    length average.) showline
(*/) showline
() showline
() showline
(#define MAXBFRSZ  80 //max size of word holding buffer) showline
(#define FILESEGMENT  512 //length of input file to read at one time) showline
(#define EXTENSIONLEN 5   //additional length to add to filename buffer for .wds,) showline
( .abc file extensions.) showline
() showline
() showline
(#include <new.h>) showline
(#include "standard.h") showline
(#include "word.h") showline
(#include "alphalst.h") showline
() showline
() showline
(//global - for use by outOfMem\(\);) showline
(unsigned int locNum=1;   //line/page/stanza number of document determined by CR/) showline
(FF/n>.) showline
(unsigned int beginningLocNum=locNum; //beginning count of lines) showline
(long fileLoc=1;      //read location in file) showline
(long wordCount=0;    //number of words in file) showline
() showline
(//external functions \(in concutls.cpp | concutils.cc\):) showline
(extern int ateof\(istream &instream\);) showline
(extern int ateof\(FILE *fp\);) showline
(extern void copyright\(void\);//put copyright on screen at program start.) showline
(extern char *lowerCaseString\(char *stringToLc\);) showline
(extern void getFilenameOnly\(char *fname\);) showline
(extern BOOLEAN isAlphaDiacritic\(int c\);) showline
(extern BOOLEAN isFlagError\(BOOLEAN stanzaflag,BOOLEAN pageflag,BOOLEAN lineflag\)) showline
(;) showline
(#ifdef OS_DOS) showline
(   extern void propeller\(int xl=0,int yl=0\);) showline
(#endif) showline
() showline
(//forward declarations \(functions in this file\):) showline
(void parse\(char *fname,char countType,char *ofname,BOOLEAN quietflag\);   //parse) showline
( file into words) showline
(void instructions\(void\);   //puts instructions for use on screen) showline
(void copyright\(void\);   //puts copyright on screen) showline
(void saveConFile\(char *origFn, char *conFn, char ctType,WordList &wl,BOOLEAN qui) showline
(et\);   //save concordance file) showline
(void saveAlphabetFile\(char *origFn, char *alphaFn,CharCtVector &ccv,BOOLEAN quie) showline
(t\); //save alphabet count file) showline
(void outOfMem\(void\);  //new\(\) error handler) showline
() showline
(int main\(int argc, char **argv\)) showline
({) showline
sf (2) 1 endcol
(2) endpage
%%Page: ? 3
3 newpage
/MailFor (Listing for ) def
/User (Florian Niedermann) def
/TimeNow (Fri Oct 21 08:45:20 2005) def
/Subject () def
sf (    char *outfile;) showline
(    int n, ndx;) showline
(    BOOLEAN QuietFlag=OFF; //indicate whether to put stuff on screen while opera) showline
(ting) showline
() showline
(    copyright\(\);) showline
() showline
(    if \(argc<2\){   //if only appname is called, provide instructions) showline
(       instructions\(\);) showline
(       return 0;) showline
(    }) showline
() showline
(    //if help is asked for, provide instructions) showline
(    else if\(strcmp\(argv[1],"-?"\)==0||strcmp\(argv[1],"-h"\)==0||strcmp\(argv[1],"--) showline
(help"\)==0\){) showline
(       instructions\(\);) showline
(       return 0;) showline
(    }) showline
() showline
(    if \(argc<4\){   //no outfile name given on command line: set as flag to  use ) showline
(defaults) showline
(       outfile=0;) showline
(    }) showline
(    else{ //otherwise use the name of the outfile given by operator:) showline
(       outfile=new char[strlen\(argv[3]\)];) showline
(       assert\(outfile!=0\);) showline
(       strcpy\(outfile,argv[3]\);) showline
(   }) showline
() showline
(   set_new_handler\(outOfMem\);    //Borland c++ V. 3.1 new\(\) error handler change) showline
(r) showline
() showline
(   char numBfr[12];  //buffer to hold command line page/stanza/line number to st) showline
(art) showline
() showline
() showline
(#ifdef OS_UNIX //this block is set to handle command line switches as UNIX does:) showline
( argv[1] is switch) showline
(   enum CtType{UNINDICATED,PAGE,LINE,STANZA}; //command line switch indicators) showline
(      CtType countType=UNINDICATED;) showline
(   if \(argc > 2\){    //operator has included switches \(segfaulted here without a) showline
(rgc > 2 !\)) showline
(      if \(strstr\(argv[1],"n:"\)\){ //determine starting p/line/v number if operato) showline
(r has indicated) showline
(         for \(n=0;argv[1][n]!=':';n++\);//move past the colon) showline
(         n++;) showline
(         for \(ndx=0;ndx<12&&argv[1][n];ndx++,n++\){) showline
(            numBfr[ndx]=argv[1][n];) showline
(         }) showline
() showline
(      numBfr[ndx]='\\0';) showline
(      for \(n=0;n<12&&numBfr[n];n++\) //check to be surethere is a number in the b) showline
(uffer) showline
(         if \(!isdigit\(numBfr[n]\)\){) showline
(            cerr << "\\n\\nSYNTAX ERROR on command line: switch -[pvl]n: did not c) showline
(ontain a proper integer.\\n";) showline
(            exit\(1\);) showline
(         }) showline
(      locNum=beginningLocNum=atoi\(numBfr\);) showline
(   }) showline
sf (3) 1 endcol
(3) endpage
%%Page: ? 4
4 newpage
/MailFor (Listing for ) def
/User (Florian Niedermann) def
/TimeNow (Fri Oct 21 08:45:20 2005) def
/Subject () def
sf () showline
(   //find out what kind of numbering is to be used in determining word locations) showline
(:) showline
() showline
(   for\(n=1; n < argc; n++\){) showline
(      if\(strstr\(argv[n],"-"\)\){    //if the arg is a switch...) showline
(         if\(strstr\(argv[n],"p"\)\)) showline
(            countType=PAGE;) showline
(         else if\(strstr\(argv[n],"l"\)\)) showline
(            countType=LINE;) showline
(         else if\(strstr\(argv[n],"s"\)\)) showline
(            countType=STANZA;) showline
(         else) showline
(            countType=PAGE;) showline
(         if\(strstr\(argv[n],"q"\)\)) showline
(            QuietFlag=ON;) showline
(      }) showline
(   }) showline
(   switch\(countType\){) showline
(      case STANZA:) showline
(         parse\(argv[2],'s',outfile,QuietFlag\);) showline
(         break;) showline
(      case LINE:) showline
(         parse\(argv[2],'l',outfile,QuietFlag\);) showline
(         break;) showline
(      case PAGE:) showline
(         parse\(argv[2],'p',outfile,QuietFlag\);) showline
(         break;) showline
(      case UNINDICATED:) showline
(         parse\(argv[2],'p',outfile,QuietFlag\);) showline
(         break;) showline
(      }) showline
(   }) showline
() showline
(   else parse\(argv[1],'p',outfile,QuietFlag\);  //default choice if none is given) showline
(: concordance by pages) showline
() showline
(#endif //end of ifdef UNIX) showline
() showline
() showline
() showline
(    set_new_handler\(0\);         //use with Borland C++ V. 3.1 and compact model) showline
() showline
(    delete [] outfile;) showline
(    return 0;) showline
(}) showline
() showline
() showline
(//**copyright\(void\)*************************************************************) showline
(*) showline
(// put copyright on screen) showline
(void copyright\(void\)) showline
({) showline
(    cout << "\\nThis is Concordance, a program to make concordances for text file) showline
(s.\\n") showline
(   << "$Id: concordance.cc,v 0.5 1996/11/26 23:49:48 ralph Exp ralph $\\n") showline
(   << "Copyright \(C\) 1996 Ralph L. Meyer, Spotswood, NJ 08884.\\n") showline
(   << "Concordance is licensed to users only under the conditions stated in the\\) showline
(n") showline
(   << "GNU public license that comes with the distribution of this program.\\n") showline
sf (4) 1 endcol
(4) endpage
%%Page: ? 5
5 newpage
/MailFor (Listing for ) def
/User (Florian Niedermann) def
/TimeNow (Fri Oct 21 08:45:20 2005) def
/Subject () def
sf (   << "Concordance comes with ABSOLUTELY NO WARRANTY; for details see the GNU pu) showline
(blic\\n") showline
(   << "license that accompanies this program.  You are welcome to redistribute t) showline
(his\\n") showline
(   << "software under certain conditions; for details see the GNU public license) showline
(.\\n") showline
(   << "Send BUG reports to: meyer@princeton.edu.\\n\\n";) showline
(}) showline
() showline
() showline
() showline
(// print usage instructions on screen:) showline
(#ifdef OS_UNIX) showline
(void instructions\(void\)) showline
({) showline
(    cout << "\\nUSAGE:\\n") showline
(      << "concordance [-p[q][n:num] or -l[q][n:num]] or -s[q][num]] filename [ou) showline
(tfile]") showline
(      << "\\nfilename is the usual /filepath/fname to the file for which you wish) showline
( to make") showline
(      << "\\na concordance.  -p, -l, and -s are switches by which you can tell th) showline
(e program") showline
(      << "\\nwhether you wish to concordance words in the file by the page on whi) showline
(ch they") showline
(      << "\\nare found, by the line on which they are found, or by the stanza in ) showline
(which") showline
(      << "\\nthey are found.  The program considers a page to be delimited by ASC) showline
(II char") showline
(      << "\\n12 \(decimal\) - FF, the formfeed character.  Every formfeed character) showline
( passed will") showline
(      << "\\nincrement the page counter by 1 page.  To indicate stanzas, stanza n) showline
(umbers in") showline
(      << "\\nthe file must have the form: number>. i.e.: 1>  for stanza 1, 2> for) showline
( stanza 2,") showline
(      << "\\nand so forth.  Stanza numbers must precede the stanza they delimit. ) showline
( Line") showline
(      << "\\nnumbers are incremented by the Line feed  character, ASCII character) showline
( 10") showline
(      << "\\n\(decimal\).  Default operation \(no switches indicated on the command ) showline
(line\)") showline
(      << "\\nis to indicate the page number in the file on which a word will be f) showline
(ound.") showline
(      << "\\nNote that only one page/line/stanza switch at a time is allowed!") showline
(      << "\\nThe addition n:number can be appended to any of the type-of-count sw) showline
(itches") showline
(      << "\\nand the beginning number of the page or line will be changed to the ) showline
(number") showline
(      << "\\nfollowing the n: \(n:num has no effect on stanza counting\).  If an ou) showline
(tfilename") showline
(      << "\\nis used, there MUST be a switch indicating the count type on the com) showline
(mand line.") showline
(      << "\\nThe auxiliary switch \\'q\\' causes only the copyright to be output to) showline
( stdout.") showline
(      << "\\nWithout \\'q\\' concordance outputs information on the filenames in wh) showline
(ich it has") showline
(      << "\\nstored results.") showline
(      << "\\nPress enter to continue reading.";) showline
(    getchar\(\);) showline
(    cout << "\\nExample:") showline
(      << "\\n\\nconcordance -pqn:40 MY.TXT MYCORD [Enter]") showline
sf (5) 1 endcol
(5) endpage
%%Page: ? 6
6 newpage
/MailFor (Listing for ) def
/User (Florian Niedermann) def
/TimeNow (Fri Oct 21 08:45:20 2005) def
/Subject () def
sf (      << "\\n\\n...would cause the text file MY.TXT to be concordanced by pages wi) showline
(th the first") showline
(      << "\\npage considered to be page 40. No messages would be output to screen) showline
( but the") showline
(      << "\\nopening copyright notice.  Output would be put in the files MYCORD.w) showline
(rd and") showline
(      << "\\nMYCORD.abc .  Concordance creates 2 files, one named \\'filename.wds\\) showline
(', which") showline
(      << "\\ncontains a concordance of all the words in the file \\'filename\\'.  T) showline
(he words are") showline
(      << "\\nlisted alphabetically.  The number preceding the word is the word's ) showline
(length.") showline
(      << "\\nthe number immediately following the word indicates the number of ti) showline
(mes") showline
(      << "\\nthat word was used in the document filename.  The succeeding numbers) showline
(") showline
(      << "\\nindicate the page/line/stanza numbers in which the word was found.") showline
(      << "\\n\\n") showline
(      << "\\nIn addition to producing the file \\'filename.wds\\', concordance also) showline
( outputs") showline
(      << "\\na document named \\'filename.abc\\' that contains a listing of the let) showline
(ters") showline
(      << "\\nof the English alphabet, and the numerals 0-9, whose usage in the do) showline
(cument") showline
(      << "\\n\\'filename.ext\\' has been counted and graphed.\\n") showline
(      << "\\nAfter running concordance, look for these two files named for the fi) showline
(le that was") showline
(      << "\\nconcordanced or the name you gave the outfile.  They may be examined) showline
( using") showline
(      << "\\nthe command \\'cat\\', \\'less\\', or by using your favorite text editor) showline
(.") showline
(      << "\\n\\nPlease Note that very long documents may need to be separated into) showline
( pieces") showline
(      << "\\nto be concordanced.  Larger documents should be broken into smaller ) showline
(pieces,") showline
(      << "\\nPress enter to continue reading.";) showline
(    getchar\(\);) showline
(    cout  << "\\neach piece concordanced, and the concordances from each piece co) showline
(ncatenated.") showline
(      << "\\n\\nTo get this help screen again, type \\'concordance -? [Enter]\\' at ) showline
(the shell") showline
(      << "\\nprompt, see the file README, or check the man pages.\\n\\n";) showline
() showline
(    return;) showline
(}) showline
(#endif) showline
() showline
(//parser of words on line numbers, pages, stanzas.) showline
(void parse\(char *fname,char countType,char *ofname,BOOLEAN quiet=OFF\)) showline
({) showline
(   FILE *fp; //read-in file, char file, concordance file) showline
(   char *filenameBfr;) showline
(   char *conFn;      //filename of the concordance words file) showline
(   char *alphaFn; //filename of the concordance alphabet characters used file) showline
(   char *cext=".wds";   //extension of the word list file) showline
(   char *aext=".abc";   //extension of the alphabet file) showline
(   int fnlen;) showline
(   CharCtVector ccv; //character counter) showline
(   WordList wl;   //the concordance: the linked list of words and information on) showline
( their locations) showline
sf (6) 1 endcol
(6) endpage
%%Page: ? 7
7 newpage
/MailFor (Listing for ) def
/User (Florian Niedermann) def
/TimeNow (Fri Oct 21 08:45:20 2005) def
/Subject () def
sf () showline
(   if\(\(fp=fopen\(fname,"rb"\)\)==0\){   //open file to be concordanced for read) showline
(      cerr << "Couldn't open file" << fname << endl;) showline
(      perror\("File opening error"\);) showline
(      assert \(fp\);   //make sure it opened OK) showline
(   }) showline
() showline
(    //Set up filenames for output .wds & .abc results files:) showline
(   if \(ofname==0\){   //if operator hasn't provided an output file name) showline
(      filenameBfr=new char[\(fnlen=strlen\(fname\)+EXTENSIONLEN\)];) showline
(      assert\(filenameBfr!=0\);) showline
(      strcpy\(filenameBfr,fname\);  //use the filename of file to be concordanced) showline
(   }) showline
(   else {   //if operator has indicated the name of the output files:) showline
(      filenameBfr=new char[\(fnlen=strlen\(ofname\)+EXTENSIONLEN\)];) showline
(      assert\(filenameBfr!=0\);) showline
(      strcpy\(filenameBfr,ofname\); //otherwise use provided output file name) showline
(   }) showline
() showline
(   getFilenameOnly\(filenameBfr\); //get a filename only for later storage) showline
() showline
(   conFn=new char[fnlen];  //prepare the concordance .wds filename) showline
(   assert\(conFn!=0\);) showline
(   strcpy\(conFn,filenameBfr\);) showline
(   strcat\(conFn,cext\);) showline
() showline
(   alphaFn=new char[fnlen];   //prepare the alphabet character use filename) showline
(   assert\(alphaFn!=0\);) showline
(   strcpy\(alphaFn,filenameBfr\);) showline
(   strcat\(alphaFn,aext\);) showline
() showline
(   delete [] filenameBfr;) showline
(   //End of setting up output filenames.) showline
() showline
(   //data parser--parse the data from the input file:) showline
(   char wordBfr[MAXBFRSZ];    //buffer to hold word) showline
(   int wordFlag=0;   //indicator of word in wordBfr) showline
(   int wordNdx=0;    //index into wordBfr) showline
(   int isNum=0;   //indicator that information in buffer is a number) showline
(   int isWord=0;  //indicator that information in buffer is a word) showline
(   size_t charsRead; //number of characters actually read from the file.) showline
(    //*) showline
(#ifdef OS_UNIX) showline
(   if\(!quiet\)cout << "\\n\\nMaking Condordance. Depending on file length, this may) showline
( take awhile.\\n";) showline
(#endif) showline
(   unsigned char inbuffer[FILESEGMENT];  //holding buffer for reads) showline
() showline
(   while \(!ateof\(fp\)\) {) showline
(      charsRead=fread\(inbuffer,sizeof\(char\),sizeof\(inbuffer\),fp\);) showline
(      assert\(charsRead>0\);) showline
(      for \(unsigned int n=0;n<FILESEGMENT&&n<charsRead&&char\(inbuffer[n]\)!=EOF;n) showline
(++\){) showline
(         ccv.incChar\(inbuffer[n]\);) showline
(         if \(isAlphaDiacritic\(inbuffer[n]\)||isdigit\(inbuffer[n]\)\){ //put inbuffe) showline
(r[n] characters and digits into initial buffer) showline
(            if \(!wordFlag\)wordFlag=1;   //as a word) showline
(            wordBfr[wordNdx++]=inbuffer[n];) showline
(            if \(isdigit\(inbuffer[n]\)&&!isWord\)isNum=YES; //if inbuffer[n] charac) showline
(ter is a digit and there is no indication that there is a word) showline
sf (7) 1 endcol
(7) endpage
%%Page: ? 8
8 newpage
/MailFor (Listing for ) def
/User (Florian Niedermann) def
/TimeNow (Fri Oct 21 08:45:20 2005) def
/Subject () def
sf (            else if \(!isWord\){) showline
(               isWord=YES;  //if a digit has a letter included, inbuffer[n] chan) showline
(ge to word, otherwise it is a word) showline
(               isNum=NO;    //added along with &&\(inbuffer[n]!='>'&&!isWord\) bel) showline
(ow) showline
(            }) showline
(         }) showline
(         else if \(wordFlag&&!\(inbuffer[n]=='>'&&isNum\)\){ //inbuffer[n]character ) showline
(is whitespace and there's a word in bfr) showline
(            wordBfr[wordNdx]='\\0';  //NULL end the word in wordBfr) showline
(            wl.addWord\(wordBfr,locNum\);  //add the word to the concordance with ) showline
(its location or add the location to a word already there) showline
(            fileLoc=ftell\(fp\); //note location in file) showline
(            wordCount++;) showline
(            wordNdx=isWord=wordFlag=isNum=0;) showline
(         }) showline
() showline
(         //increment the location in the file according to operator indication o) showline
(f what type of location to indicate:) showline
() showline
(#ifdef OS_UNIX) showline
(         if \(inbuffer[n] == LF && countType == 'l'\) //if whitespace is Linefeed ) showline
(& we're counting lines...) showline
(#endif) showline
(            locNum++; //increment locnum as line number on carriage return) showline
(         else if \(inbuffer[n] == FF && countType == 'p'\) //if whitespace if a fo) showline
(rmfeed & we're counting pages...) showline
(            locNum++; //increment locnum as page number on formfeed) showline
(         else if \(inbuffer[n] == '>' && countType == 's' && isNum\){   //set stan) showline
(za to stanza number) showline
(            wordBfr[wordNdx]='\\0';  //end the string) showline
(            locNum=atoi\(wordBfr\);   //put the number into location number) showline
(            wordNdx=isWord=wordFlag=isNum=0; //start with new word) showline
(         }) showline
(      }) showline
(   }) showline
(   fclose\(fp\); //close the input file to be concordanced.) showline
() showline
(   saveConFile\(fname,conFn,countType,wl,quiet\); //save the list of words, usage ) showline
(amounts, and locations.) showline
(   saveAlphabetFile\(fname,alphaFn,ccv,quiet\);   //save the alphabet character us) showline
(age listing.) showline
() showline
(   if\(!quiet\)) showline
(      cout << "\\n\\nConcordancing completed.  For concordance file, see " << conF) showline
(n << "; for alphabet\\n") showline
(      << "usage file, see " << alphaFn << "\\n\\n";) showline
() showline
(    delete [] conFn;) showline
(    delete [] alphaFn;) showline
(}) showline
() showline
() showline
() showline
(void saveConFile\(char *origFn, char *conFn, char ctType,WordList &wl,BOOLEAN) showline
(quiet=OFF\)) showline
({) showline
(   ofstream confile\(conFn\);) showline
(   assert\(confile!=0\);) showline
(   if\(!quiet\)cout << "\\n\\nSaving concordance file " << conFn << ", - concordance) showline
sf (8) 1 endcol
(8) endpage
%%Page: ? 9
9 newpage
/MailFor (Listing for ) def
/User (Florian Niedermann) def
/TimeNow (Fri Oct 21 08:45:20 2005) def
/Subject () def
sf ( to file " << origFn;) showline
(   confile << "Concordance for file: " << origFn << "\\n\\n";) showline
(   confile << "Note: Concordancer considers a word a set of alphanumeric charact) showline
(ers\\n";) showline
(   confile << "      bounded by whitespace at each end of the set.\\n\\n";) showline
(   confile << "Total number of words in file: " << wordCount << "\\n";) showline
() showline
(   if\(ctType=='s'\)      confile << "Initial stanza of file was stanza " << begin) showline
(ningLocNum << "\\n";) showline
(   else if\(ctType=='p'\) confile << "Initial page of file was page " << beginning) showline
(LocNum << "\\n";) showline
(   else if\(ctType=='l'\) confile << "Initial line of file was line " << beginning) showline
(LocNum << "\\n";) showline
() showline
(   if\(ctType=='s'\)        confile << "Last stanza of file was stanza " << locNum) showline
( << "\\n\\n";) showline
(   else if\(ctType=='p'\)   confile << "Last page of file was page " << locNum << ) showline
("\\n\\n";) showline
(   else if\(ctType=='l'\)   confile << "Last line of file was line " << locNum << ) showline
("\\n\\n";) showline
() showline
(   confile << "Word           Number of";) showline
(   if\(ctType=='s'\) confile << "   Stanza number\\n";) showline
(   else if\(ctType=='p'\) confile << "   Page number\\n";) showline
(   else if\(ctType=='l'\) confile << "   Line number\\n";) showline
(   confile << "Len  Word:         uses:   Locations:\\n";) showline
(   confile << wl;) showline
(}) showline
() showline
() showline
() showline
(void saveAlphabetFile\(char *origFn, char *alphaFn,CharCtVector &ccv,BOOLEAN quie) showline
(t=OFF\)) showline
({) showline
(   ofstream alphafile\(alphaFn\);) showline
(   assert\(alphafile!=0\);) showline
() showline
(   if\(!quiet\)cout << "\\n\\nSaving alphabet count file " << alphaFn << ", - alphab) showline
(et count for file " << origFn;) showline
(   alphafile << ccv;) showline
(}) showline
() showline
() showline
() showline
(//out of memory message to display on screen in parser:) showline
(void outOfMem\(void\)) showline
({) showline
(   cerr << "\\n\\nERROR: You have insufficient memory to continue making a concorc) showline
(ance for this\\n") showline
(        << "document.  It will be necessary for you to shorten the document.  Br) showline
(eak the document\\n") showline
(        << "into several pieces, and concatenate and sort the .wrd and .abc file) showline
(s that result from\\n") showline
(        << "making concordances for the several pieces.  Concordancing got to\\n") showline
(        << "pg/line number " << locNum << " in this document and " << fileLoc <<) showline
( " characters\\n") showline
(        << "had been read when the program had to exit due to lack of memory.\\n") showline
(;) showline
(   exit\(1\);) showline
(}) showline
sf (9) 1 endcol
(9) endpage
%%Page: ? 10
10 newpage
/MailFor (Listing for ) def
/User (Florian Niedermann) def
/TimeNow (Fri Oct 21 08:45:20 2005) def
/Subject () def
sf () showline
sf (10) 1 endcol
(10) endpage
%%Trailer
%%Pages: 10
