%!PS-Adobe-1.0
/localeprolog 0 def

%!PS-Adobe-1.0
%%Creator: Steve Holden
%%Modified: John Macdonald, Rich Burridge, Rainer Klute
%%Modified: Bertrand Decouty, Bjorn P. Brox
%%Title: @(#)mp.pro.ps 3.3 93/03/11
%%CreationDate: see above
%%PageLength 60
%%LineLength 80
%%DocumentFonts: Courier Helvetica-BoldOblique Times-Bold Times-Roman
%%Pages: (atend)
%%EndComments

%  @(#)mp.common.ps 3.1 92/04/03
%
%  Mp PostScript routines common to all prologue files.
%
%  The initial header comments are read (and output to stdout)
%  from the individual prologue file, then the contents of this
%  file are read (and output to stdout), then the remainder of
%  the individual prologue file.

/inch { 72 mul } bind def
%
%  IMPORTANT NOTE: The following two variables should be set correctly.
%                  Reasonable values for fullwidth and fullheight are
%                  8.5/11 inch for US Letter, and 8.5/11.4 inch for A4.
%                  Since sites usually have one single format of paper,
%                  mp should be installed with either the USLetter or A4
%                  values.
%
/fullwidth 8.5 inch def
/fullheight 11 inch def

% Define /ISOLatin1Encoding only if it's not already there.
/ISOLatin1Encoding where { pop save true }{ false } ifelse
  /ISOLatin1Encoding [ StandardEncoding 0 45 getinterval aload pop /minus
    StandardEncoding 46 98 getinterval aload pop /dotlessi /grave /acute
    /circumflex /tilde /macron /breve /dotaccent /dieresis /.notdef /ring
    /cedilla /.notdef /hungarumlaut /ogonek /caron /space /exclamdown /cent
    /sterling /currency /yen /brokenbar /section /dieresis /copyright
    /ordfeminine /guillemotleft /logicalnot /hyphen /registered /macron
    /degree /plusminus /twosuperior /threesuperior /acute /mu /paragraph
    /periodcentered /cedilla /onesuperior /ordmasculine /guillemotright
    /onequarter /onehalf /threequarters /questiondown /Agrave /Aacute
    /Acircumflex /Atilde /Adieresis /Aring /AE /Ccedilla /Egrave /Eacute
    /Ecircumflex /Edieresis /Igrave /Iacute /Icircumflex /Idieresis /Eth
    /Ntilde /Ograve /Oacute /Ocircumflex /Otilde /Odieresis /multiply
    /Oslash /Ugrave /Uacute /Ucircumflex /Udieresis /Yacute /Thorn
    /germandbls /agrave /aacute /acircumflex /atilde /adieresis /aring /ae
    /ccedilla /egrave /eacute /ecircumflex /edieresis /igrave /iacute
    /icircumflex /idieresis /eth /ntilde /ograve /oacute /ocircumflex
    /otilde /odieresis /divide /oslash /ugrave /uacute /ucircumflex
    /udieresis /yacute /thorn /ydieresis ] def
{ restore } if

%Title: backspacefont.ps suggested by Glenn Reid (Adobe Systems).

/backspacefont {
    /CourierISO findfont dup length dict begin
        { %forall
            1 index /FID eq { pop pop } { def } ifelse
        } forall
        currentdict /UniqueID known { %if
              /UniqueID UniqueID 16#800000 xor def
        } if
        CharStrings length 1 add dict begin
            CharStrings { def } forall
          /backspace { -600 0 setcharwidth pop } bind def
            currentdict
      end
        /CharStrings exch def
        /Encoding Encoding 256 array copy def
        Encoding 8 /backspace put
        currentdict
    end
    definefont
} bind def

/reencodeISO { %def
    findfont dup length dict begin
    { 1 index /FID ne { def }{ pop pop } ifelse } forall
    /Encoding ISOLatin1Encoding def
    currentdict end definefont pop
} bind def

/fontHd_size 14 def
/fontH2_size 10 def
/fontNd_size 12 def

/setmargin {
  /leftedge 0 def
  /bottomedge 0 def
  fullheight fullwidth LandscapeMode { exch } if
    /rightedge exch def
    /topedge exch def
  9 7 LandscapeMode { exch } if pop
    /FontSize exch def

  0 localeprolog eq
  {
  /font1d /Times-Bold           reencodeISO
  /font2d /Times-Roman          reencodeISO
  /CourierISO /Courier          reencodeISO
  /fontHd /Helvetica-BoldOblique        reencodeISO
  /fontH2 /Helvetica-BoldOblique        reencodeISO
  /fontNd /Times-Bold           reencodeISO
  /font3d backspacefont
  /BoldFont      { /font1d findfont FontSize scalefont setfont } def
  /pf            { /font2d findfont FontSize scalefont setfont } def
  /sf            { /font3d findfont FontSize scalefont setfont } def
  /fontH         { /fontHd findfont fontHd_size scalefont setfont } def
  /fontD         { /fontH2 findfont fontH2_size scalefont setfont } def
  /fontN         { /fontNd findfont fontNd_size scalefont setfont } def
  }
  {
  /font1d /LC_Times-Bold def
  /font2d /LC_Times-Roman def
  /CourierISO /LC_Courier def
  /fontHd /LC_Helvetica-BoldOblique def
  /fontH2 /LC_Helvetica-BoldOblique def
  /fontNd /LC_Times-Bold def
  /font3d /LC_Courier def
  /BoldFont      { font1d findfont FontSize scalefont setfont } def
  /pf            { font2d findfont FontSize scalefont setfont } def
  /sf            { font3d findfont FontSize scalefont setfont } def
  /fontH         { fontHd findfont fontHd_size scalefont setfont } def
  /fontD         { fontH2 findfont fontH2_size scalefont setfont } def
  /fontN         { fontNd findfont fontNd_size scalefont setfont } def
  }
  ifelse

} def

/graybox	% grey x1 y1 x2 y2 graybox --
{
    newpath
      4 -1 roll 2 copy			% y2 x1
      10 sub exch moveto
      4 -1 roll 2 copy			% x1 y1
      10 180 270 arc
      4 -1 roll 1 copy 3 -1 roll	% x2 y1
      10 270 0 arc
      3 -1 roll 1 copy 3 1 roll		% x1 y2 x2 y2
      10 0 90 arc
      10 90 180 arc
    closepath
    gsave
      setgray fill
    grestore
    0 setgray stroke
} bind def

/endpage		% page_number endpage --
{
  gsave
    % listing type, user, date across the top
    0.88                                % gray level
    leftedge  50 add topedge 56 sub     % bottom lt corner
    rightedge 95 sub topedge 36 sub     % top rt corner
    graybox

    currentdict /sfactor known not
    {
      % determine a suitable factor to scale down the header text (done
      % only once per document)
      rightedge 95 sub leftedge 50 add sub % available space
      fontD MailFor stringwidth pop
      fontH User    stringwidth pop add
            (  )    stringwidth pop add
      fontD TimeNow stringwidth pop add    % total length of strings
      div
      dup 1 gt {pop 1} if                  % does it fit?
      /sfactor exch def                    % if not scale down
    }
    if

    leftedge 50 add topedge 50 sub moveto
    gsave
    sfactor dup scale
    fontD MailFor show
    fontH User    show
          (  )    show
    grestore
    fontD
    rightedge 95 sub TimeNow stringwidth pop sfactor mul sub
    topedge 50 sub moveto
    gsave
    sfactor dup scale
    TimeNow show
    grestore
    % page number to the top right corner
    1                                   % gray level
    rightedge 70 sub topedge 56 sub     % bottom lt
    rightedge 50 sub topedge 36 sub     % top rt
    graybox
    fontD
    (Page) dup stringwidth
       topedge 40 sub exch sub                  % y-centered
       exch 2 div rightedge 60 sub exch sub     % x-centered
       exch moveto show
    fontH
    dup stringwidth
       topedge 58 sub exch sub                  % y-centered
       exch 2 div rightedge 60 sub exch sub     % x-centered
       exch moveto show
    0.88                                   % gray level
    leftedge  50 add bottomedge 50 add     % bottom lt corner
    rightedge 50 sub bottomedge 70 add     % top rt corner
    graybox
    fontH
    % compute x pos for centring
      % ((l+50) + (r-50)) / 2 is the page centre
      leftedge rightedge add 2 div
      % but we want to start at the beginning of the string, not the middle
      Subject stringwidth pop 2 div sub
    % y pos is simple
      bottomedge 54 add
      moveto
    Subject show
  grestore
%  PageSave restore      % restore *always* before showpage
  showpage		% display it
} bind def

/endcol			% page_number col_number endcol --
{
  pop			% get rid of col_number
  pop                   % get rid of page_number
  /ypos topedge 92 sub def
  /xpos rightedge leftedge sub 2 div def
  xpos ypos moveto
} bind def

/newpage	% page_number newpage --
{
  pop		% pageno
%  /PageSave save def
  LandscapeMode {setlandscape} if
  /lct 0 def
  /ypos topedge 92 sub def
  /xpos leftedge 50 add def
  xpos ypos moveto
  sf
} bind def

/setlandscape
{
  612 0 translate
  90 rotate
} bind def

/showline
{
  show
  /ypos ypos FontSize sub def
  xpos ypos moveto
} bind def

% see the trouble shooting section in the README for details on setscreen.
106 45 {dup mul exch dup mul add 1.0 exch sub} setscreen

/LandscapeMode false def

setmargin
%%EndProlog
%%Page: ? 1
1 newpage
/MailFor (Listing for ) def
/User (Florian Niedermann) def
/TimeNow (Fri Oct 21 08:57:55 2005) def
/Subject () def
sf (/*) showline
(# $Header: /home/ralph/progs/concordance/RCS/concutils.cc,v 0.4 1996/11/26 23:54) showline
(:11 ralph Exp ralph $) showline
(# $Date: 1996/11/26 23:54:11 $) showline
(# $Author: ralph $) showline
(# $Log: concutils.cc,v $) showline
(# Revision 0.4  1996/11/26 23:54:11  ralph) showline
(# Removed copyright message function from concutils and put it in concordance.cc) showline
(.) showline
(#) showline
(# Revision 0.3  1996/11/23 12:36:25  ralph) showline
(# Minor cosmetic changes to file.) showline
(#) showline
(# Revision 0.2  1996/11/23 00:52:25  ralph) showline
(# Added copyright\(\) function., GNU public license.) showline
(#) showline
(# Revision 0.1  1996/11/10 20:53:41  ralph) showline
(# Alpha version) showline
(#) showline
(*/) showline
() showline
(/*************************************************************) showline
(* File: concutils.cc - utilities used by Concordancing program) showline
(* Copyright \(C\) 12-16-93 Ralph L. Meyer - R & R Consulting) showline
(* 39 Nelson Avenue, Spotswood, NJ 08884) showline
(*) showline
(* This program is free software; you can redistribute it and/or) showline
(* modify it under the terms of the GNU General Public License) showline
(* as published by the Free Software Foundation; either version 2) showline
(* of the License, or \(at your option\) any later version.) showline
(*) showline
(*) showline
(* This program is distributed in the hope that it will be useful,) showline
(* but WITHOUT ANY WARRANTY; without even the implied warranty of) showline
(* MERCHANTABILITY or FITNESS FOR A PARTICULAR PURPOSE.  See the) showline
(* GNU General Public License for more details.) showline
(*) showline
(* You should have received a copy of the GNU General Public License) showline
(* along with this program; if not, write to the Free Software) showline
(* Foundation, Inc., 675 Mass Ave, Cambridge, MA 02139, USA.) showline
(*) showline
(* Bug reports and suggestions can be sent to:) showline
(* meyer@princeton.edu) showline
(* Ralph L. Meyer, 39 Nelson Ave. Spotswood, NJ 08884) showline
(*) showline
(* NOTES: utility function file for use with concordancing program) showline
(* FUNCTIONS IN THIS FILE:) showline
(* BOOLEAN isAlphaDiacritic\(int c\)      //returns true if char is alphadiacritica) showline
(l) showline
(* BOOLEAN isAlDiaNum\(int c\)        //returns true if char is alphadiacritical or) showline
( numeric) showline
(* int ateof\(istream &instream\)    //check for eof) showline
(* int ateof\(FILE *fp\)   //true check for eof) showline
(* void copyright\(\)   //put copyright message on screen) showline
(* char *lowerCaseString\(char *stringToLc\) //lower case a string) showline
(* void getFilenameOnly\(char *fname\)  //return filename only in fname) showline
(* void outOfMem\(void\)   //message for on-screen at memory out) showline
(* int diactolower\(int ch\) //lowercases alphabetic chars and ascii diacriticals r) showline
(eturns lowercased char) showline
(* int strcomp\(char *str1,char *str2\) //determine if strings are equal by subtrac) showline
sf (1) 1 endcol
(1) endpage
%%Page: ? 2
2 newpage
/MailFor (Listing for ) def
/User (Florian Niedermann) def
/TimeNow (Fri Oct 21 08:57:55 2005) def
/Subject () def
sf (ting str2 from str1 chars) showline
(*) showline
(* FOR USE WITH UNIX: \(MS-DOG--LIKE FUNCTIONS\):) showline
(* int wherex\(void\);  //finds x location of cursor on screen) showline
(* int wherex\(WINDOW *\); //finds y location of cursor in window) showline
(* int wherey\(void\);  //finds x location of cursor on screen) showline
(* int wherey\(WINDOW *\); //finds y location of cursor in window) showline
(* void gotoxy\(int, int\);   //moves cursor to x,y position on screen) showline
(* void gotoxy\(WINDOW *, int, int\);  //moves cursor to x,y position on screen) showline
(**************************************************************/) showline
() showline
(#include "oshdr.h"   //set the operating system) showline
() showline
(/* Edited: 12-12-93 08:30 */) showline
(/*) showline
(* Functions in this file:) showline
(* BOOLEAN isAlphaDiacritic\(int c\)) showline
(* BOOLEAN isAlDiaNum\(int c\)) showline
(* int ateof\(istream &instream\) //overloaded) showline
(* int ateof\(FILE *fp\)          //true check for eof) showline
(* char *lowerCaseString\(char *stringToLc\)) showline
(* char *upperCaseString\(char *stringToLc\)) showline
(* void getFilenameOnly\(char *fname\)) showline
(* int diactolower\(int ch\)) showline
(* int strcomp\(char *str1,char *str2\)) showline
(*) showline
(* Function operative if OS_DOS is defined:) showline
(* Unused in Unix.) showline
(* void propeller\(int xl=0,int yl=0\)) showline
(*) showline
(* Functions to mimic MS-DOG functions:) showline
(* Operative if DOS_FUNCS is defined) showline
(* if used, curses.h must be #included) showline
(* int wherex\(void\)) showline
(* int wherex\(WINDOW *win\)) showline
(* int wherey\(void\)) showline
(* int wherey\(WINDOW *win\)) showline
(* void gotoxy\(int x, int y\)) showline
(* void gotoxy\(WINDOW *win, int x, int y\)) showline
(* int strcmpi\(const char str1*, const char str2*\)) showline
(* int stricmp\(const char str1*, const char str2*\)) showline
(*/) showline
() showline
(#include "standard.h") showline
() showline
(//isAlphaDiacritic\(int char\):***************************************************) showline
(***********) showline
() showline
(/* This function returns 0 if the character entered is not in any of the) showline
(* following characters: \(ASCII codes\)) showline
(* ',) showline
(* A-Z,   65 -  90) showline
(* a-z,   97 - 122) showline
(* \200\055\232\054 128 - 154) showline
(* \240\055\245\054 160 - 165) showline
(* \340\055\353\054 224 - 235) showline
(*/) showline
() showline
(//OK returns non-0 if c is an alphabetic or diacritical alphabetic) showline
(BOOLEAN isAlphaDiacritic\(int c\)) showline
sf (2) 1 endcol
(2) endpage
%%Page: ? 3
3 newpage
/MailFor (Listing for ) def
/User (Florian Niedermann) def
/TimeNow (Fri Oct 21 08:57:55 2005) def
/Subject () def
sf ({) showline
(   return \(\(c=='\\''\)||) showline
(   \(c>='A'&&c<='Z'\)||) showline
(   \(c>='a'&&c<='z'\)||) showline
(   \(c>=128&&c<=154\)||) showline
(   \(c>=160&&c<=165\)||) showline
(   \(c>=224&&c<=235\)\)) showline
(   ? YES : NO;) showline
(}) showline
() showline
() showline
(//OK returns non-0 if c is an alphanumeric or diacritical alphanumeric) showline
(BOOLEAN isAlDiaNum\(int c\)) showline
({) showline
(   return \(\(c=='\\''\)||) showline
(   \(c>='0'&&c<='9'\)||) showline
(   \(c>='A'&&c<='Z'\)||) showline
(   \(c>='a'&&c<='z'\)||) showline
(   \(c>=128&&c<=154\)||) showline
(   \(c>=160&&c<=165\)||) showline
(   \(c>=224&&c<=235\)\)) showline
(   ? YES : NO;) showline
(}) showline
() showline
() showline
(//ateof\(istream/FILE\):**********************************************************) showline
(****) showline
() showline
(//OK tell if at end of fstream file on input:) showline
(//overloaded) showline
(int ateof\(istream &instream\)) showline
({) showline
(   long floc = instream.tellg\(\);) showline
(   instream.seekg\(floc+2\);) showline
(   if\(instream.peek\(\) == EOF\){) showline
(      return EOF;) showline
(   }) showline
(   else{) showline
(      instream.seekg\(floc\);) showline
(      return 0;) showline
(   }) showline
(}) showline
() showline
() showline
(//OK tell is at eof with file pointers) showline
(//overloaded) showline
(int ateof\(FILE *fp\)  //true check for eof) showline
({) showline
(   char chkchar;) showline
(   int check;) showline
() showline
(   fread\(&chkchar,1,1,fp\); //read a char to see if move past eof) showline
(   check=feof\(fp\);   //test for eof) showline
(   if\(check\) return check;) showline
(   else{) showline
(      fseek\(fp,-1,SEEK_CUR\);) showline
(      return check;) showline
(   }) showline
(}) showline
() showline
sf (3) 1 endcol
(3) endpage
%%Page: ? 4
4 newpage
/MailFor (Listing for ) def
/User (Florian Niedermann) def
/TimeNow (Fri Oct 21 08:57:55 2005) def
/Subject () def
sf () showline
(//**************************************************************) showline
() showline
(//lower cases a null ended c string:) showline
(char *lowerCaseString\(char *stringToLc\)) showline
({) showline
(   int n;) showline
() showline
(   for \(n=0;*\(stringToLc+n\)!='\\0';n++\){) showline
(      *\(stringToLc+n\)=tolower\(*\(stringToLc+n\)\);) showline
(   }) showline
(   *\(stringToLc+n\)='\\0';   // added because of segfaulting SIGSEG 11/24/96 RM) showline
(   return stringToLc;) showline
(}) showline
() showline
(//upper cases a null ended c string:) showline
(char *upperCaseString\(char *stringToLc\)) showline
({) showline
(   for \(int n=0;*\(stringToLc+n\)!='\\0';n++\){) showline
(      *\(stringToLc+n\)=toupper\(*\(stringToLc+n\)\);) showline
(   }) showline
(   return stringToLc;) showline
(}) showline
() showline
(//**************************************************************) showline
() showline
(//parse out the filename portion of a filename.ext string:) showline
(//stores filename portion in fname) showline
(void getFilenameOnly\(char *fname\)) showline
({) showline
(   int n;) showline
(   for \(n=0;*\(fname+n\)!='\\0'&&*\(fname+n\)!='.';n++\);) showline
(   *\(fname+n\)='\\0';  //add the null ending to the string) showline
(}) showline
() showline
(//**************************************************************) showline
() showline
(//this function returns a lowercased alphadiacritical or the original) showline
(//character entered if not an alphadiacritical.) showline
(int diactolower\(int ch\)) showline
({) showline
(   if \(!\(ch>='A'||ch<='Z'||ch>='a'||ch<='z'||) showline
(       ch>=128||ch<=154||ch>=160||ch<=165\)\)return ch;) showline
(   else if \(ch>='A'&&ch<='Z'\)return ch+'a'-'A';) showline
(   else if \(ch>='a'&&ch<='z'\)return ch;) showline
(   else{) showline
(      switch\(ch\){) showline
(         case '\216\047:) showline
(            return '\204\047;) showline
(         case '\217\047:) showline
(            return '\206\047;) showline
(         case '\222\047:) showline
(            return '\221\047;) showline
(         case '\200\047:) showline
(            return '\207\047;) showline
(         case '\220\047:) showline
(            return '\202\047;) showline
(         case '\231\047:) showline
(            return '\224\047;) showline
(         case '\232\047:) showline
sf (4) 1 endcol
(4) endpage
%%Page: ? 5
5 newpage
/MailFor (Listing for ) def
/User (Florian Niedermann) def
/TimeNow (Fri Oct 21 08:57:55 2005) def
/Subject () def
sf (            return '\201\047;) showline
(         case '\245\047:) showline
(            return '\244\047;) showline
(         default :) showline
(            return ch;) showline
(      }) showline
(   }) showline
(}) showline
() showline
(//**************************************************************) showline
(//determine if strings are equal by subtracting string 2 from string 1:) showline
(int strcomp\(char *str1,char *str2\)) showline
({) showline
(   int n;) showline
() showline
(   for \(n = 0; *\(str1+n\)!='\\0'&&*\(str2+n\)!='\\0' ; n++\){) showline
(      int val;) showline
(      if \(\(val=\(*\(str1+n\)\)-\(*\(str2+n\)\)\)==0\);) showline
(      else if \(val<0\)return val;) showline
(      else if \(val>0\)return val;) showline
(   }) showline
(   //determine if one string is longer than the other:) showline
(   if \(str1[n]==str2[n]\)return 0;) showline
(   else if \(str1[n]>str2[n]\)return str1[n];) showline
(   else return -str2[n];) showline
(}) showline
() showline
() showline
sf (5) 1 endcol
(5) endpage
%%Trailer
%%Pages: 5
