%!PS-Adobe-1.0
/localeprolog 0 def

%!PS-Adobe-1.0
%%Creator: Steve Holden
%%Modified: John Macdonald, Rich Burridge, Rainer Klute
%%Modified: Bertrand Decouty, Bjorn P. Brox
%%Title: @(#)mp.pro.ps 3.3 93/03/11
%%CreationDate: see above
%%PageLength 60
%%LineLength 80
%%DocumentFonts: Courier Helvetica-BoldOblique Times-Bold Times-Roman
%%Pages: (atend)
%%EndComments

%  @(#)mp.common.ps 3.1 92/04/03
%
%  Mp PostScript routines common to all prologue files.
%
%  The initial header comments are read (and output to stdout)
%  from the individual prologue file, then the contents of this
%  file are read (and output to stdout), then the remainder of
%  the individual prologue file.

/inch { 72 mul } bind def
%
%  IMPORTANT NOTE: The following two variables should be set correctly.
%                  Reasonable values for fullwidth and fullheight are
%                  8.5/11 inch for US Letter, and 8.5/11.4 inch for A4.
%                  Since sites usually have one single format of paper,
%                  mp should be installed with either the USLetter or A4
%                  values.
%
/fullwidth 8.5 inch def
/fullheight 11 inch def

% Define /ISOLatin1Encoding only if it's not already there.
/ISOLatin1Encoding where { pop save true }{ false } ifelse
  /ISOLatin1Encoding [ StandardEncoding 0 45 getinterval aload pop /minus
    StandardEncoding 46 98 getinterval aload pop /dotlessi /grave /acute
    /circumflex /tilde /macron /breve /dotaccent /dieresis /.notdef /ring
    /cedilla /.notdef /hungarumlaut /ogonek /caron /space /exclamdown /cent
    /sterling /currency /yen /brokenbar /section /dieresis /copyright
    /ordfeminine /guillemotleft /logicalnot /hyphen /registered /macron
    /degree /plusminus /twosuperior /threesuperior /acute /mu /paragraph
    /periodcentered /cedilla /onesuperior /ordmasculine /guillemotright
    /onequarter /onehalf /threequarters /questiondown /Agrave /Aacute
    /Acircumflex /Atilde /Adieresis /Aring /AE /Ccedilla /Egrave /Eacute
    /Ecircumflex /Edieresis /Igrave /Iacute /Icircumflex /Idieresis /Eth
    /Ntilde /Ograve /Oacute /Ocircumflex /Otilde /Odieresis /multiply
    /Oslash /Ugrave /Uacute /Ucircumflex /Udieresis /Yacute /Thorn
    /germandbls /agrave /aacute /acircumflex /atilde /adieresis /aring /ae
    /ccedilla /egrave /eacute /ecircumflex /edieresis /igrave /iacute
    /icircumflex /idieresis /eth /ntilde /ograve /oacute /ocircumflex
    /otilde /odieresis /divide /oslash /ugrave /uacute /ucircumflex
    /udieresis /yacute /thorn /ydieresis ] def
{ restore } if

%Title: backspacefont.ps suggested by Glenn Reid (Adobe Systems).

/backspacefont {
    /CourierISO findfont dup length dict begin
        { %forall
            1 index /FID eq { pop pop } { def } ifelse
        } forall
        currentdict /UniqueID known { %if
              /UniqueID UniqueID 16#800000 xor def
        } if
        CharStrings length 1 add dict begin
            CharStrings { def } forall
          /backspace { -600 0 setcharwidth pop } bind def
            currentdict
      end
        /CharStrings exch def
        /Encoding Encoding 256 array copy def
        Encoding 8 /backspace put
        currentdict
    end
    definefont
} bind def

/reencodeISO { %def
    findfont dup length dict begin
    { 1 index /FID ne { def }{ pop pop } ifelse } forall
    /Encoding ISOLatin1Encoding def
    currentdict end definefont pop
} bind def

/fontHd_size 14 def
/fontH2_size 10 def
/fontNd_size 12 def

/setmargin {
  /leftedge 0 def
  /bottomedge 0 def
  fullheight fullwidth LandscapeMode { exch } if
    /rightedge exch def
    /topedge exch def
  9 7 LandscapeMode { exch } if pop
    /FontSize exch def

  0 localeprolog eq
  {
  /font1d /Times-Bold           reencodeISO
  /font2d /Times-Roman          reencodeISO
  /CourierISO /Courier          reencodeISO
  /fontHd /Helvetica-BoldOblique        reencodeISO
  /fontH2 /Helvetica-BoldOblique        reencodeISO
  /fontNd /Times-Bold           reencodeISO
  /font3d backspacefont
  /BoldFont      { /font1d findfont FontSize scalefont setfont } def
  /pf            { /font2d findfont FontSize scalefont setfont } def
  /sf            { /font3d findfont FontSize scalefont setfont } def
  /fontH         { /fontHd findfont fontHd_size scalefont setfont } def
  /fontD         { /fontH2 findfont fontH2_size scalefont setfont } def
  /fontN         { /fontNd findfont fontNd_size scalefont setfont } def
  }
  {
  /font1d /LC_Times-Bold def
  /font2d /LC_Times-Roman def
  /CourierISO /LC_Courier def
  /fontHd /LC_Helvetica-BoldOblique def
  /fontH2 /LC_Helvetica-BoldOblique def
  /fontNd /LC_Times-Bold def
  /font3d /LC_Courier def
  /BoldFont      { font1d findfont FontSize scalefont setfont } def
  /pf            { font2d findfont FontSize scalefont setfont } def
  /sf            { font3d findfont FontSize scalefont setfont } def
  /fontH         { fontHd findfont fontHd_size scalefont setfont } def
  /fontD         { fontH2 findfont fontH2_size scalefont setfont } def
  /fontN         { fontNd findfont fontNd_size scalefont setfont } def
  }
  ifelse

} def

/graybox	% grey x1 y1 x2 y2 graybox --
{
    newpath
      4 -1 roll 2 copy			% y2 x1
      10 sub exch moveto
      4 -1 roll 2 copy			% x1 y1
      10 180 270 arc
      4 -1 roll 1 copy 3 -1 roll	% x2 y1
      10 270 0 arc
      3 -1 roll 1 copy 3 1 roll		% x1 y2 x2 y2
      10 0 90 arc
      10 90 180 arc
    closepath
    gsave
      setgray fill
    grestore
    0 setgray stroke
} bind def

/endpage		% page_number endpage --
{
  gsave
    % listing type, user, date across the top
    0.88                                % gray level
    leftedge  50 add topedge 56 sub     % bottom lt corner
    rightedge 95 sub topedge 36 sub     % top rt corner
    graybox

    currentdict /sfactor known not
    {
      % determine a suitable factor to scale down the header text (done
      % only once per document)
      rightedge 95 sub leftedge 50 add sub % available space
      fontD MailFor stringwidth pop
      fontH User    stringwidth pop add
            (  )    stringwidth pop add
      fontD TimeNow stringwidth pop add    % total length of strings
      div
      dup 1 gt {pop 1} if                  % does it fit?
      /sfactor exch def                    % if not scale down
    }
    if

    leftedge 50 add topedge 50 sub moveto
    gsave
    sfactor dup scale
    fontD MailFor show
    fontH User    show
          (  )    show
    grestore
    fontD
    rightedge 95 sub TimeNow stringwidth pop sfactor mul sub
    topedge 50 sub moveto
    gsave
    sfactor dup scale
    TimeNow show
    grestore
    % page number to the top right corner
    1                                   % gray level
    rightedge 70 sub topedge 56 sub     % bottom lt
    rightedge 50 sub topedge 36 sub     % top rt
    graybox
    fontD
    (Page) dup stringwidth
       topedge 40 sub exch sub                  % y-centered
       exch 2 div rightedge 60 sub exch sub     % x-centered
       exch moveto show
    fontH
    dup stringwidth
       topedge 58 sub exch sub                  % y-centered
       exch 2 div rightedge 60 sub exch sub     % x-centered
       exch moveto show
    0.88                                   % gray level
    leftedge  50 add bottomedge 50 add     % bottom lt corner
    rightedge 50 sub bottomedge 70 add     % top rt corner
    graybox
    fontH
    % compute x pos for centring
      % ((l+50) + (r-50)) / 2 is the page centre
      leftedge rightedge add 2 div
      % but we want to start at the beginning of the string, not the middle
      Subject stringwidth pop 2 div sub
    % y pos is simple
      bottomedge 54 add
      moveto
    Subject show
  grestore
%  PageSave restore      % restore *always* before showpage
  showpage		% display it
} bind def

/endcol			% page_number col_number endcol --
{
  pop			% get rid of col_number
  pop                   % get rid of page_number
  /ypos topedge 92 sub def
  /xpos rightedge leftedge sub 2 div def
  xpos ypos moveto
} bind def

/newpage	% page_number newpage --
{
  pop		% pageno
%  /PageSave save def
  LandscapeMode {setlandscape} if
  /lct 0 def
  /ypos topedge 92 sub def
  /xpos leftedge 50 add def
  xpos ypos moveto
  sf
} bind def

/setlandscape
{
  612 0 translate
  90 rotate
} bind def

/showline
{
  show
  /ypos ypos FontSize sub def
  xpos ypos moveto
} bind def

% see the trouble shooting section in the README for details on setscreen.
106 45 {dup mul exch dup mul add 1.0 exch sub} setscreen

/LandscapeMode false def

setmargin
%%EndProlog
%%Page: ? 1
1 newpage
/MailFor (Listing for ) def
/User (Florian Niedermann) def
/TimeNow (Thu Oct 27 08:46:44 2005) def
/Subject () def
sf () showline
() showline
(------------------------------------------------) showline
(Running EP test cases) showline
(------------------------------------------------) showline
() showline
() showline
(------------------------------------------------) showline
(Running EP01) showline
(Rationale: Test concordance with one input parameter) showline
(Expected output: Correct concordance by page) showline
() showline
(This is Concordance, a program to make concordances for text files.) showline
($Id: concordance.cc,v 0.5 1996/11/26 23:49:48 ralph Exp ralph $) showline
(Copyright \(C\) 1996 Ralph L. Meyer, Spotswood, NJ 08884.) showline
(Concordance is licensed to users only under the conditions stated in the) showline
(GNU public license that comes with the distribution of this program.) showline
(Concordance comes with ABSOLUTELY NO WARRANTY; for details see the GNU public) showline
(license that accompanies this program.  You are welcome to redistribute this) showline
(software under certain conditions; for details see the GNU public license.) showline
(Send BUG reports to: meyer@princeton.edu.) showline
() showline
() showline
() showline
(Making Condordance. Depending on file length, this may take awhile.) showline
() showline
() showline
(Saving concordance file inputfiles/multiPageText.wds, - concordance to file inpu) showline
(tfiles/multiPageText) showline
() showline
(Saving alphabet count file inputfiles/multiPageText.abc, - alphabet count for fi) showline
(le inputfiles/multiPageText) showline
() showline
(Concordancing completed.  For concordance file, see inputfiles/multiPageText.wds) showline
(; for alphabet) showline
(usage file, see inputfiles/multiPageText.abc) showline
() showline
(Concordance for file: inputfiles/multiPageText) showline
() showline
(Note: Concordancer considers a word a set of alphanumeric characters) showline
(      bounded by whitespace at each end of the set.) showline
() showline
(Total number of words in file: 14) showline
(Initial page of file was page 1) showline
(Last page of file was page 2) showline
() showline
(Word           Number of   Page number) showline
(Len  Word:         uses:   Locations:) showline
( 1 a...................1 - 1) showline
( 5 ..........check.....1 - 2) showline
( 9 ......correctly.....1 - 2) showline
( 2 .............if.....1 - 2) showline
(11 ....implemented.....1 - 2) showline
( 2 .............is.....1 - 2) showline
( 8 .......multiple.....1 - 1) showline
( 6 .........option.....1 - 2) showline
( 1 ..............p.....1 - 2) showline
( 5 ..........pages.....1 - 1) showline
( 8 .......spanning.....1 - 1) showline
( 4 ...........text.....1 - 1) showline
sf (1) 1 endcol
(1) endpage
%%Page: ? 2
2 newpage
/MailFor (Listing for ) def
/User (Florian Niedermann) def
/TimeNow (Thu Oct 27 08:46:44 2005) def
/Subject () def
sf ( 3 ............the.....1 - 2) showline
( 2 .............to.....1 - 2) showline
(------------------------------------------------) showline
(Running EP02) showline
(Rationale: Test concordance with invalid number of input parameters 3) showline
(Expected output: An error message like Too many parameters specified,) showline
(no output files are generated) showline
() showline
(This is Concordance, a program to make concordances for text files.) showline
($Id: concordance.cc,v 0.5 1996/11/26 23:49:48 ralph Exp ralph $) showline
(Copyright \(C\) 1996 Ralph L. Meyer, Spotswood, NJ 08884.) showline
(Concordance is licensed to users only under the conditions stated in the) showline
(GNU public license that comes with the distribution of this program.) showline
(Concordance comes with ABSOLUTELY NO WARRANTY; for details see the GNU public) showline
(license that accompanies this program.  You are welcome to redistribute this) showline
(software under certain conditions; for details see the GNU public license.) showline
(Send BUG reports to: meyer@princeton.edu.) showline
() showline
(Abort) showline
(Concordance for file: inputfiles/multiPageText) showline
() showline
(Note: Concordancer considers a word a set of alphanumeric characters) showline
(      bounded by whitespace at each end of the set.) showline
() showline
(Total number of words in file: 14) showline
(Initial page of file was page 1) showline
(Last page of file was page 2) showline
() showline
(Word           Number of   Page number) showline
(Len  Word:         uses:   Locations:) showline
( 1 a...................1 - 1) showline
( 5 ..........check.....1 - 2) showline
( 9 ......correctly.....1 - 2) showline
( 2 .............if.....1 - 2) showline
(11 ....implemented.....1 - 2) showline
( 2 .............is.....1 - 2) showline
( 8 .......multiple.....1 - 1) showline
( 6 .........option.....1 - 2) showline
( 1 ..............p.....1 - 2) showline
( 5 ..........pages.....1 - 1) showline
( 8 .......spanning.....1 - 1) showline
( 4 ...........text.....1 - 1) showline
( 3 ............the.....1 - 2) showline
( 2 .............to.....1 - 2) showline
(------------------------------------------------) showline
(Running EP03) showline
(Rationale: Test input item Existance of input file, invalid case) showline
(Expected output: An error message like nonExistingFile: The file you specified d) showline
(oesn't exist) showline
() showline
(This is Concordance, a program to make concordances for text files.) showline
($Id: concordance.cc,v 0.5 1996/11/26 23:49:48 ralph Exp ralph $) showline
(Copyright \(C\) 1996 Ralph L. Meyer, Spotswood, NJ 08884.) showline
(Concordance is licensed to users only under the conditions stated in the) showline
(GNU public license that comes with the distribution of this program.) showline
(Concordance comes with ABSOLUTELY NO WARRANTY; for details see the GNU public) showline
(license that accompanies this program.  You are welcome to redistribute this) showline
(software under certain conditions; for details see the GNU public license.) showline
(Send BUG reports to: meyer@princeton.edu.) showline
() showline
sf (2) 1 endcol
(2) endpage
%%Page: ? 3
3 newpage
/MailFor (Listing for ) def
/User (Florian Niedermann) def
/TimeNow (Thu Oct 27 08:46:44 2005) def
/Subject () def
sf (Abort) showline
(------------------------------------------------) showline
(Running EP04) showline
(Rationale: Test input item Integer value for the -n parameter, invalid case - no) showline
(t a number) showline
(Expected output: An error message like Syntax error. a is not an integer value) showline
() showline
(This is Concordance, a program to make concordances for text files.) showline
($Id: concordance.cc,v 0.5 1996/11/26 23:49:48 ralph Exp ralph $) showline
(Copyright \(C\) 1996 Ralph L. Meyer, Spotswood, NJ 08884.) showline
(Concordance is licensed to users only under the conditions stated in the) showline
(GNU public license that comes with the distribution of this program.) showline
(Concordance comes with ABSOLUTELY NO WARRANTY; for details see the GNU public) showline
(license that accompanies this program.  You are welcome to redistribute this) showline
(software under certain conditions; for details see the GNU public license.) showline
(Send BUG reports to: meyer@princeton.edu.) showline
() showline
(------------------------------------------------) showline
(Running EP05) showline
(Rationale: Test -n for negative numbers) showline
() showline
(This is Concordance, a program to make concordances for text files.) showline
($Id: concordance.cc,v 0.5 1996/11/26 23:49:48 ralph Exp ralph $) showline
(Copyright \(C\) 1996 Ralph L. Meyer, Spotswood, NJ 08884.) showline
(Concordance is licensed to users only under the conditions stated in the) showline
(GNU public license that comes with the distribution of this program.) showline
(Concordance comes with ABSOLUTELY NO WARRANTY; for details see the GNU public) showline
(license that accompanies this program.  You are welcome to redistribute this) showline
(software under certain conditions; for details see the GNU public license.) showline
(Send BUG reports to: meyer@princeton.edu.) showline
() showline
(------------------------------------------------) showline
(Running EP06) showline
(Rationale: Test functionality of -n in combination with -p mode) showline
(Expected output: Standard screen output, concordance begins with page 2) showline
(Concordance for file: inputfiles/multiPageText) showline
() showline
(Note: Concordancer considers a word a set of alphanumeric characters) showline
(      bounded by whitespace at each end of the set.) showline
() showline
(Total number of words in file: 14) showline
(Initial page of file was page 2) showline
(Last page of file was page 3) showline
() showline
(Word           Number of   Page number) showline
(Len  Word:         uses:   Locations:) showline
( 1 a...................1 - 2) showline
( 5 ..........check.....1 - 3) showline
( 9 ......correctly.....1 - 3) showline
( 2 .............if.....1 - 3) showline
(11 ....implemented.....1 - 3) showline
( 2 .............is.....1 - 3) showline
( 8 .......multiple.....1 - 2) showline
( 6 .........option.....1 - 3) showline
( 1 ..............p.....1 - 3) showline
( 5 ..........pages.....1 - 2) showline
( 8 .......spanning.....1 - 2) showline
( 4 ...........text.....1 - 2) showline
( 3 ............the.....1 - 3) showline
( 2 .............to.....1 - 3) showline
sf (3) 1 endcol
(3) endpage
%%Page: ? 4
4 newpage
/MailFor (Listing for ) def
/User (Florian Niedermann) def
/TimeNow (Thu Oct 27 08:46:45 2005) def
/Subject () def
sf (------------------------------------------------) showline
(Running EP08) showline
(Rationale: Test functionality of -n parameter in combination with -l mode) showline
(Expected output: Standard screen output, concordance by line number starting wit) showline
(h line 2) showline
(Concordance for file: inputfiles/multiLineText) showline
() showline
(Note: Concordancer considers a word a set of alphanumeric characters) showline
(      bounded by whitespace at each end of the set.) showline
() showline
(Total number of words in file: 13) showline
(Initial line of file was line 2) showline
(Last line of file was line 5) showline
() showline
(Word           Number of   Line number) showline
(Len  Word:         uses:   Locations:) showline
( 1 a...................1 - 2) showline
( 2 .............is.....1 - 2) showline
( 1 ..............l.....1 - 4) showline
( 5 ..........lines.....1 - 3) showline
( 6 .........option.....1 - 4) showline
( 7 ........several.....1 - 3) showline
( 5 ..........spans.....1 - 3) showline
( 4 ...........test.....1 - 4) showline
( 4 ...........text.....1 - 2) showline
( 3 ............the.....1 - 4) showline
( 4 ...........this.....1 - 2) showline
( 2 .............to.....1 - 4) showline
( 5 ..........which.....1 - 3) showline
(------------------------------------------------) showline
(Running EP09) showline
(Rationale: Test functionality of -n parameter in combination with -s mode) showline
(Expected output: Standard screen ouput, -n parameter is ignored) showline
(Concordance for file: inputfiles/stanzasText) showline
() showline
(Note: Concordancer considers a word a set of alphanumeric characters) showline
(      bounded by whitespace at each end of the set.) showline
() showline
(Total number of words in file: 18) showline
(Initial stanza of file was stanza 2) showline
(Last stanza of file was stanza 2) showline
() showline
(Word           Number of   Stanza number) showline
(Len  Word:         uses:   Locations:) showline
( 5 above...............1 - 2) showline
( 5 ..........first.....1 - 1) showline
( 3 ............for.....1 - 1) showline
( 2 .............in.....1 - 2) showline
( 2 .............is.....2 - 1 2) showline
( 6 .........second.....1 - 2) showline
( 8 .......sentence.....1 - 2) showline
( 6 .........stanza.....1 - 2) showline
( 6 .........stanze.....1 - 1) showline
( 4 ...........text.....1 - 1) showline
( 3 ............the.....4 - 1 2) showline
( 4 ...........this.....2 - 1 2) showline
( 6 .........unlike.....1 - 2) showline
(------------------------------------------------) showline
(Running EP10) showline
(Rationale: Test invalid stanzas, stanzas is not a number) showline
sf (4) 1 endcol
(4) endpage
%%Page: ? 5
5 newpage
/MailFor (Listing for ) def
/User (Florian Niedermann) def
/TimeNow (Thu Oct 27 08:46:45 2005) def
/Subject () def
sf (Expected Output: Standard screen output, the a> stanza is ignored in the outputf) showline
(ile - or rather treated like a normal word) showline
(Concordance for file: inputfiles/invalidStanzasText) showline
() showline
(Note: Concordancer considers a word a set of alphanumeric characters) showline
(      bounded by whitespace at each end of the set.) showline
() showline
(Total number of words in file: 22) showline
(Initial stanza of file was stanza 1) showline
(Last stanza of file was stanza 2) showline
() showline
(Word           Number of   Stanza number) showline
(Len  Word:         uses:   Locations:) showline
( 1 a...................2 - 2) showline
( 2 .............be.....1 - 2) showline
( 5 ..........first.....1 - 1) showline
( 3 ............for.....1 - 1) showline
( 7 ........ignored.....1 - 2) showline
( 2 .............in.....1 - 2) showline
( 2 .............is.....1 - 1) showline
( 6 .........second.....1 - 2) showline
( 6 .........should.....1 - 2) showline
( 8 .......shouldbe.....1 - 2) showline
( 5 ..........since.....1 - 2) showline
( 6 .........stanza.....3 - 1 2) showline
( 4 ...........text.....1 - 1) showline
( 3 ............the.....4 - 1 2) showline
( 4 ...........this.....2 - 1 2) showline
(------------------------------------------------) showline
(Running EP11) showline
(Rationale: Test invalid stanza, stanza is empty) showline
(Expected Output: Standard screen output, the empty stanza is ignored in the outp) showline
(utfile - or rather treated like a normal word) showline
(Concordance for file: inputfiles/emptyStanzasText) showline
() showline
(Note: Concordancer considers a word a set of alphanumeric characters) showline
(      bounded by whitespace at each end of the set.) showline
() showline
(Total number of words in file: 23) showline
(Initial stanza of file was stanza 1) showline
(Last stanza of file was stanza 2) showline
() showline
(Word           Number of   Stanza number) showline
(Len  Word:         uses:   Locations:) showline
( 2 an..................1 - 2) showline
( 8 .......assigned.....1 - 2) showline
( 2 .............be.....1 - 2) showline
( 7 ........doesn't.....1 - 2) showline
( 5 ..........first.....1 - 1) showline
( 3 ............for.....1 - 1) showline
( 4 ...........have.....1 - 2) showline
( 2 .............in.....1 - 2) showline
( 2 .............is.....1 - 1) showline
( 6 .........number.....1 - 2) showline
( 6 .........second.....1 - 2) showline
( 6 .........should.....1 - 2) showline
( 5 ..........since.....1 - 2) showline
( 6 .........stanza.....3 - 1 2) showline
( 4 ...........text.....1 - 1) showline
( 3 ............the.....4 - 1 2) showline
sf (5) 1 endcol
(5) endpage
%%Page: ? 6
6 newpage
/MailFor (Listing for ) def
/User (Florian Niedermann) def
/TimeNow (Thu Oct 27 08:46:45 2005) def
/Subject () def
sf ( 4 ...........this.....2 - 1 2) showline
(------------------------------------------------) showline
(Running EP12) showline
(Rationale: Test invalid stanza, stanza is real number) showline
(Expected Output: Standard screen output, the stanza with the real number is igno) showline
(red in the outputfile - or rather treated like a normal word) showline
() showline
(This is Concordance, a program to make concordances for text files.) showline
($Id: concordance.cc,v 0.5 1996/11/26 23:49:48 ralph Exp ralph $) showline
(Copyright \(C\) 1996 Ralph L. Meyer, Spotswood, NJ 08884.) showline
(Concordance is licensed to users only under the conditions stated in the) showline
(GNU public license that comes with the distribution of this program.) showline
(Concordance comes with ABSOLUTELY NO WARRANTY; for details see the GNU public) showline
(license that accompanies this program.  You are welcome to redistribute this) showline
(software under certain conditions; for details see the GNU public license.) showline
(Send BUG reports to: meyer@princeton.edu.) showline
() showline
() showline
() showline
(Making Condordance. Depending on file length, this may take awhile.) showline
() showline
() showline
(Saving concordance file inputfiles/realStanzasText.wds, - concordance to file in) showline
(putfiles/realStanzasText) showline
() showline
(Saving alphabet count file inputfiles/realStanzasText.abc, - alphabet count for ) showline
(file inputfiles/realStanzasText) showline
() showline
(Concordancing completed.  For concordance file, see inputfiles/realStanzasText.w) showline
(ds; for alphabet) showline
(usage file, see inputfiles/realStanzasText.abc) showline
() showline
(Concordance for file: inputfiles/realStanzasText) showline
() showline
(Note: Concordancer considers a word a set of alphanumeric characters) showline
(      bounded by whitespace at each end of the set.) showline
() showline
(Total number of words in file: 22) showline
(Initial stanza of file was stanza 1) showline
(Last stanza of file was stanza 2) showline
() showline
(Word           Number of   Stanza number) showline
(Len  Word:         uses:   Locations:) showline
( 1 2...................2 - 1 2) showline
( 2 .............be.....1 - 2) showline
( 5 ..........first.....1 - 1) showline
( 7 ........ignored.....1 - 2) showline
( 2 .............in.....2 - 1 2) showline
( 2 .............is.....1 - 2) showline
( 6 .........number.....2 - 2) showline
( 4 ...........real.....1 - 2) showline
( 6 .........should.....1 - 2) showline
( 5 ..........since.....1 - 2) showline
( 4 ...........some.....1 - 1) showline
( 6 .........stanza.....3 - 1 2) showline
( 4 ...........text.....2 - 1 2) showline
( 3 ............the.....2 - 1 2) showline
( 4 ...........this.....1 - 2) showline
(------------------------------------------------) showline
(Running EP13) showline
sf (6) 1 endcol
(6) endpage
%%Page: ? 7
7 newpage
/MailFor (Listing for ) def
/User (Florian Niedermann) def
/TimeNow (Thu Oct 27 08:46:45 2005) def
/Subject () def
sf (Rationale: Test invalid stanza, stanza is real number) showline
(Expected Output: Standard screen output, the stanza with the real number is igno) showline
(red in the outputfile - or rather treated like a normal word) showline
() showline
(This is Concordance, a program to make concordances for text files.) showline
($Id: concordance.cc,v 0.5 1996/11/26 23:49:48 ralph Exp ralph $) showline
(Copyright \(C\) 1996 Ralph L. Meyer, Spotswood, NJ 08884.) showline
(Concordance is licensed to users only under the conditions stated in the) showline
(GNU public license that comes with the distribution of this program.) showline
(Concordance comes with ABSOLUTELY NO WARRANTY; for details see the GNU public) showline
(license that accompanies this program.  You are welcome to redistribute this) showline
(software under certain conditions; for details see the GNU public license.) showline
(Send BUG reports to: meyer@princeton.edu.) showline
() showline
() showline
() showline
(Making Condordance. Depending on file length, this may take awhile.) showline
() showline
() showline
(Saving concordance file inputfiles/realStanzasText2.wds, - concordance to file i) showline
(nputfiles/realStanzasText2) showline
() showline
(Saving alphabet count file inputfiles/realStanzasText2.abc, - alphabet count for) showline
( file inputfiles/realStanzasText2) showline
() showline
(Concordancing completed.  For concordance file, see inputfiles/realStanzasText2.) showline
(wds; for alphabet) showline
(usage file, see inputfiles/realStanzasText2.abc) showline
() showline
(Concordance for file: inputfiles/realStanzasText2) showline
() showline
(Note: Concordancer considers a word a set of alphanumeric characters) showline
(      bounded by whitespace at each end of the set.) showline
() showline
(Total number of words in file: 22) showline
(Initial stanza of file was stanza 1) showline
(Last stanza of file was stanza 538) showline
() showline
(Word           Number of   Stanza number) showline
(Len  Word:         uses:   Locations:) showline
( 1 2...................2 - 1 538) showline
( 2 .............be.....1 - 538) showline
( 5 ..........first.....1 - 1) showline
( 7 ........ignored.....1 - 538) showline
( 2 .............in.....2 - 1 538) showline
( 2 .............is.....1 - 538) showline
( 6 .........number.....2 - 538) showline
( 4 ...........real.....1 - 538) showline
( 6 .........should.....1 - 538) showline
( 5 ..........since.....1 - 538) showline
( 4 ...........some.....1 - 1) showline
( 6 .........stanza.....3 - 1 538) showline
( 4 ...........text.....2 - 1 538) showline
( 3 ............the.....2 - 1 538) showline
( 4 ...........this.....1 - 538) showline
(------------------------------------------------) showline
(Running EP14) showline
(Rationale: Test invalid stanza, stanza is real number) showline
(Expected Output: Standard screen output, the stanza with the real number is igno) showline
(red in the outputfile - or rather treated like a normal word) showline
sf (7) 1 endcol
(7) endpage
%%Page: ? 8
8 newpage
/MailFor (Listing for ) def
/User (Florian Niedermann) def
/TimeNow (Thu Oct 27 08:46:45 2005) def
/Subject () def
sf () showline
(This is Concordance, a program to make concordances for text files.) showline
($Id: concordance.cc,v 0.5 1996/11/26 23:49:48 ralph Exp ralph $) showline
(Copyright \(C\) 1996 Ralph L. Meyer, Spotswood, NJ 08884.) showline
(Concordance is licensed to users only under the conditions stated in the) showline
(GNU public license that comes with the distribution of this program.) showline
(Concordance comes with ABSOLUTELY NO WARRANTY; for details see the GNU public) showline
(license that accompanies this program.  You are welcome to redistribute this) showline
(software under certain conditions; for details see the GNU public license.) showline
(Send BUG reports to: meyer@princeton.edu.) showline
() showline
() showline
() showline
(Making Condordance. Depending on file length, this may take awhile.) showline
() showline
() showline
(Saving concordance file inputfiles/realStanzasText3.wds, - concordance to file i) showline
(nputfiles/realStanzasText3) showline
() showline
(Saving alphabet count file inputfiles/realStanzasText3.abc, - alphabet count for) showline
( file inputfiles/realStanzasText3) showline
() showline
(Concordancing completed.  For concordance file, see inputfiles/realStanzasText3.) showline
(wds; for alphabet) showline
(usage file, see inputfiles/realStanzasText3.abc) showline
() showline
(Concordance for file: inputfiles/realStanzasText3) showline
() showline
(Note: Concordancer considers a word a set of alphanumeric characters) showline
(      bounded by whitespace at each end of the set.) showline
() showline
(Total number of words in file: 22) showline
(Initial stanza of file was stanza 1) showline
(Last stanza of file was stanza 538) showline
() showline
(Word           Number of   Stanza number) showline
(Len  Word:         uses:   Locations:) showline
( 1 2...................1 - 1) showline
( 2 .............be.....1 - 538) showline
( 5 ..........first.....1 - 1) showline
( 7 ........ignored.....1 - 538) showline
( 2 .............in.....2 - 1 538) showline
( 2 .............is.....1 - 538) showline
( 6 .........number.....2 - 538) showline
( 4 ...........real.....1 - 538) showline
( 6 .........should.....1 - 538) showline
( 5 ..........since.....1 - 538) showline
( 4 ...........some.....1 - 1) showline
( 6 .........stanza.....3 - 1 538) showline
( 4 ...........text.....2 - 1 538) showline
( 3 ............the.....2 - 1 538) showline
( 4 ...........this.....1 - 538) showline
( 3 ............two.....1 - 538) showline
(------------------------------------------------) showline
() showline
() showline
(------------------------------------------------) showline
(Running BV test cases) showline
(------------------------------------------------) showline
() showline
sf (8) 1 endcol
(8) endpage
%%Page: ? 9
9 newpage
/MailFor (Listing for ) def
/User (Florian Niedermann) def
/TimeNow (Thu Oct 27 08:46:45 2005) def
/Subject () def
sf () showline
(Running BV01) showline
(Rationale: Test how empty files are handled by concordance) showline
(Expected Output: An error message indicating that the specified input file was e) showline
(mpty, no output files are created) showline
(Segmentation Fault) showline
(Concordance for file: inputfiles/emptyFile) showline
() showline
(Note: Concordancer considers a word a set of alphanumeric characters) showline
(      bounded by whitespace at each end of the set.) showline
() showline
(Total number of words in file: 0) showline
(Initial page of file was page 1) showline
(Last page of file was page 1) showline
() showline
(Word           Number of   Page number) showline
(Len  Word:         uses:   Locations:) showline
(------------------------------------------------) showline
(Running BV02) showline
(Rationale: Test how very large files are handled by concordance) showline
(Expected output: Correct concordance by page) showline
(concordance veryLargeFile - TODO) showline
(------------------------------------------------) showline
(Running BV03) showline
(Rationale: Test handling of the 0 number for n:num option) showline
(Expected Output: Correct concordance by page number, starting by number 0) showline
(Concordance for file: inputfiles/multiPageText) showline
() showline
(Note: Concordancer considers a word a set of alphanumeric characters) showline
(      bounded by whitespace at each end of the set.) showline
() showline
(Total number of words in file: 14) showline
(Initial page of file was page 0) showline
(Last page of file was page 1) showline
() showline
(Word           Number of   Page number) showline
(Len  Word:         uses:   Locations:) showline
( 1 a...................1 - 0) showline
( 5 ..........check.....1 - 1) showline
( 9 ......correctly.....1 - 1) showline
( 2 .............if.....1 - 1) showline
(11 ....implemented.....1 - 1) showline
( 2 .............is.....1 - 1) showline
( 8 .......multiple.....1 - 0) showline
( 6 .........option.....1 - 1) showline
( 1 ..............p.....1 - 1) showline
( 5 ..........pages.....1 - 0) showline
( 8 .......spanning.....1 - 0) showline
( 4 ...........text.....1 - 0) showline
( 3 ............the.....1 - 1) showline
( 2 .............to.....1 - 1) showline
(------------------------------------------------) showline
(Running BV04) showline
(Rationale: Test -n option of the upper bounds - 2147483647 - of the input item n) showline
(um) showline
(Expected output: Correct concordance by page, no error message) showline
(Concordance for file: inputfiles/multiPageText) showline
() showline
(Note: Concordancer considers a word a set of alphanumeric characters) showline
(      bounded by whitespace at each end of the set.) showline
sf (9) 1 endcol
(9) endpage
%%Page: ? 10
10 newpage
/MailFor (Listing for ) def
/User (Florian Niedermann) def
/TimeNow (Thu Oct 27 08:46:45 2005) def
/Subject () def
sf () showline
(Total number of words in file: 14) showline
(Initial page of file was page 2147483646) showline
(Last page of file was page 2147483647) showline
() showline
(Word           Number of   Page number) showline
(Len  Word:         uses:   Locations:) showline
( 1 a...................1 - 2147483646) showline
( 5 ..........check.....1 - 2147483647) showline
( 9 ......correctly.....1 - 2147483647) showline
( 2 .............if.....1 - 2147483647) showline
(11 ....implemented.....1 - 2147483647) showline
( 2 .............is.....1 - 2147483647) showline
( 8 .......multiple.....1 - 2147483646) showline
( 6 .........option.....1 - 2147483647) showline
( 1 ..............p.....1 - 2147483647) showline
( 5 ..........pages.....1 - 2147483646) showline
( 8 .......spanning.....1 - 2147483646) showline
( 4 ...........text.....1 - 2147483646) showline
( 3 ............the.....1 - 2147483647) showline
( 2 .............to.....1 - 2147483647) showline
(------------------------------------------------) showline
(Running BV05) showline
(Rationale: Test -n option of the upper bounds - 2147483647 - of the input item n) showline
(um) showline
(Expected output: Correct concordance by page, no error message) showline
(Concordance for file: inputfiles/multiPageText) showline
() showline
(Note: Concordancer considers a word a set of alphanumeric characters) showline
(      bounded by whitespace at each end of the set.) showline
() showline
(Total number of words in file: 14) showline
(Initial page of file was page 2147483647) showline
(Last page of file was page 2147483648) showline
() showline
(Word           Number of   Page number) showline
(Len  Word:         uses:   Locations:) showline
( 1 a...................1 - 2147483647) showline
( 5 ..........check.....1 - 2147483648) showline
( 9 ......correctly.....1 - 2147483648) showline
( 2 .............if.....1 - 2147483648) showline
(11 ....implemented.....1 - 2147483648) showline
( 2 .............is.....1 - 2147483648) showline
( 8 .......multiple.....1 - 2147483647) showline
( 6 .........option.....1 - 2147483648) showline
( 1 ..............p.....1 - 2147483648) showline
( 5 ..........pages.....1 - 2147483647) showline
( 8 .......spanning.....1 - 2147483647) showline
( 4 ...........text.....1 - 2147483647) showline
( 3 ............the.....1 - 2147483648) showline
( 2 .............to.....1 - 2147483648) showline
(------------------------------------------------) showline
(Running BV06) showline
(Rationale: Test invalid stanzas, stanza is 0) showline
(Concordance for file: inputfiles/invalidStanzasText2) showline
() showline
(Note: Concordancer considers a word a set of alphanumeric characters) showline
(      bounded by whitespace at each end of the set.) showline
() showline
(Total number of words in file: 14) showline
sf (10) 1 endcol
(10) endpage
%%Page: ? 11
11 newpage
/MailFor (Listing for ) def
/User (Florian Niedermann) def
/TimeNow (Thu Oct 27 08:46:45 2005) def
/Subject () def
sf (Initial stanza of file was stanza 1) showline
(Last stanza of file was stanza 2) showline
() showline
(Word           Number of   Stanza number) showline
(Len  Word:         uses:   Locations:) showline
( 5 first...............1 - 0) showline
( 3 ............for.....2 - 0 2) showline
( 2 .............is.....1 - 0) showline
( 5 ..........other.....1 - 2) showline
( 4 ...........some.....1 - 2) showline
( 6 .........stanza.....2 - 0 2) showline
( 4 ...........text.....2 - 0 2) showline
( 3 ............the.....2 - 0) showline
( 4 ...........this.....1 - 0) showline
( 3 ............two.....1 - 2) showline
(------------------------------------------------) showline
(Running BV07) showline
(Rationale: Test upper bound for stanzas, stanza numbers below upper boundary) showline
(Expected output: Correct concordance by stanza, no error message) showline
(Concordance for file: inputfiles/largeStanzasText) showline
() showline
(Note: Concordancer considers a word a set of alphanumeric characters) showline
(      bounded by whitespace at each end of the set.) showline
() showline
(Total number of words in file: 13) showline
(Initial stanza of file was stanza 1) showline
(Last stanza of file was stanza 2147483647) showline
() showline
(Word           Number of   Stanza number) showline
(Len  Word:         uses:   Locations:) showline
( 3 for.................1 - 2147483646) showline
( 2 .............is.....1 - 2147483647) showline
( 7 ........largest.....1 - 2147483646) showline
( 4 ...........last.....1 - 2147483647) showline
( 8 .......possible.....1 - 2147483647) showline
( 6 .........second.....1 - 2147483646) showline
( 6 .........stanza.....2 - 2147483646 2147483647) showline
( 4 ...........test.....1 - 2147483646) showline
( 3 ............the.....3 - 2147483646 2147483647) showline
( 4 ...........this.....1 - 2147483647) showline
(------------------------------------------------) showline
(Running BV08) showline
(Rationale: Test upper bound for stanzas, stanza number larger than upper boundar) showline
(y) showline
(Expected output: An error message indicating that the second stanza is too large) showline
(, no output files are created) showline
() showline
(This is Concordance, a program to make concordances for text files.) showline
($Id: concordance.cc,v 0.5 1996/11/26 23:49:48 ralph Exp ralph $) showline
(Copyright \(C\) 1996 Ralph L. Meyer, Spotswood, NJ 08884.) showline
(Concordance is licensed to users only under the conditions stated in the) showline
(GNU public license that comes with the distribution of this program.) showline
(Concordance comes with ABSOLUTELY NO WARRANTY; for details see the GNU public) showline
(license that accompanies this program.  You are welcome to redistribute this) showline
(software under certain conditions; for details see the GNU public license.) showline
(Send BUG reports to: meyer@princeton.edu.) showline
() showline
() showline
() showline
(Making Condordance. Depending on file length, this may take awhile.) showline
sf (11) 1 endcol
(11) endpage
%%Page: ? 12
12 newpage
/MailFor (Listing for ) def
/User (Florian Niedermann) def
/TimeNow (Thu Oct 27 08:46:45 2005) def
/Subject () def
sf () showline
() showline
(Saving concordance file inputfiles/tooLargeStanzasText.wds, - concordance to fil) showline
(e inputfiles/tooLargeStanzasText) showline
() showline
(Saving alphabet count file inputfiles/tooLargeStanzasText.abc, - alphabet count ) showline
(for file inputfiles/tooLargeStanzasText) showline
() showline
(Concordancing completed.  For concordance file, see inputfiles/tooLargeStanzasTe) showline
(xt.wds; for alphabet) showline
(usage file, see inputfiles/tooLargeStanzasText.abc) showline
() showline
(Concordance for file: inputfiles/tooLargeStanzasText) showline
() showline
(Note: Concordancer considers a word a set of alphanumeric characters) showline
(      bounded by whitespace at each end of the set.) showline
() showline
(Total number of words in file: 12) showline
(Initial stanza of file was stanza 1) showline
(Last stanza of file was stanza 2147483648) showline
() showline
(Word           Number of   Stanza number) showline
(Len  Word:         uses:   Locations:) showline
( 2 an..................1 - 2147483648) showline
( 5 ..........cause.....1 - 2147483648) showline
( 5 ..........error.....1 - 2147483648) showline
( 2 .............is.....1 - 2147483647) showline
( 4 ...........last.....1 - 2147483647) showline
( 8 .......possible.....1 - 2147483647) showline
( 6 .........should.....1 - 2147483648) showline
( 6 .........stanza.....1 - 2147483648) showline
( 7 ........stanzas.....1 - 2147483647) showline
( 3 ............the.....1 - 2147483647) showline
( 4 ...........this.....2 - 2147483647 2147483648) showline
(------------------------------------------------) showline
(Running BV09) showline
(Rationale: Test a way too large stanza to cover the case that the chosen integer) showline
( was larger than 32 bit) showline
(Expected output: An error message indicating that the second stanza is too large) showline
(, no output files are created) showline
() showline
(This is Concordance, a program to make concordances for text files.) showline
($Id: concordance.cc,v 0.5 1996/11/26 23:49:48 ralph Exp ralph $) showline
(Copyright \(C\) 1996 Ralph L. Meyer, Spotswood, NJ 08884.) showline
(Concordance is licensed to users only under the conditions stated in the) showline
(GNU public license that comes with the distribution of this program.) showline
(Concordance comes with ABSOLUTELY NO WARRANTY; for details see the GNU public) showline
(license that accompanies this program.  You are welcome to redistribute this) showline
(software under certain conditions; for details see the GNU public license.) showline
(Send BUG reports to: meyer@princeton.edu.) showline
() showline
() showline
() showline
(Making Condordance. Depending on file length, this may take awhile.) showline
() showline
() showline
(Saving concordance file inputfiles/muchTooLargeStanzasText.wds, - concordance to) showline
( file inputfiles/muchTooLargeStanzasText) showline
() showline
(Saving alphabet count file inputfiles/muchTooLargeStanzasText.abc, - alphabet co) showline
sf (12) 1 endcol
(12) endpage
%%Page: ? 13
13 newpage
/MailFor (Listing for ) def
/User (Florian Niedermann) def
/TimeNow (Thu Oct 27 08:46:45 2005) def
/Subject () def
sf (unt for file inputfiles/muchTooLargeStanzasText) showline
() showline
(Concordancing completed.  For concordance file, see inputfiles/muchTooLargeStanz) showline
(asText.wds; for alphabet) showline
(usage file, see inputfiles/muchTooLargeStanzasText.abc) showline
() showline
(Concordance for file: inputfiles/muchTooLargeStanzasText) showline
() showline
(Note: Concordancer considers a word a set of alphanumeric characters) showline
(      bounded by whitespace at each end of the set.) showline
() showline
(Total number of words in file: 17) showline
(Initial stanza of file was stanza 1) showline
(Last stanza of file was stanza 3567587327) showline
() showline
(Word           Number of   Stanza number) showline
(Len  Word:         uses:   Locations:) showline
( 3 any.................1 - 3567587327) showline
( 2 .............be.....1 - 3567587327) showline
( 5 ..........first.....1 - 1) showline
( 3 ............for.....2 - 1 3567587327) showline
( 7 ........integer.....1 - 3567587327) showline
( 5 ..........large.....1 - 3567587327) showline
(14 .representation.....1 - 3567587327) showline
( 6 .........should.....1 - 3567587327) showline
( 4 ...........some.....1 - 1) showline
( 6 .........stanza.....2 - 1 3567587327) showline
( 4 ...........text.....1 - 1) showline
( 3 ............the.....1 - 1) showline
( 4 ...........this.....1 - 3567587327) showline
( 3 ............too.....1 - 3567587327) showline
( 3 ............way.....1 - 3567587327) showline
(------------------------------------------------) showline
() showline
() showline
(------------------------------------------------) showline
(Running EG test cases) showline
(------------------------------------------------) showline
() showline
() showline
(Running EG01) showline
(Rationale: Test handling of non-ascii characters) showline
(Expected output: Correct concordance by line, no error messages. German characte) showline
(rs are included in the .abc file) showline
(Concordance for file: inputfiles/germanText) showline
() showline
(Note: Concordancer considers a word a set of alphanumeric characters) showline
(      bounded by whitespace at each end of the set.) showline
() showline
(Total number of words in file: 54) showline
(Initial line of file was line 1) showline
(Last line of file was line 6) showline
() showline
(Word           Number of   Line number) showline
(Len  Word:         uses:   Locations:) showline
( 1 a...................2 - 1) showline
( 5 ..........ascii.....1 - 1) showline
( 2 .............at.....1 - 1) showline
( 4 ...........auch.....1 - 5) showline
(10 .....characters.....1 - 1) showline
sf (13) 1 endcol
(13) endpage
%%Page: ? 14
14 newpage
/MailFor (Listing for ) def
/User (Florian Niedermann) def
/TimeNow (Thu Oct 27 08:46:45 2005) def
/Subject () def
sf ( 6 .........cklich.....1 - 3) showline
( 1 ..............d.....1 - 5) showline
( 2 .............da.....1 - 3) showline
( 3 ............das.....1 - 5) showline
( 3 ............die.....1 - 3) showline
( 8 .......folgende.....1 - 5) showline
( 9 ......folgenden.....1 - 3) showline
( 8 .......getestet.....1 - 3) showline
( 2 .............gl.....1 - 3) showline
(11 ....interessant.....1 - 5) showline
( 2 .............is.....1 - 1) showline
( 1 ..............l.....9 - 6) showline
( 2 .............ll.....2 - 6) showline
( 5 ..........lookt.....1 - 1) showline
( 2 .............l\344\056....1 - 6) showline
( 3 ............non.....1 - 1) showline
( 2 .............pp.....1 - 6) showline
( 4 ...........rfte.....1 - 5) showline
( 4 ...........rter.....2 - 3) showline
( 4 ...........sein.....1 - 5) showline
( 6 .........sollen.....1 - 3) showline
( 4 ...........some.....1 - 1) showline
( 5 ..........takes.....1 - 1) showline
( 4 ...........text.....1 - 1) showline
( 4 ...........this.....1 - 1) showline
( 1 ..............w.....2 - 3) showline
( 6 .........werden.....1 - 3) showline
( 5 ..........which.....1 - 1) showline
( 1 ..............\344\056....6 - 6) showline
( 7 ........\344\150nlich.....1 - 3) showline
( 2 .............\344\154.....1 - 6) showline
( 2 .............\344\344.....1 - 6) showline
( a ...11   6.8% aaaaaaa) showline
( b ....0     0% ) showline
( c ....8     5% ccccc) showline
( d ....7   4.3% ddddd) showline
( e ...21    13% eeeeeeeeeeeeee) showline
( f ....3   1.9% ff) showline
( g ....4   2.5% ggg) showline
( h ....8     5% hhhhh) showline
( i ...10   6.2% iiiiiii) showline
( j ....0     0% ) showline
( k ....3   1.9% kk) showline
( l ...23    14% lllllllllllllll) showline
( m ....1  0.62% m) showline
( n ...11   6.8% nnnnnnn) showline
( o ....7   4.3% ooooo) showline
( p ....2   1.2% pp) showline
( q ....0     0% ) showline
( r ....9   5.6% rrrrrr) showline
( s ...12   7.5% ssssssss) showline
( t ...15   9.3% tttttttttt) showline
( u ....1  0.62% u) showline
( v ....0     0% ) showline
( w ....4   2.5% www) showline
( x ....1  0.62% x) showline
( y ....0     0% ) showline
( z ....0     0% ) showline
( 0 ....0     0% ) showline
( 1 ....0     0% ) showline
sf (14) 1 endcol
(14) endpage
%%Page: ? 15
15 newpage
/MailFor (Listing for ) def
/User (Florian Niedermann) def
/TimeNow (Thu Oct 27 08:46:45 2005) def
/Subject () def
sf ( 2 ....0     0% ) showline
( 3 ....0     0% ) showline
( 4 ....0     0% ) showline
( 5 ....0     0% ) showline
( 6 ....0     0% ) showline
( 7 ....0     0% ) showline
( 8 ....0     0% ) showline
( 9 ....0     0% ) showline
() showline
(Total Characters: 161) showline
(------------------------------------------------) showline
(Running EG02) showline
(Rationale: Test how special character are handled by concordance) showline
(Expected output: Correct concordance by line, special characters are ignored - i) showline
(.e. neither shown as words in the .wds file nore as characters in the .abc file) showline
(Concordance for file: inputfiles/specialText) showline
() showline
(Note: Concordancer considers a word a set of alphanumeric characters) showline
(      bounded by whitespace at each end of the set.) showline
() showline
(Total number of words in file: 16) showline
(Initial line of file was line 1) showline
(Last line of file was line 9) showline
() showline
(Word           Number of   Line number) showline
(Len  Word:         uses:   Locations:) showline
( 1 a...................1 - 1) showline
( 3 ............and.....1 - 1) showline
(10 .....characters.....1 - 1) showline
(10 .....containing.....1 - 1) showline
( 7 ........control.....1 - 9) showline
( 4 ...........from.....1 - 9) showline
( 2 .............is.....1 - 1) showline
( 4 ...........like.....1 - 9) showline
( 1 ..............m.....1 - 9) showline
( 5 ..........other.....1 - 1) showline
( 4 ...........some.....2 - 1) showline
( 8 .......tabstops.....1 - 1) showline
( 4 ...........text.....1 - 1) showline
( 4 ...........this.....1 - 1) showline
(11 ....unprintable.....1 - 1) showline
( a ....7   7.9% aaaaaaaa) showline
( b ....2   2.2% bbb) showline
( c ....4   4.5% ccccc) showline
( d ....2   2.2% ddd) showline
( e ....7   7.9% eeeeeeee) showline
( f ....1   1.1% ff) showline
( g ....1   1.1% gg) showline
( h ....3   3.4% hhhh) showline
( i ....7   7.9% iiiiiiii) showline
( j ....0     0% ) showline
( k ....1   1.1% kk) showline
( l ....3   3.4% llll) showline
( m ....4   4.5% mmmmm) showline
( n ....8     9% nnnnnnnnn) showline
( o ....9    10% ooooooooooo) showline
( p ....2   2.2% ppp) showline
( q ....0     0% ) showline
( r ....6   6.7% rrrrrrr) showline
( s ....8     9% sssssssss) showline
sf (15) 1 endcol
(15) endpage
%%Page: ? 16
16 newpage
/MailFor (Listing for ) def
/User (Florian Niedermann) def
/TimeNow (Thu Oct 27 08:46:45 2005) def
/Subject () def
sf ( t ...10    11% tttttttttttt) showline
( u ....1   1.1% uu) showline
( v ....0     0% ) showline
( w ....2   2.2% www) showline
( x ....1   1.1% xx) showline
( y ....0     0% ) showline
( z ....0     0% ) showline
( 0 ....0     0% ) showline
( 1 ....0     0% ) showline
( 2 ....0     0% ) showline
( 3 ....0     0% ) showline
( 4 ....0     0% ) showline
( 5 ....0     0% ) showline
( 6 ....0     0% ) showline
( 7 ....0     0% ) showline
( 8 ....0     0% ) showline
( 9 ....0     0% ) showline
() showline
(Total Characters: 89) showline
(------------------------------------------------) showline
(Running EG03) showline
(Rationale: Test how concordance works if the outputfile already exists) showline
(Expected Output: Existing file gets overwritten, correct concordance by page) showline
() showline
(This is Concordance, a program to make concordances for text files.) showline
($Id: concordance.cc,v 0.5 1996/11/26 23:49:48 ralph Exp ralph $) showline
(Copyright \(C\) 1996 Ralph L. Meyer, Spotswood, NJ 08884.) showline
(Concordance is licensed to users only under the conditions stated in the) showline
(GNU public license that comes with the distribution of this program.) showline
(Concordance comes with ABSOLUTELY NO WARRANTY; for details see the GNU public) showline
(license that accompanies this program.  You are welcome to redistribute this) showline
(software under certain conditions; for details see the GNU public license.) showline
(Send BUG reports to: meyer@princeton.edu.) showline
() showline
(Abort) showline
(------------------------------------------------) showline
(Running EG04) showline
(Rationale: Test how concordance deals with mixed up stanzas) showline
(Expected Output: Correct concordance by stanza, standard screen output) showline
() showline
(This is Concordance, a program to make concordances for text files.) showline
($Id: concordance.cc,v 0.5 1996/11/26 23:49:48 ralph Exp ralph $) showline
(Copyright \(C\) 1996 Ralph L. Meyer, Spotswood, NJ 08884.) showline
(Concordance is licensed to users only under the conditions stated in the) showline
(GNU public license that comes with the distribution of this program.) showline
(Concordance comes with ABSOLUTELY NO WARRANTY; for details see the GNU public) showline
(license that accompanies this program.  You are welcome to redistribute this) showline
(software under certain conditions; for details see the GNU public license.) showline
(Send BUG reports to: meyer@princeton.edu.) showline
() showline
() showline
() showline
(Making Condordance. Depending on file length, this may take awhile.) showline
() showline
() showline
(Saving concordance file inputfiles/mixedUpStanzasText.wds, - concordance to file) showline
( inputfiles/mixedUpStanzasText) showline
() showline
(Saving alphabet count file inputfiles/mixedUpStanzasText.abc, - alphabet count f) showline
(or file inputfiles/mixedUpStanzasText) showline
sf (16) 1 endcol
(16) endpage
%%Page: ? 17
17 newpage
/MailFor (Listing for ) def
/User (Florian Niedermann) def
/TimeNow (Thu Oct 27 08:46:45 2005) def
/Subject () def
sf () showline
(Concordancing completed.  For concordance file, see inputfiles/mixedUpStanzasTex) showline
(t.wds; for alphabet) showline
(usage file, see inputfiles/mixedUpStanzasText.abc) showline
() showline
(Concordance for file: inputfiles/mixedUpStanzasText) showline
() showline
(Note: Concordancer considers a word a set of alphanumeric characters) showline
(      bounded by whitespace at each end of the set.) showline
() showline
(Total number of words in file: 8) showline
(Initial stanza of file was stanza 1) showline
(Last stanza of file was stanza 1) showline
() showline
(Word           Number of   Stanza number) showline
(Len  Word:         uses:   Locations:) showline
( 6 before..............1 - 2) showline
( 5 ..........first.....1 - 1) showline
( 4 ...........goes.....1 - 2) showline
( 6 .........second.....1 - 2) showline
( 6 .........stanza.....2 - 2 1) showline
( 3 ............the.....2 - 2 1) showline
(------------------------------------------------) showline
(Running EG05) showline
(Rationale: Test how real values are handled for the -n parameter) showline
(Expected Output: An error message like Invalid value. Please enter an integer va) showline
(lue) showline
() showline
(This is Concordance, a program to make concordances for text files.) showline
($Id: concordance.cc,v 0.5 1996/11/26 23:49:48 ralph Exp ralph $) showline
(Copyright \(C\) 1996 Ralph L. Meyer, Spotswood, NJ 08884.) showline
(Concordance is licensed to users only under the conditions stated in the) showline
(GNU public license that comes with the distribution of this program.) showline
(Concordance comes with ABSOLUTELY NO WARRANTY; for details see the GNU public) showline
(license that accompanies this program.  You are welcome to redistribute this) showline
(software under certain conditions; for details see the GNU public license.) showline
(Send BUG reports to: meyer@princeton.edu.) showline
() showline
(------------------------------------------------) showline
() showline
() showline
(------------------------------------------------) showline
(Running Syntax testing test cases) showline
(------------------------------------------------) showline
() showline
() showline
(Running S01) showline
(Rationale: Run with help parameter) showline
(Expected Output: Help screen for concordance) showline
(concordance help) showline
(------------------------------------------------) showline
(Running S02) showline
(Rationale: Test with outputfile) showline
(Expected output: Correct output by page number) showline
(Abort) showline
(------------------------------------------------) showline
(Running S03) showline
(Rationale: Test -p mode) showline
(Expected output: Correct concordance by page) showline
(A text spanning multiple pages) showline
sf (17) 1 endcol
(17) endpage
%%Page: ? 18
18 newpage
/MailFor (Listing for ) def
/User (Florian Niedermann) def
/TimeNow (Thu Oct 27 08:46:45 2005) def
/Subject () def
sf () showline
() showline
(To check if the -p option is implemented correctly) showline
(------------------------------------------------) showline
(Running S04) showline
(Rationale: Test -s -q mode) showline
(Expected output: Reduced screen output, concordance correctly by stanza) showline
(Concordance for file: inputfiles/stanzasText) showline
() showline
(Note: Concordancer considers a word a set of alphanumeric characters) showline
(      bounded by whitespace at each end of the set.) showline
() showline
(Total number of words in file: 18) showline
(Initial stanza of file was stanza 1) showline
(Last stanza of file was stanza 2) showline
() showline
(Word           Number of   Stanza number) showline
(Len  Word:         uses:   Locations:) showline
( 5 above...............1 - 2) showline
( 5 ..........first.....1 - 1) showline
( 3 ............for.....1 - 1) showline
( 2 .............in.....1 - 2) showline
( 2 .............is.....2 - 1 2) showline
( 6 .........second.....1 - 2) showline
( 8 .......sentence.....1 - 2) showline
( 6 .........stanza.....1 - 2) showline
( 6 .........stanze.....1 - 1) showline
( 4 ...........text.....1 - 1) showline
( 3 ............the.....4 - 1 2) showline
( 4 ...........this.....2 - 1 2) showline
( 6 .........unlike.....1 - 2) showline
(------------------------------------------------) showline
(Running S05) showline
(Rationale: Test -ln mode) showline
(Expected output: Normal screen output, concordance by line starting with) showline
() showline
(This is Concordance, a program to make concordances for text files.) showline
($Id: concordance.cc,v 0.5 1996/11/26 23:49:48 ralph Exp ralph $) showline
(Copyright \(C\) 1996 Ralph L. Meyer, Spotswood, NJ 08884.) showline
(Concordance is licensed to users only under the conditions stated in the) showline
(GNU public license that comes with the distribution of this program.) showline
(Concordance comes with ABSOLUTELY NO WARRANTY; for details see the GNU public) showline
(license that accompanies this program.  You are welcome to redistribute this) showline
(software under certain conditions; for details see the GNU public license.) showline
(Send BUG reports to: meyer@princeton.edu.) showline
() showline
() showline
() showline
(Making Condordance. Depending on file length, this may take awhile.) showline
() showline
() showline
(Saving concordance file inputfiles/multiLineText.wds, - concordance to file inpu) showline
(tfiles/multiLineText) showline
() showline
(Saving alphabet count file inputfiles/multiLineText.abc, - alphabet count for fi) showline
(le inputfiles/multiLineText) showline
() showline
(Concordancing completed.  For concordance file, see inputfiles/multiLineText.wds) showline
(; for alphabet) showline
(usage file, see inputfiles/multiLineText.abc) showline
sf (18) 1 endcol
(18) endpage
%%Page: ? 19
19 newpage
/MailFor (Listing for ) def
/User (Florian Niedermann) def
/TimeNow (Thu Oct 27 08:46:45 2005) def
/Subject () def
sf () showline
(Concordance for file: inputfiles/multiLineText) showline
() showline
(Note: Concordancer considers a word a set of alphanumeric characters) showline
(      bounded by whitespace at each end of the set.) showline
() showline
(Total number of words in file: 13) showline
(Initial line of file was line 2) showline
(Last line of file was line 5) showline
() showline
(Word           Number of   Line number) showline
(Len  Word:         uses:   Locations:) showline
( 1 a...................1 - 2) showline
( 2 .............is.....1 - 2) showline
( 1 ..............l.....1 - 4) showline
( 5 ..........lines.....1 - 3) showline
( 6 .........option.....1 - 4) showline
( 7 ........several.....1 - 3) showline
( 5 ..........spans.....1 - 3) showline
( 4 ...........test.....1 - 4) showline
( 4 ...........text.....1 - 2) showline
( 3 ............the.....1 - 4) showline
( 4 ...........this.....1 - 2) showline
( 2 .............to.....1 - 4) showline
( 5 ..........which.....1 - 3) showline
(------------------------------------------------) showline
(Running S06) showline
(Rationale: test -lqn mode) showline
(Expected output: Reduced screen output, concordance by line starting with) showline
() showline
(This is Concordance, a program to make concordances for text files.) showline
($Id: concordance.cc,v 0.5 1996/11/26 23:49:48 ralph Exp ralph $) showline
(Copyright \(C\) 1996 Ralph L. Meyer, Spotswood, NJ 08884.) showline
(Concordance is licensed to users only under the conditions stated in the) showline
(GNU public license that comes with the distribution of this program.) showline
(Concordance comes with ABSOLUTELY NO WARRANTY; for details see the GNU public) showline
(license that accompanies this program.  You are welcome to redistribute this) showline
(software under certain conditions; for details see the GNU public license.) showline
(Send BUG reports to: meyer@princeton.edu.) showline
() showline
(Concordance for file: inputfiles/multiLineText) showline
() showline
(Note: Concordancer considers a word a set of alphanumeric characters) showline
(      bounded by whitespace at each end of the set.) showline
() showline
(Total number of words in file: 13) showline
(Initial line of file was line 2) showline
(Last line of file was line 5) showline
() showline
(Word           Number of   Line number) showline
(Len  Word:         uses:   Locations:) showline
( 1 a...................1 - 2) showline
( 2 .............is.....1 - 2) showline
( 1 ..............l.....1 - 4) showline
( 5 ..........lines.....1 - 3) showline
( 6 .........option.....1 - 4) showline
( 7 ........several.....1 - 3) showline
( 5 ..........spans.....1 - 3) showline
( 4 ...........test.....1 - 4) showline
( 4 ...........text.....1 - 2) showline
sf (19) 1 endcol
(19) endpage
%%Page: ? 20
20 newpage
/MailFor (Listing for ) def
/User (Florian Niedermann) def
/TimeNow (Thu Oct 27 08:46:45 2005) def
/Subject () def
sf ( 3 ............the.....1 - 4) showline
( 4 ...........this.....1 - 2) showline
( 2 .............to.....1 - 4) showline
( 5 ..........which.....1 - 3) showline
(----------------------------------------------) showline
(Running S08) showline
(Rationale: Test -p option without providing a filename) showline
(Expected output: An error message like Please specify an input file) showline
() showline
(This is Concordance, a program to make concordances for text files.) showline
($Id: concordance.cc,v 0.5 1996/11/26 23:49:48 ralph Exp ralph $) showline
(Copyright \(C\) 1996 Ralph L. Meyer, Spotswood, NJ 08884.) showline
(Concordance is licensed to users only under the conditions stated in the) showline
(GNU public license that comes with the distribution of this program.) showline
(Concordance comes with ABSOLUTELY NO WARRANTY; for details see the GNU public) showline
(license that accompanies this program.  You are welcome to redistribute this) showline
(software under certain conditions; for details see the GNU public license.) showline
(Send BUG reports to: meyer@princeton.edu.) showline
() showline
(Abort) showline
(----------------------------------------------) showline
(Running S09) showline
(Rationale: Test -sq option without providing a filename) showline
(Expected output: An error message like Please specify an input file) showline
() showline
(This is Concordance, a program to make concordances for text files.) showline
($Id: concordance.cc,v 0.5 1996/11/26 23:49:48 ralph Exp ralph $) showline
(Copyright \(C\) 1996 Ralph L. Meyer, Spotswood, NJ 08884.) showline
(Concordance is licensed to users only under the conditions stated in the) showline
(GNU public license that comes with the distribution of this program.) showline
(Concordance comes with ABSOLUTELY NO WARRANTY; for details see the GNU public) showline
(license that accompanies this program.  You are welcome to redistribute this) showline
(software under certain conditions; for details see the GNU public license.) showline
(Send BUG reports to: meyer@princeton.edu.) showline
() showline
(Abort) showline
(----------------------------------------------) showline
(Running S10) showline
(Rationale: Test -lqn:2 option without providing a filename) showline
(Expected output: An error message like Please specify an input file) showline
() showline
(This is Concordance, a program to make concordances for text files.) showline
($Id: concordance.cc,v 0.5 1996/11/26 23:49:48 ralph Exp ralph $) showline
(Copyright \(C\) 1996 Ralph L. Meyer, Spotswood, NJ 08884.) showline
(Concordance is licensed to users only under the conditions stated in the) showline
(GNU public license that comes with the distribution of this program.) showline
(Concordance comes with ABSOLUTELY NO WARRANTY; for details see the GNU public) showline
(license that accompanies this program.  You are welcome to redistribute this) showline
(software under certain conditions; for details see the GNU public license.) showline
(Send BUG reports to: meyer@princeton.edu.) showline
() showline
(Abort) showline
(----------------------------------------------) showline
(Running S12) showline
(Rationale: Invalid token for command line parameters) showline
(Expected output: An error message like -x: Invalid parameter, no output files ar) showline
(e generated) showline
() showline
(This is Concordance, a program to make concordances for text files.) showline
($Id: concordance.cc,v 0.5 1996/11/26 23:49:48 ralph Exp ralph $) showline
sf (20) 1 endcol
(20) endpage
%%Page: ? 21
21 newpage
/MailFor (Listing for ) def
/User (Florian Niedermann) def
/TimeNow (Thu Oct 27 08:46:45 2005) def
/Subject () def
sf (Copyright \(C\) 1996 Ralph L. Meyer, Spotswood, NJ 08884.) showline
(Concordance is licensed to users only under the conditions stated in the) showline
(GNU public license that comes with the distribution of this program.) showline
(Concordance comes with ABSOLUTELY NO WARRANTY; for details see the GNU public) showline
(license that accompanies this program.  You are welcome to redistribute this) showline
(software under certain conditions; for details see the GNU public license.) showline
(Send BUG reports to: meyer@princeton.edu.) showline
() showline
() showline
() showline
(Making Condordance. Depending on file length, this may take awhile.) showline
() showline
() showline
(Saving concordance file inputfiles/multiLineText.wds, - concordance to file inpu) showline
(tfiles/multiLineText) showline
() showline
(Saving alphabet count file inputfiles/multiLineText.abc, - alphabet count for fi) showline
(le inputfiles/multiLineText) showline
() showline
(Concordancing completed.  For concordance file, see inputfiles/multiLineText.wds) showline
(; for alphabet) showline
(usage file, see inputfiles/multiLineText.abc) showline
() showline
(Concordance for file: inputfiles/multiLineText) showline
() showline
(Note: Concordancer considers a word a set of alphanumeric characters) showline
(      bounded by whitespace at each end of the set.) showline
() showline
(Total number of words in file: 13) showline
(Initial page of file was page 1) showline
(Last page of file was page 1) showline
() showline
(Word           Number of   Page number) showline
(Len  Word:         uses:   Locations:) showline
( 1 a...................1 - 1) showline
( 2 .............is.....1 - 1) showline
( 1 ..............l.....1 - 1) showline
( 5 ..........lines.....1 - 1) showline
( 6 .........option.....1 - 1) showline
( 7 ........several.....1 - 1) showline
( 5 ..........spans.....1 - 1) showline
( 4 ...........test.....1 - 1) showline
( 4 ...........text.....1 - 1) showline
( 3 ............the.....1 - 1) showline
( 4 ...........this.....1 - 1) showline
( 2 .............to.....1 - 1) showline
( 5 ..........which.....1 - 1) showline
(----------------------------------------------) showline
(Running S13) showline
(Rationale: Invalid token after help) showline
(Expected output: Although an invalid token is provided, the output for the help ) showline
(function should still be the same) showline
(concordance help foo) showline
(----------------------------------------------) showline
(Running S14) showline
(Rationale: Invalid token after a command line parameter) showline
(Expected output: Error message like -s : invalid input filename, no output files) showline
( are created) showline
() showline
(This is Concordance, a program to make concordances for text files.) showline
sf (21) 1 endcol
(21) endpage
%%Page: ? 22
22 newpage
/MailFor (Listing for ) def
/User (Florian Niedermann) def
/TimeNow (Thu Oct 27 08:46:45 2005) def
/Subject () def
sf ($Id: concordance.cc,v 0.5 1996/11/26 23:49:48 ralph Exp ralph $) showline
(Copyright \(C\) 1996 Ralph L. Meyer, Spotswood, NJ 08884.) showline
(Concordance is licensed to users only under the conditions stated in the) showline
(GNU public license that comes with the distribution of this program.) showline
(Concordance comes with ABSOLUTELY NO WARRANTY; for details see the GNU public) showline
(license that accompanies this program.  You are welcome to redistribute this) showline
(software under certain conditions; for details see the GNU public license.) showline
(Send BUG reports to: meyer@princeton.edu.) showline
() showline
(Abort) showline
(----------------------------------------------) showline
(Running S15) showline
(Rationale: Invalid token after -sq) showline
(Expected output: Error message like -s : invalid input filename, no output files) showline
( are created) showline
() showline
(This is Concordance, a program to make concordances for text files.) showline
($Id: concordance.cc,v 0.5 1996/11/26 23:49:48 ralph Exp ralph $) showline
(Copyright \(C\) 1996 Ralph L. Meyer, Spotswood, NJ 08884.) showline
(Concordance is licensed to users only under the conditions stated in the) showline
(GNU public license that comes with the distribution of this program.) showline
(Concordance comes with ABSOLUTELY NO WARRANTY; for details see the GNU public) showline
(license that accompanies this program.  You are welcome to redistribute this) showline
(software under certain conditions; for details see the GNU public license.) showline
(Send BUG reports to: meyer@princeton.edu.) showline
() showline
(Abort) showline
(----------------------------------------------) showline
(Running S 16) showline
(Rationale: Invalid token after -lqn) showline
(Expected output: Error message like -s : invalid input filename, no output files) showline
( are created) showline
() showline
(This is Concordance, a program to make concordances for text files.) showline
($Id: concordance.cc,v 0.5 1996/11/26 23:49:48 ralph Exp ralph $) showline
(Copyright \(C\) 1996 Ralph L. Meyer, Spotswood, NJ 08884.) showline
(Concordance is licensed to users only under the conditions stated in the) showline
(GNU public license that comes with the distribution of this program.) showline
(Concordance comes with ABSOLUTELY NO WARRANTY; for details see the GNU public) showline
(license that accompanies this program.  You are welcome to redistribute this) showline
(software under certain conditions; for details see the GNU public license.) showline
(Send BUG reports to: meyer@princeton.edu.) showline
() showline
(Abort) showline
(----------------------------------------------) showline
(Running S17) showline
(Rationale: Invalid token after inputfilename) showline
(Expected output: Error message like -s: invalid output filename, no outputfiles ) showline
(are created) showline
() showline
(This is Concordance, a program to make concordances for text files.) showline
($Id: concordance.cc,v 0.5 1996/11/26 23:49:48 ralph Exp ralph $) showline
(Copyright \(C\) 1996 Ralph L. Meyer, Spotswood, NJ 08884.) showline
(Concordance is licensed to users only under the conditions stated in the) showline
(GNU public license that comes with the distribution of this program.) showline
(Concordance comes with ABSOLUTELY NO WARRANTY; for details see the GNU public) showline
(license that accompanies this program.  You are welcome to redistribute this) showline
(software under certain conditions; for details see the GNU public license.) showline
(Send BUG reports to: meyer@princeton.edu.) showline
() showline
sf (22) 1 endcol
(22) endpage
%%Page: ? 23
23 newpage
/MailFor (Listing for ) def
/User (Florian Niedermann) def
/TimeNow (Thu Oct 27 08:46:45 2005) def
/Subject () def
sf (Abort) showline
(----------------------------------------------) showline
(Running S18) showline
(Rationale: Provide too many parameter) showline
(Expected output: Error Too many parameters) showline
() showline
(This is Concordance, a program to make concordances for text files.) showline
($Id: concordance.cc,v 0.5 1996/11/26 23:49:48 ralph Exp ralph $) showline
(Copyright \(C\) 1996 Ralph L. Meyer, Spotswood, NJ 08884.) showline
(Concordance is licensed to users only under the conditions stated in the) showline
(GNU public license that comes with the distribution of this program.) showline
(Concordance comes with ABSOLUTELY NO WARRANTY; for details see the GNU public) showline
(license that accompanies this program.  You are welcome to redistribute this) showline
(software under certain conditions; for details see the GNU public license.) showline
(Send BUG reports to: meyer@princeton.edu.) showline
() showline
(Abort) showline
sf (23) 1 endcol
(23) endpage
%%Trailer
%%Pages: 23
