 a ..283   7.9% aaaaaaaa
 b ...53   1.5% bb
 c ...84   2.3% ccc
 d ..184   5.1% dddddd
 e ..445    12% eeeeeeeeeeeee
 f ...58   1.6% ff
 g ...90   2.5% ggg
 h ..228   6.3% hhhhhhh
 i ..230   6.4% iiiiiii
 j ....6  0.17% j
 k ...36     1% kk
 l ..165   4.6% lllll
 m ...95   2.6% mmm
 n ..219   6.1% nnnnnnn
 o ..245   6.8% ooooooo
 p ...27  0.75% p
 q ....9  0.25% q
 r ..175   4.9% rrrrr
 s ..208   5.8% ssssss
 t ..316   8.8% ttttttttt
 u ...96   2.7% uuu
 v ...28  0.78% v
 w ...96   2.7% www
 x ....1 0.028% x
 y ...71     2% yy
 z ....7  0.19% z
 0 ....5  0.14% 0
 1 ...20  0.56% 1
 2 ...15  0.42% 2
 3 ...11  0.31% 3
 4 ...19  0.53% 4
 5 ...14  0.39% 5
 6 ...14  0.39% 6
 7 ...15  0.42% 7
 8 ...13  0.36% 8
 9 ...10  0.28% 9

Total Characters: 3591
