%!PS-Adobe-1.0
/localeprolog 0 def

%!PS-Adobe-1.0
%%Creator: Steve Holden
%%Modified: John Macdonald, Rich Burridge, Rainer Klute
%%Modified: Bertrand Decouty, Bjorn P. Brox
%%Title: @(#)mp.pro.ps 3.3 93/03/11
%%CreationDate: see above
%%PageLength 60
%%LineLength 80
%%DocumentFonts: Courier Helvetica-BoldOblique Times-Bold Times-Roman
%%Pages: (atend)
%%EndComments

%  @(#)mp.common.ps 3.1 92/04/03
%
%  Mp PostScript routines common to all prologue files.
%
%  The initial header comments are read (and output to stdout)
%  from the individual prologue file, then the contents of this
%  file are read (and output to stdout), then the remainder of
%  the individual prologue file.

/inch { 72 mul } bind def
%
%  IMPORTANT NOTE: The following two variables should be set correctly.
%                  Reasonable values for fullwidth and fullheight are
%                  8.5/11 inch for US Letter, and 8.5/11.4 inch for A4.
%                  Since sites usually have one single format of paper,
%                  mp should be installed with either the USLetter or A4
%                  values.
%
/fullwidth 8.5 inch def
/fullheight 11 inch def

% Define /ISOLatin1Encoding only if it's not already there.
/ISOLatin1Encoding where { pop save true }{ false } ifelse
  /ISOLatin1Encoding [ StandardEncoding 0 45 getinterval aload pop /minus
    StandardEncoding 46 98 getinterval aload pop /dotlessi /grave /acute
    /circumflex /tilde /macron /breve /dotaccent /dieresis /.notdef /ring
    /cedilla /.notdef /hungarumlaut /ogonek /caron /space /exclamdown /cent
    /sterling /currency /yen /brokenbar /section /dieresis /copyright
    /ordfeminine /guillemotleft /logicalnot /hyphen /registered /macron
    /degree /plusminus /twosuperior /threesuperior /acute /mu /paragraph
    /periodcentered /cedilla /onesuperior /ordmasculine /guillemotright
    /onequarter /onehalf /threequarters /questiondown /Agrave /Aacute
    /Acircumflex /Atilde /Adieresis /Aring /AE /Ccedilla /Egrave /Eacute
    /Ecircumflex /Edieresis /Igrave /Iacute /Icircumflex /Idieresis /Eth
    /Ntilde /Ograve /Oacute /Ocircumflex /Otilde /Odieresis /multiply
    /Oslash /Ugrave /Uacute /Ucircumflex /Udieresis /Yacute /Thorn
    /germandbls /agrave /aacute /acircumflex /atilde /adieresis /aring /ae
    /ccedilla /egrave /eacute /ecircumflex /edieresis /igrave /iacute
    /icircumflex /idieresis /eth /ntilde /ograve /oacute /ocircumflex
    /otilde /odieresis /divide /oslash /ugrave /uacute /ucircumflex
    /udieresis /yacute /thorn /ydieresis ] def
{ restore } if

%Title: backspacefont.ps suggested by Glenn Reid (Adobe Systems).

/backspacefont {
    /CourierISO findfont dup length dict begin
        { %forall
            1 index /FID eq { pop pop } { def } ifelse
        } forall
        currentdict /UniqueID known { %if
              /UniqueID UniqueID 16#800000 xor def
        } if
        CharStrings length 1 add dict begin
            CharStrings { def } forall
          /backspace { -600 0 setcharwidth pop } bind def
            currentdict
      end
        /CharStrings exch def
        /Encoding Encoding 256 array copy def
        Encoding 8 /backspace put
        currentdict
    end
    definefont
} bind def

/reencodeISO { %def
    findfont dup length dict begin
    { 1 index /FID ne { def }{ pop pop } ifelse } forall
    /Encoding ISOLatin1Encoding def
    currentdict end definefont pop
} bind def

/fontHd_size 14 def
/fontH2_size 10 def
/fontNd_size 12 def

/setmargin {
  /leftedge 0 def
  /bottomedge 0 def
  fullheight fullwidth LandscapeMode { exch } if
    /rightedge exch def
    /topedge exch def
  9 7 LandscapeMode { exch } if pop
    /FontSize exch def

  0 localeprolog eq
  {
  /font1d /Times-Bold           reencodeISO
  /font2d /Times-Roman          reencodeISO
  /CourierISO /Courier          reencodeISO
  /fontHd /Helvetica-BoldOblique        reencodeISO
  /fontH2 /Helvetica-BoldOblique        reencodeISO
  /fontNd /Times-Bold           reencodeISO
  /font3d backspacefont
  /BoldFont      { /font1d findfont FontSize scalefont setfont } def
  /pf            { /font2d findfont FontSize scalefont setfont } def
  /sf            { /font3d findfont FontSize scalefont setfont } def
  /fontH         { /fontHd findfont fontHd_size scalefont setfont } def
  /fontD         { /fontH2 findfont fontH2_size scalefont setfont } def
  /fontN         { /fontNd findfont fontNd_size scalefont setfont } def
  }
  {
  /font1d /LC_Times-Bold def
  /font2d /LC_Times-Roman def
  /CourierISO /LC_Courier def
  /fontHd /LC_Helvetica-BoldOblique def
  /fontH2 /LC_Helvetica-BoldOblique def
  /fontNd /LC_Times-Bold def
  /font3d /LC_Courier def
  /BoldFont      { font1d findfont FontSize scalefont setfont } def
  /pf            { font2d findfont FontSize scalefont setfont } def
  /sf            { font3d findfont FontSize scalefont setfont } def
  /fontH         { fontHd findfont fontHd_size scalefont setfont } def
  /fontD         { fontH2 findfont fontH2_size scalefont setfont } def
  /fontN         { fontNd findfont fontNd_size scalefont setfont } def
  }
  ifelse

} def

/graybox	% grey x1 y1 x2 y2 graybox --
{
    newpath
      4 -1 roll 2 copy			% y2 x1
      10 sub exch moveto
      4 -1 roll 2 copy			% x1 y1
      10 180 270 arc
      4 -1 roll 1 copy 3 -1 roll	% x2 y1
      10 270 0 arc
      3 -1 roll 1 copy 3 1 roll		% x1 y2 x2 y2
      10 0 90 arc
      10 90 180 arc
    closepath
    gsave
      setgray fill
    grestore
    0 setgray stroke
} bind def

/endpage		% page_number endpage --
{
  gsave
    % listing type, user, date across the top
    0.88                                % gray level
    leftedge  50 add topedge 56 sub     % bottom lt corner
    rightedge 95 sub topedge 36 sub     % top rt corner
    graybox

    currentdict /sfactor known not
    {
      % determine a suitable factor to scale down the header text (done
      % only once per document)
      rightedge 95 sub leftedge 50 add sub % available space
      fontD MailFor stringwidth pop
      fontH User    stringwidth pop add
            (  )    stringwidth pop add
      fontD TimeNow stringwidth pop add    % total length of strings
      div
      dup 1 gt {pop 1} if                  % does it fit?
      /sfactor exch def                    % if not scale down
    }
    if

    leftedge 50 add topedge 50 sub moveto
    gsave
    sfactor dup scale
    fontD MailFor show
    fontH User    show
          (  )    show
    grestore
    fontD
    rightedge 95 sub TimeNow stringwidth pop sfactor mul sub
    topedge 50 sub moveto
    gsave
    sfactor dup scale
    TimeNow show
    grestore
    % page number to the top right corner
    1                                   % gray level
    rightedge 70 sub topedge 56 sub     % bottom lt
    rightedge 50 sub topedge 36 sub     % top rt
    graybox
    fontD
    (Page) dup stringwidth
       topedge 40 sub exch sub                  % y-centered
       exch 2 div rightedge 60 sub exch sub     % x-centered
       exch moveto show
    fontH
    dup stringwidth
       topedge 58 sub exch sub                  % y-centered
       exch 2 div rightedge 60 sub exch sub     % x-centered
       exch moveto show
    0.88                                   % gray level
    leftedge  50 add bottomedge 50 add     % bottom lt corner
    rightedge 50 sub bottomedge 70 add     % top rt corner
    graybox
    fontH
    % compute x pos for centring
      % ((l+50) + (r-50)) / 2 is the page centre
      leftedge rightedge add 2 div
      % but we want to start at the beginning of the string, not the middle
      Subject stringwidth pop 2 div sub
    % y pos is simple
      bottomedge 54 add
      moveto
    Subject show
  grestore
%  PageSave restore      % restore *always* before showpage
  showpage		% display it
} bind def

/endcol			% page_number col_number endcol --
{
  pop			% get rid of col_number
  pop                   % get rid of page_number
  /ypos topedge 92 sub def
  /xpos rightedge leftedge sub 2 div def
  xpos ypos moveto
} bind def

/newpage	% page_number newpage --
{
  pop		% pageno
%  /PageSave save def
  LandscapeMode {setlandscape} if
  /lct 0 def
  /ypos topedge 92 sub def
  /xpos leftedge 50 add def
  xpos ypos moveto
  sf
} bind def

/setlandscape
{
  612 0 translate
  90 rotate
} bind def

/showline
{
  show
  /ypos ypos FontSize sub def
  xpos ypos moveto
} bind def

% see the trouble shooting section in the README for details on setscreen.
106 45 {dup mul exch dup mul add 1.0 exch sub} setscreen

/LandscapeMode false def

setmargin
%%EndProlog
%%Page: ? 1
1 newpage
/MailFor (Listing for ) def
/User (Florian Niedermann) def
/TimeNow (Sun Oct 30 17:27:41 2005) def
/Subject () def
sf (Script started on Sun Oct 30 17:25:09 2005) showline
(obelix[11]% setenv TMP .\015\015) showline
(obelix[12]% set path = \(pa\033[\033[\033[K$path ~andreww\033[\033[Ks/Bu\007llseyeCoverage/bin/\)\015\015) showline
(obelix[13]% structural\007.sh\015\015) showline
(BullseyeCoverage Clear Measurements 7.5.0 Solaris-SPARC Serial 200003 License wi) showline
(ll expire 2007-09-27 \015) showline
(Copyright \(c\) Bullseye Testing Technology 1990-2005\015) showline
(===========================================================\015) showline
(1. Test valid cases\015) showline
(The following test cases all test normal flow in Concordance.\015) showline
(This means that they only use input files which conform to the\015) showline
(specification given by Concordance and do not try to force errors\015) showline
(by using invalid command line parameters etc.\015) showline
(Since no special output is expected from these test cases all\015) showline
(screen output is piped to /dev/null\015) showline
(===========================================================\015) showline
(ST01\015) showline
(Only one command line argument\015) showline
(===========================================================\015) showline
(ST02\015) showline
(-? argument\015) showline
(===========================================================\015) showline
(ST03\015) showline
(undocumented -h argument\015) showline
(===========================================================\015) showline
(ST04\015) showline
(undocumented --help argument\015) showline
(===========================================================\015) showline
(ST05\015) showline
(Two command lines arguments. Default -p mode.Contains both\015) showline
(formfeeds and linefeeds to provide some additional coverage.\015) showline
(===========================================================\015) showline
(ST06\015) showline
(Three command line arguments, -s mode. Use mcgee.txt to test a\015) showline
(larger text than usual and to provide some additional coverage\015) showline
(by using a file ending delimited with .\015) showline
(===========================================================\015) showline
(ST08\015) showline
(Four command line arguments, -pqn mode\015) showline
(===========================================================\015) showline
(===========================================================\015) showline
(2. Test invalid test cases\015) showline
(These test cases all contain one or several invalid elements.\015) showline
(This may refer to command line parameters, content of input\015) showline
(files or other environmental attributes.\015) showline
(If the screen output is of interest it is displayed.\015) showline
(The same is true for the resulting .wds file.\015) showline
(===========================================================\015) showline
(ST10\015) showline
(Invalid param for -n\015) showline
(\015) showline
(\015) showline
(SYNTAX ERROR on command line: switch -[pvl]n: did not contain a proper integer.\015) showline
(cat: cannot open outputfile.wds\015) showline
(outputfile.wds: No such file or directory\015) showline
(outputfile.abc: No such file or directory\015) showline
(===========================================================\015) showline
(ST11\015) showline
(Large number for - n. Should not lead to an error -\015) showline
(it is just reduced to the largest possible number\015) showline
sf (1) 1 endcol
(1) endpage
%%Page: ? 2
2 newpage
/MailFor (Listing for ) def
/User (Florian Niedermann) def
/TimeNow (Sun Oct 30 17:27:41 2005) def
/Subject () def
sf (Concordance for file: inputfiles/multiLinePageText\015) showline
(\015) showline
(Note: Concordancer considers a word a set of alphanumeric characters\015) showline
(      bounded by whitespace at each end of the set.\015) showline
(\015) showline
(Total number of words in file: 24\015) showline
(Initial line of file was line 3197704835\015) showline
(Last line of file was line 3197704846\015) showline
(\015) showline
(Word           Number of   Line number\015) showline
(Len  Word:         uses:   Locations:\015) showline
( 1 a...................1 - 3197704835\015) showline
( 3 ............and.....1 - 3197704839\015) showline
( 5 ..........check.....1 - 3197704837\015) showline
( 9 ......correctly.....1 - 3197704837\015) showline
( 3 ............for.....2 - 3197704839 3197704843\015) showline
( 2 .............if.....1 - 3197704837\015) showline
(11 ....implemented.....1 - 3197704837\015) showline
( 2 .............is.....1 - 3197704837\015) showline
( 1 ..............l.....1 - 3197704843\015) showline
( 5 ..........lines.....1 - 3197704841\015) showline
( 8 .......multiple.....1 - 3197704835\015) showline
( 3 ............new.....1 - 3197704839\015) showline
( 6 .........option.....2 - 3197704837 3197704845\015) showline
( 1 ..............p.....1 - 3197704837\015) showline
( 5 ..........pages.....1 - 3197704835\015) showline
( 4 ...........some.....1 - 3197704839\015) showline
( 8 .......spanning.....1 - 3197704835\015) showline
( 4 ...........text.....2 - 3197704835 3197704839\015) showline
( 3 ............the.....2 - 3197704837 3197704843\015) showline
( 2 .............to.....1 - 3197704837\015) showline
(===========================================================\015) showline
(ST13\015) showline
(Invalid command line parameter\015) showline
(\015) showline
(This is Concordance, a program to make concordances for text files.\015) showline
($Id: concordance.cc,v 0.5 1996/11/26 23:49:48 ralph Exp ralph $\015) showline
(Copyright \(C\) 1996 Ralph L. Meyer, Spotswood, NJ 08884.\015) showline
(Concordance is licensed to users only under the conditions stated in the\015) showline
(GNU public license that comes with the distribution of this program.\015) showline
(Concordance comes with ABSOLUTELY NO WARRANTY; for details see the GNU public\015) showline
(license that accompanies this program.  You are welcome to redistribute this\015) showline
(software under certain conditions; for details see the GNU public license.\015) showline
(Send BUG reports to: meyer@princeton.edu.\015) showline
(\015) showline
(\015) showline
(\015) showline
(Making Condordance. Depending on file length, this may take awhile.\015) showline
(\015) showline
(\015) showline
(Saving concordance file inputfiles/multiLinePageText.wds, - concordance to file ) showline
(inputfiles/multiLinePageText\015) showline
(\015) showline
(Saving alphabet count file inputfiles/multiLinePageText.abc, - alphabet count fo) showline
(r file inputfiles/multiLinePageText\015) showline
(\015) showline
(Concordancing completed.  For concordance file, see inputfiles/multiLinePageText) showline
(.wds; for alphabet\015) showline
(usage file, see inputfiles/multiLinePageText.abc\015) showline
(\015) showline
sf (2) 1 endcol
(2) endpage
%%Page: ? 3
3 newpage
/MailFor (Listing for ) def
/User (Florian Niedermann) def
/TimeNow (Sun Oct 30 17:27:41 2005) def
/Subject () def
sf (Concordance for file: inputfiles/multiLinePageText\015) showline
(\015) showline
(Note: Concordancer considers a word a set of alphanumeric characters\015) showline
(      bounded by whitespace at each end of the set.\015) showline
(\015) showline
(Total number of words in file: 24\015) showline
(Initial page of file was page 1\015) showline
(Last page of file was page 2\015) showline
(\015) showline
(Word           Number of   Page number\015) showline
(Len  Word:         uses:   Locations:\015) showline
( 1 a...................1 - 1\015) showline
( 3 ............and.....1 - 2\015) showline
( 5 ..........check.....1 - 2\015) showline
( 9 ......correctly.....1 - 2\015) showline
( 3 ............for.....2 - 2\015) showline
( 2 .............if.....1 - 2\015) showline
(11 ....implemented.....1 - 2\015) showline
( 2 .............is.....1 - 2\015) showline
( 1 ..............l.....1 - 2\015) showline
( 5 ..........lines.....1 - 2\015) showline
( 8 .......multiple.....1 - 1\015) showline
( 3 ............new.....1 - 2\015) showline
( 6 .........option.....2 - 2\015) showline
( 1 ..............p.....1 - 2\015) showline
( 5 ..........pages.....1 - 1\015) showline
( 4 ...........some.....1 - 2\015) showline
( 8 .......spanning.....1 - 1\015) showline
( 4 ...........text.....2 - 1 2\015) showline
( 3 ............the.....2 - 2\015) showline
( 2 .............to.....1 - 2\015) showline
(===========================================================\015) showline
(ST14\015) showline
(Two parameters, no switches. For this to work, the file\015) showline
(existingOutput must already exist since Concordance will\015) showline
(else crash at another location in the code\015) showline
(\015) showline
(This is Concordance, a program to make concordances for text files.\015) showline
($Id: concordance.cc,v 0.5 1996/11/26 23:49:48 ralph Exp ralph $\015) showline
(Copyright \(C\) 1996 Ralph L. Meyer, Spotswood, NJ 08884.\015) showline
(Concordance is licensed to users only under the conditions stated in the\015) showline
(GNU public license that comes with the distribution of this program.\015) showline
(Concordance comes with ABSOLUTELY NO WARRANTY; for details see the GNU public\015) showline
(license that accompanies this program.  You are welcome to redistribute this\015) showline
(software under certain conditions; for details see the GNU public license.\015) showline
(Send BUG reports to: meyer@princeton.edu.\015) showline
(\015) showline
(\015) showline
(\015) showline
(Making Condordance. Depending on file length, this may take awhile.\015) showline
(\015) showline
(\015) showline
(Saving concordance file existingOutput.wds, - concordance to file existingOutput) showline
(\015) showline
(\015) showline
(Saving alphabet count file existingOutput.abc, - alphabet count for file existin) showline
(gOutput\015) showline
(\015) showline
(Concordancing completed.  For concordance file, see existingOutput.wds; for alph) showline
(abet\015) showline
sf (3) 1 endcol
(3) endpage
%%Page: ? 4
4 newpage
/MailFor (Listing for ) def
/User (Florian Niedermann) def
/TimeNow (Sun Oct 30 17:27:41 2005) def
/Subject () def
sf (usage file, see existingOutput.abc\015) showline
(\015) showline
(Concordance for file: existingOutput\015) showline
(\015) showline
(Note: Concordancer considers a word a set of alphanumeric characters\015) showline
(      bounded by whitespace at each end of the set.\015) showline
(\015) showline
(Total number of words in file: 1\015) showline
(Initial page of file was page 1\015) showline
(Last page of file was page 1\015) showline
(\015) showline
(Word           Number of   Page number\015) showline
(Len  Word:         uses:   Locations:\015) showline
( 4 test................1 - 1\015) showline
(===========================================================\015) showline
(ST15\015) showline
(Test invalid stanza, where stanza is not a number. Additionally includes\015) showline
(weird ASCII characters to provide some additional coverage in concutils.cc\015) showline
(\015) showline
(This is Concordance, a program to make concordances for text files.\015) showline
($Id: concordance.cc,v 0.5 1996/11/26 23:49:48 ralph Exp ralph $\015) showline
(Copyright \(C\) 1996 Ralph L. Meyer, Spotswood, NJ 08884.\015) showline
(Concordance is licensed to users only under the conditions stated in the\015) showline
(GNU public license that comes with the distribution of this program.\015) showline
(Concordance comes with ABSOLUTELY NO WARRANTY; for details see the GNU public\015) showline
(license that accompanies this program.  You are welcome to redistribute this\015) showline
(software under certain conditions; for details see the GNU public license.\015) showline
(Send BUG reports to: meyer@princeton.edu.\015) showline
(\015) showline
(\015) showline
(\015) showline
(Making Condordance. Depending on file length, this may take awhile.\015) showline
(\015) showline
(\015) showline
(Saving concordance file inputfiles/invalidStanzasText.wds, - concordance to file) showline
( inputfiles/invalidStanzasText\015) showline
(\015) showline
(Saving alphabet count file inputfiles/invalidStanzasText.abc, - alphabet count f) showline
(or file inputfiles/invalidStanzasText\015) showline
(\015) showline
(Concordancing completed.  For concordance file, see inputfiles/invalidStanzasTex) showline
(t.wds; for alphabet\015) showline
(usage file, see inputfiles/invalidStanzasText.abc\015) showline
(\015) showline
(Concordance for file: inputfiles/invalidStanzasText\015) showline
(\015) showline
(Note: Concordancer considers a word a set of alphanumeric characters\015) showline
(      bounded by whitespace at each end of the set.\015) showline
(\015) showline
(Total number of words in file: 50\015) showline
(Initial stanza of file was stanza 1\015) showline
(Last stanza of file was stanza 2\015) showline
(\015) showline
(Word           Number of   Stanza number\015) showline
(Len  Word:         uses:   Locations:\015) showline
( 1 a...................3 - 2\015) showline
(10 .....additional.....1 - 2\015) showline
(11 ....addtionally.....1 - 2\015) showline
( 3 ............and.....1 - 2\015) showline
( 2 .............be.....1 - 2\015) showline
sf (4) 1 endcol
(4) endpage
%%Page: ? 5
5 newpage
/MailFor (Listing for ) def
/User (Florian Niedermann) def
/TimeNow (Sun Oct 30 17:27:41 2005) def
/Subject () def
sf (10 .....characters.....1 - 2\015) showline
( 8 .......coverage.....1 - 2\015) showline
( 5 ..........first.....1 - 1\015) showline
( 3 ............for.....2 - 1 2\015) showline
( 7 ........ignored.....1 - 2\015) showline
( 2 .............in.....1 - 2\015) showline
( 8 .......included.....1 - 2\015) showline
( 2 .............is.....2 - 1 2\015) showline
( 4 ...........l33t.....1 - 2\015) showline
( 6 .........letter.....1 - 2\015) showline
( 4 ...........like.....2 - 2\015) showline
( 5 ..........mixed.....1 - 2\015) showline
( 6 .........number.....1 - 2\015) showline
( 6 .........second.....1 - 2\015) showline
( 6 .........should.....1 - 2\015) showline
( 8 .......shouldbe.....1 - 2\015) showline
( 5 ..........since.....1 - 2\015) showline
( 4 ...........some.....2 - 2\015) showline
( 6 .........stanza.....3 - 1 2\015) showline
( 4 ...........text.....1 - 1\015) showline
( 3 ............the.....4 - 1 2\015) showline
( 4 ...........this.....2 - 1 2\015) showline
( 5 ..........weird.....1 - 2\015) showline
( 4 ...........word.....1 - 2\015) showline
( 1 ..............\200\056....1 - 2\015) showline
( 2 .............\201\201.....1 - 2\015) showline
( 3 ............\201\201\242\056....1 - 2\015) showline
( 3 ............\201\201\244\056....1 - 2\015) showline
( 3 ............\201\201\340\056....1 - 2\015) showline
( 3 ............\201\201\345\056....1 - 2\015) showline
( 3 ............\201\201\351\056....1 - 2\015) showline
( 1 ..............\205\056....1 - 2\015) showline
( 1 ..............\232\056....1 - 2\015) showline
(^[[?1;2c===========================================================\015) showline
(BullseyeCoverage Function Report 7.5.0 Solaris-SPARC Serial 200003 License will ) showline
(expire 2007-09-27 \015) showline
(Copyright \(c\) Bullseye Testing Technology 1990-2005\015) showline
(Function                       Source        Line  FnCov           C/D Coverage\015) showline
(-----------------------------  ------------------  -----  ---------------------\015) showline
(diactolower\(int\)               concutils.cc   227  0 / 1       0 /    39 =   0%\015) showline
(isAlDiaNum\(int\)                concutils.cc   141  0 / 1       0 /    28 =   0%\015) showline
(WordList::addWord\(Word*\)       word.cc        538  0 / 1       0 /    22 =   0%\015) showline
(strcomp\(char*,char*\)           concutils.cc   259  0 / 1       0 /    16 =   0%\015) showline
(Word::saveWord\(FILE*\)          word.cc        251  0 / 1       0 /    16 =   0%\015) showline
(Word::operator=\(Word&\)         word.cc        214  0 / 1       0 /    12 =   0%\015) showline
(WordList::delWord\(char*\)       word.cc        619  0 / 1       0 /    12 =   0%\015) showline
(operator>>\(istream&,Word&\)     word.cc        293  0 / 1       0 /     6 =   0%\015) showline
(WordList::findWord\(char*\)      word.cc        651  0 / 1       0 /     6 =   0%\015) showline
(WordList::findWord\(Word*\)      word.cc        664  0 / 1       0 /     6 =   0%\015) showline
(CharCtVector:...Vector\(FILE*\)  alphalst.cc    160  0 / 1       0 /     4 =   0%\015) showline
(Word::operator=\(char*\)         word.cc        200  0 / 1       0 /     4 =   0%\015) showline
(Word::printWord\(void\)          word.cc        350  0 / 1       0 /     4 =   0%\015) showline
(WordList::Wor...st WordList&\)  word.cc        396  0 / 1       0 /     4 =   0%\015) showline
(WordList::delList\(void\)        word.cc        425  0 / 1       0 /     4 =   0%\015) showline
(WordList::saveWordList\(FILE*\)  word.cc        677  0 / 1       0 /     4 =   0%\015) showline
(WordList::loadWordList\(FILE*\)  word.cc        690  0 / 1       0 /     4 =   0%\015) showline
(WordList::ope...r=\(WordList&\)  word.cc        703  0 / 1       0 /     4 =   0%\015) showline
(CharCt::operator==\(CharCt&\)    alphalst.cc     85  0 / 1       0 /     2 =   0%\015) showline
(CharCt::operator<\(CharCt&\)     alphalst.cc     90  0 / 1       0 /     2 =   0%\015) showline
(CharCt::operator>\(CharCt&\)     alphalst.cc     95  0 / 1       0 /     2 =   0%\015) showline
sf (5) 1 endcol
(5) endpage
%%Page: ? 6
6 newpage
/MailFor (Listing for ) def
/User (Florian Niedermann) def
/TimeNow (Sun Oct 30 17:27:41 2005) def
/Subject () def
sf (CharCtVector:...harCtVector&\)  alphalst.cc    152  0 / 1       0 /     2 =   0%\015) showline
(CharCtVector:...Vector\(FILE*\)  alphalst.cc    169  0 / 1       0 /     2 =   0%\015) showline
(ateof\(istream&\)                concutils.cc   158  0 / 1       0 /     2 =   0%\015) showline
(upperCaseString\(char*\)         concutils.cc   204  0 / 1       0 /     2 =   0%\015) showline
(Word::Word\(const Word&\)        word.cc        125  0 / 1       0 /     2 =   0%\015) showline
(Word::loadWord\(FILE*\)          word.cc        273  0 / 1       0 /     2 =   0%\015) showline
(CharCt::operator=\(CharCt&\)     alphalst.cc     69  0 / 1       0 /     0       \015) showline
(CharCt::saveChar\(FILE*\)        alphalst.cc    100  0 / 1       0 /     0       \015) showline
(CharCt::loadChar\(FILE*\)        alphalst.cc    107  0 / 1       0 /     0       \015) showline
(operator>>\(istream&,CharCt&\)   alphalst.cc    114  0 / 1       0 /     0       \015) showline
(CharCt::CharC...ed char,long\)  alphalst.h      68  0 / 1       0 /     0       \015) showline
(CharCt::CharCt\(const CharCt&\)  alphalst.h      69  0 / 1       0 /     0       \015) showline
(CharCt::getCh...r\(void\) const  alphalst.h      70  0 / 1       0 /     0       \015) showline
(CharCt::setCh...er\(char,long\)  alphalst.h      71  0 / 1       0 /     0       \015) showline
(CharCt::setCh...ed char,long\)  alphalst.h      72  0 / 1       0 /     0       \015) showline
(CharCt::getPe...e\(void\) const  alphalst.h      75  0 / 1       0 /     0       \015) showline
(outOfMem\(void\)                 ...rdance.cc   532  0 / 1       0 /     0       \015) showline
(Locus::Locus\(const Locus&\)     word.cc         62  0 / 1       0 /     0       \015) showline
(Locus::saveLoc\(FILE*\)          word.cc         74  0 / 1       0 /     0       \015) showline
(Locus::loadLoc\(FILE*\)          word.cc         79  0 / 1       0 /     0       \015) showline
(Locus::operator=\(Locus&\)       word.cc         84  0 / 1       0 /     0       \015) showline
(Locus::operat...unsigned int\)  word.cc         91  0 / 1       0 /     0       \015) showline
(operator<<\(ostream&,Locus&\)    word.cc         98  0 / 1       0 /     0       \015) showline
(operator>>\(istream&,Locus&\)    word.cc        104  0 / 1       0 /     0       \015) showline
(WordList::WordList\(Word*\)      word.cc        370  0 / 1       0 /     0       \015) showline
(WordList::WordList\(Word&\)      word.cc        379  0 / 1       0 /     0       \015) showline
(WordList::Wor...unsigned int\)  word.cc        388  0 / 1       0 /     0       \015) showline
(WordList::iterb\(void\)          word.cc        447  0 / 1       0 /     0       \015) showline
(Locus::Locus\(void\)             word.h          70  0 / 1       0 /     0       \015) showline
(Locus::setLoc\(unsigned int\)    word.h          76  0 / 1       0 /     0       \015) showline
(Locus::getLocAdd\(void\)         word.h          77  0 / 1       0 /     0       \015) showline
(Locus::setNxt\(Locus*\)          word.h          78  0 / 1       0 /     0       \015) showline
(Locus::getThis\(void\)           word.h          80  0 / 1       0 /     0       \015) showline
(Word::Word\(void\)               word.h         107  0 / 1       0 /     0       \015) showline
(Word::getLen\(void\) const       word.h         112  0 / 1       0 /     0       \015) showline
(Word::getUse\(void\) const       word.h         113  0 / 1       0 /     0       \015) showline
(Word::getPrv\(void\) const       word.h         114  0 / 1       0 /     0       \015) showline
(Word::getLoci\(void\) const      word.h         116  0 / 1       0 /     0       \015) showline
(Word::getTail\(void\) const      word.h         117  0 / 1       0 /     0       \015) showline
(Word::incWord\(void\)            word.h         122  0 / 1       0 /     0       \015) showline
(WordList::get...s\(void\) const  word.h         152  0 / 1       0 /     0       \015) showline
(WordList::getHead\(void\)        word.h         153  0 / 1       0 /     0       \015) showline
(Word::~Word\(void\)              word.cc        145  1 / 1       1 /     2 =  50%\015) showline
(Word::incWord\(unsigned int\)    word.cc        238  1 / 1       1 /     2 =  50%\015) showline
(operator<<\(ostream&,Word&\)     word.cc        316  1 / 1       4 /     6 =  66%\015) showline
(Word::addLocus\(Locus*\)         word.cc        152  1 / 1       6 /     8 =  75%\015) showline
(CharCtVector:...entages\(void\)  alphalst.cc    193  1 / 1       3 /     4 =  75%\015) showline
(operator<<\(os...harCtVector&\)  alphalst.cc    207  1 / 1       3 /     4 =  75%\015) showline
(Word::delLoci\(void\)            word.cc        183  1 / 1       3 /     4 =  75%\015) showline
(operator<<\(os...m&,WordList&\)  word.cc        726  1 / 1       3 /     4 =  75%\015) showline
(saveConFile\(c...ist&,BOOLEAN\)  ...rdance.cc   491  1 / 1      17 /    20 =  85%\015) showline
(WordList::add...unsigned int\)  word.cc        455  1 / 1      19 /    22 =  86%\015) showline
(main\(int,char**\)               ...rdance.cc   110  1 / 1      48 /    49 =  97%\015) showline
(parse\(char*,c...har*,BOOLEAN\)  ...rdance.cc   371  1 / 1      61 /    62 =  98%\015) showline
(CharCt::operator=\(char&\)       alphalst.cc     77  1 / 1       0 /     0       \015) showline
(operator<<\(ostream&,CharCt&\)   alphalst.cc    121  1 / 1       2 /     2 = 100%\015) showline
(CharCtVector:...tVector\(void\)  alphalst.cc    144  1 / 1       2 /     2 = 100%\015) showline
(CharCtVector::incChar\(int\)     alphalst.cc    177  1 / 1       4 /     4 = 100%\015) showline
(CharCtVector::operator[]\(int\)  alphalst.cc    201  1 / 1       0 /     0       \015) showline
(CharCt::CharCt\(void\)           alphalst.h      67  1 / 1       0 /     0       \015) showline
sf (6) 1 endcol
(6) endpage
%%Page: ? 7
7 newpage
/MailFor (Listing for ) def
/User (Florian Niedermann) def
/TimeNow (Sun Oct 30 17:27:41 2005) def
/Subject () def
sf (CharCt::incChar\(void\)          alphalst.h      73  1 / 1       0 /     0       \015) showline
(CharCt::getUse\(void\) const     alphalst.h      74  1 / 1       0 /     0       \015) showline
(CharCt::setPercent\(float\)      alphalst.h      76  1 / 1       0 /     0       \015) showline
(copyright\(void\)                ...rdance.cc   246  1 / 1       0 /     0       \015) showline
(instructions\(void\)             ...rdance.cc   263  1 / 1       0 /     0       \015) showline
(saveAlphabetF...tor&,BOOLEAN\)  ...rdance.cc   520  1 / 1       2 /     2 = 100%\015) showline
(isAlphaDiacritic\(int\)          concutils.cc   128  1 / 1      24 /    24 = 100%\015) showline
(ateof\(FILE*\)                   concutils.cc   174  1 / 1       2 /     2 = 100%\015) showline
(lowerCaseString\(char*\)         concutils.cc   192  1 / 1       2 /     2 = 100%\015) showline
(getFilenameOnly\(char*\)         concutils.cc   216  1 / 1       6 /     6 = 100%\015) showline
(Locus::Locus\(unsigned int\)     word.cc         68  1 / 1       0 /     0       \015) showline
(Word::Word\(ch...unsigned int\)  word.cc        115  1 / 1       0 /     0       \015) showline
(WordList::~WordList\(void\)      word.cc        413  1 / 1       2 /     2 = 100%\015) showline
(WordList::iterf\(void\)          word.cc        439  1 / 1       0 /     0       \015) showline
(Locus::getLoc\(void\) const      word.h          75  1 / 1       0 /     0       \015) showline
(Locus::getNxt\(void\)            word.h          79  1 / 1       0 /     0       \015) showline
(Word::getWord\(void\) const      word.h         111  1 / 1       0 /     0       \015) showline
(Word::getNxt\(void\) const       word.h         115  1 / 1       0 /     0       \015) showline
(WordList::WordList\(void\)       word.h         145  1 / 1       0 /     0       \015) showline
(WordList::set...tToHead\(void\)  word.h         154  1 / 1       0 /     0       \015) showline
(-----------------------------  ------------------  -----  ---------------------\015) showline
(Total                                                37%     215 /   446 =  48%\015) showline
(BullseyeCoverage Detail Report 7.5.0 Solaris-SPARC Serial 200003 License will ex) showline
(pire 2007-09-27 \015) showline
(Copyright \(c\) Bullseye Testing Technology 1990-2005\015) showline
(alphalst.cc:\015) showline
(  ...\015) showline
(         66\015) showline
(         67  //*****  class CharCt functions* *********************************\015) showline
(         68\015) showline
(-->      69  CharCt &CharCt::operator = \(CharCt &cc\)\015) showline
(         70  {\015) showline
(         71     character=cc.getCharacter\(\);\015) showline
(         72     useAmt=cc.getUse\(\);\015) showline
(  ...\015) showline
(         82     return *this;\015) showline
(         83  }\015) showline
(         84\015) showline
(-->      85  int CharCt::operator == \(CharCt &cc\)\015) showline
(         86  {\015) showline
(-->      87     return character==cc.getCharacter\(\) ? 1 : 0;\015) showline
(         88  }\015) showline
(         89\015) showline
(-->      90  int CharCt::operator < \(CharCt &cc\)\015) showline
(         91  {\015) showline
(-->      92     return character < cc.getCharacter\(\) ? 1 : 0;\015) showline
(         93  }\015) showline
(         94\015) showline
(-->      95  int CharCt::operator > \(CharCt &cc\)\015) showline
(         96  {\015) showline
(-->      97     return character > cc.getCharacter\(\) ? 1 : 0;\015) showline
(         98  }\015) showline
(         99\015) showline
(-->     100  void CharCt::saveChar\(FILE *fp\)\015) showline
(        101  {\015) showline
(        102     fwrite\(&character,sizeof\(char\),1,fp\);\015) showline
(        103     fwrite\(&useAmt,sizeof\(long\),1,fp\);\015) showline
(        104     fwrite\(&percentUse,sizeof\(float\),1,fp\);\015) showline
(        105  }\015) showline
(        106\015) showline
sf (7) 1 endcol
(7) endpage
%%Page: ? 8
8 newpage
/MailFor (Listing for ) def
/User (Florian Niedermann) def
/TimeNow (Sun Oct 30 17:27:41 2005) def
/Subject () def
sf (-->     107  void CharCt::loadChar\(FILE *fp\)\015) showline
(        108  {\015) showline
(        109     fread\(&character,sizeof\(char\),1,fp\);\015) showline
(        110     fread\(&useAmt,sizeof\(long\),1,fp\);\015) showline
(        111     fread\(&percentUse,sizeof\(float\),1,fp\);\015) showline
(        112  }\015) showline
(        113\015) showline
(-->     114  istream &operator>>\(istream &is,CharCt &cc\)\015) showline
(        115  {\015) showline
(        116     is >> cc.character;\015) showline
(        117     cc.useAmt=1;\015) showline
(  ...\015) showline
(        149     }\015) showline
(        150  }\015) showline
(        151\015) showline
(-->     152  CharCtVector::CharCtVector\(CharCtVector &ccv\)\015) showline
(        153     :totAlphaNums\(0\)\015) showline
(        154  {\015) showline
(-->     155     for \(int n=0;n<ALPHABETLEN;n++\){\015) showline
(        156        charVector[n].setCharacter\(ccv[n].getCharacter\(\),ccv[n].getU\015) showline
(        157     }\015) showline
(        158  }\015) showline
(        159\015) showline
(-->     160  void CharCtVector::saveVector\(FILE *fp\)\015) showline
(        161  {\015) showline
(-->     162     if \(totAlphaNums>0\)doPercentages\(\);\015) showline
(        163     fwrite\(&totAlphaNums,sizeof\(long\),1,fp\);\015) showline
(-->     164     for \(int n=0;n<ALPHABETLEN;n++\){\015) showline
(        165        charVector[n].saveChar\(fp\);\015) showline
(        166     }\015) showline
(        167  }\015) showline
(        168\015) showline
(-->     169  void CharCtVector::loadVector\(FILE *fp\)\015) showline
(        170  {\015) showline
(        171     fread\(&totAlphaNums,sizeof\(long\),1,fp\);\015) showline
(-->     172     for \(int n=0;n<ALPHABETLEN;n++\){\015) showline
(        173        charVector[n].loadChar\(fp\);\015) showline
(        174     }\015) showline
(        175  }\015) showline
(  ...\015) showline
(        192\015) showline
(X       193  void CharCtVector::doPercentages\(void\)  //set percentages of total\015) showline
(        194  {\015) showline
(-->T    195     if \(totAlphaNums>0\)\015) showline
(TF      196        for \(int n=0;n<ALPHABETLEN;n++\){\015) showline
(        197           charVector[n].setPercent\(charVector[n].getUse\(\)/float\(tot\015) showline
(        198        }\015) showline
(  ...\015) showline
(        206\015) showline
(X       207  ostream &operator<<\(ostream &os,CharCtVector &ccv\)\015) showline
(        208  {\015) showline
(-->T    209     if \(ccv.totAlphaNums>0\)ccv.doPercentages\(\);\015) showline
(TF      210     for \(int n=0;n<ALPHABETLEN;n++\){\015) showline
(        211        os << ccv[n] << endl;\015) showline
(        212     }\015) showline
(  ...\015) showline
(alphalst.h:\015) showline
(  ...\015) showline
(         65          float percentUse; //percentage of total characters used\015) showline
(         66\015) showline
sf (8) 1 endcol
(8) endpage
%%Page: ? 9
9 newpage
/MailFor (Listing for ) def
/User (Florian Niedermann) def
/TimeNow (Sun Oct 30 17:27:41 2005) def
/Subject () def
sf (X        67          CharCt\(void\):character\('\\0'\),useAmt\(0\),percentUse\(0.0\){}\015) showline
(-->      68          CharCt\(unsigned char ch,long use=0\) :character\(ch\),useAmt\(\015) showline
(-->      69          CharCt\(const CharCt &cc\):character\(cc.getCharacter\(\)\),useA\015) showline
(-->      70          unsigned char getCharacter\(void\) const { return character;\015) showline
(-->      71          void setCharacter\(char ch, long use=0\) { character = \(unsi\015) showline
(-->      72          void setCharacter\(unsigned char ch, long use=0\) { characte\015) showline
(X        73          void incChar\(void\){useAmt++;}\015) showline
(X        74          long getUse\(void\) const { return useAmt; }\015) showline
(-->      75          float getPercentUse\(void\) const { return percentUse; }\015) showline
(X        76          void setPercent\(float pct\){percentUse=pct;}\015) showline
(         77          CharCt &operator = \(CharCt &cc\);\015) showline
(         78          CharCt &operator = \(char &ch\);\015) showline
(  ...\015) showline
(concordance.cc:\015) showline
(  ...\015) showline
(X       189        case UNINDICATED:\015) showline
(        190           parse\(argv[2],'p',outfile,QuietFlag\);\015) showline
(        191           break;\015) showline
(-->     192        }\015) showline
(        193     }\015) showline
(        194\015) showline
(        195     else parse\(argv[1],'p',outfile,QuietFlag\);  //default choice if\015) showline
(  ...\015) showline
(        380     CharCtVector ccv; //character counter\015) showline
(        381     WordList wl;   //the concordance: the linked list of words and\015) showline
(        382\015) showline
(-->F    383     if\(\(fp=fopen\(fname,"rb"\)\)==0\){   //open file to be concordanced\015) showline
(        384        cerr << "Couldn't open file" << fname << endl;\015) showline
(        385        perror\("File opening error"\);\015) showline
(        386        assert \(fp\);   //make sure it opened OK\015) showline
(  ...\015) showline
(        501\015) showline
(TF      502     if\(ctType=='s'\)      confile << "Initial stanza of file was sta\015) showline
(TF      503     else if\(ctType=='p'\) confile << "Initial page of file was page\015) showline
(-->T    504     else if\(ctType=='l'\) confile << "Initial line of file was line\015) showline
(        505\015) showline
(TF      506     if\(ctType=='s'\)        confile << "Last stanza of file was stan\015) showline
(TF      507     else if\(ctType=='p'\)   confile << "Last page of file was page "\015) showline
(-->T    508     else if\(ctType=='l'\)   confile << "Last line of file was line "\015) showline
(        509\015) showline
(        510     confile << "Word           Number of";\015) showline
(TF      511     if\(ctType=='s'\) confile << "   Stanza number\\n";\015) showline
(TF      512     else if\(ctType=='p'\) confile << "   Page number\\n";\015) showline
(-->T    513     else if\(ctType=='l'\) confile << "   Line number\\n";\015) showline
(        514     confile << "Len  Word:         uses:   Locations:\\n";\015) showline
(        515     confile << wl;\015) showline
(        516  }\015) showline
(  ...\015) showline
(        529\015) showline
(        530\015) showline
(        531  //out of memory message to display on screen in parser:\015) showline
(-->     532  void outOfMem\(void\)\015) showline
(        533  {\015) showline
(        534     cerr << "\\n\\nERROR: You have insufficient memory to continue ma\015) showline
(        535          << "document.  It will be necessary for you to shorten the\015) showline
(  ...\015) showline
(concutils.cc:\015) showline
(  ...\015) showline
(        138\015) showline
(        139\015) showline
sf (9) 1 endcol
(9) endpage
%%Page: ? 10
10 newpage
/MailFor (Listing for ) def
/User (Florian Niedermann) def
/TimeNow (Sun Oct 30 17:27:41 2005) def
/Subject () def
sf (        140  //OK returns non-0 if c is an alphanumeric or diacritical alphanum\015) showline
(-->     141  BOOLEAN isAlDiaNum\(int c\)\015) showline
(        142  {\015) showline
(-->     143a    return \(\015) showline
(  -->   143b            \(c=='\\''\)||\015) showline
(  -->   144a    \(c>='0'&&\015) showline
(  -->   144b             c<='9'\)||\015) showline
(  -->   145a    \(c>='A'&&\015) showline
(  -->   145b             c<='Z'\)||\015) showline
(  -->   146a    \(c>='a'&&\015) showline
(  -->   146b             c<='z'\)||\015) showline
(  -->   147a    \(c>=128&&\015) showline
(  -->   147b             c<=154\)||\015) showline
(  -->   148a    \(c>=160&&\015) showline
(  -->   148b             c<=165\)||\015) showline
(  -->   149a    \(c>=224&&\015) showline
(  -->   149b             c<=235\)\)\015) showline
(        150     ? YES : NO;\015) showline
(        151  }\015) showline
(        152\015) showline
(  ...\015) showline
(        155\015) showline
(        156  //OK tell if at end of fstream file on input:\015) showline
(        157  //overloaded\015) showline
(-->     158  int ateof\(istream &instream\)\015) showline
(        159  {\015) showline
(        160     long floc = instream.tellg\(\);\015) showline
(        161     instream.seekg\(floc+2\);\015) showline
(-->     162     if\(instream.peek\(\) == EOF\){\015) showline
(        163        return EOF;\015) showline
(        164     }\015) showline
(        165     else{\015) showline
(  ...\015) showline
(        201  }\015) showline
(        202\015) showline
(        203  //upper cases a null ended c string:\015) showline
(-->     204  char *upperCaseString\(char *stringToLc\)\015) showline
(        205  {\015) showline
(-->     206     for \(int n=0;*\(stringToLc+n\)!='\\0';n++\){\015) showline
(        207        *\(stringToLc+n\)=toupper\(*\(stringToLc+n\)\);\015) showline
(        208     }\015) showline
(        209     return stringToLc;\015) showline
(  ...\015) showline
(        224\015) showline
(        225  //this function returns a lowercased alphadiacritical or the origi\015) showline
(        226  //character entered if not an alphadiacritical.\015) showline
(-->     227  int diactolower\(int ch\)\015) showline
(        228  {\015) showline
(-->     229a    if \(!\(\015) showline
(  -->   229b          ch>='A'||\015) showline
(  -->   229c                   ch<='Z'||\015) showline
(  -->   229d                            ch>='a'||\015) showline
(  -->   229e                                     ch<='z'||\015) showline
(  -->   230a        ch>=128||\015) showline
(  -->   230b                 ch<=154||\015) showline
(  -->   230c                          ch>=160||\015) showline
(  -->   230d                                   ch<=165\)\)return ch;\015) showline
(-->     231a    else if \(\015) showline
(  -->   231b             ch>='A'&&\015) showline
(  -->   231c                      ch<='Z'\)return ch+'a'-'A';\015) showline
sf (10) 1 endcol
(10) endpage
%%Page: ? 11
11 newpage
/MailFor (Listing for ) def
/User (Florian Niedermann) def
/TimeNow (Sun Oct 30 17:27:41 2005) def
/Subject () def
sf (-->     232a    else if \(\015) showline
(  -->   232b             ch>='a'&&\015) showline
(  -->   232c                      ch<='z'\)return ch;\015) showline
(        233     else{\015) showline
(        234        switch\(ch\){\015) showline
(-->     235           case '\216\047:\015) showline
(        236              return '\204\047;\015) showline
(-->     237           case '\217\047:\015) showline
(        238              return '\206\047;\015) showline
(-->     239           case '\222\047:\015) showline
(        240              return '\221\047;\015) showline
(-->     241           case '\200\047:\015) showline
(        242              return '\207\047;\015) showline
(-->     243           case '\220\047:\015) showline
(        244              return '\202\047;\015) showline
(-->     245           case '\231\047:\015) showline
(        246              return '\224\047;\015) showline
(-->     247           case '\232\047:\015) showline
(        248              return '\201\047;\015) showline
(-->     249           case '\245\047:\015) showline
(        250              return '\244\047;\015) showline
(-->     251           default :\015) showline
(        252              return ch;\015) showline
(        253        }\015) showline
(        254     }\015) showline
(  ...\015) showline
(        256\015) showline
(        257  //**************************************************************\015) showline
(        258  //determine if strings are equal by subtracting string 2 from stri\015) showline
(-->     259  int strcomp\(char *str1,char *str2\)\015) showline
(        260  {\015) showline
(        261     int n;\015) showline
(        262\015) showline
(-->     263a    for \(n = 0;\015) showline
(  -->   263b                *\(str1+n\)!='\\0'&&\015) showline
(  -->   263c                                 *\(str2+n\)!='\\0' ; n++\){\015) showline
(        264        int val;\015) showline
(-->     265        if \(\(val=\(*\(str1+n\)\)-\(*\(str2+n\)\)\)==0\);\015) showline
(-->     266        else if \(val<0\)return val;\015) showline
(-->     267        else if \(val>0\)return val;\015) showline
(        268     }\015) showline
(        269     //determine if one string is longer than the other:\015) showline
(-->     270     if \(str1[n]==str2[n]\)return 0;\015) showline
(-->     271     else if \(str1[n]>str2[n]\)return str1[n];\015) showline
(        272     else return -str2[n];\015) showline
(        273  }\015) showline
(        274\015) showline
(  ...\015) showline
(word.cc:\015) showline
(  ...\015) showline
(         59\015) showline
(         60  //****   class Locus functions ***********************************\015) showline
(         61\015) showline
(-->      62  Locus::Locus\(const Locus &lc\)       //X\(const X&\) constructor\015) showline
(         63  {\015) showline
(         64     loc = lc.getLoc\(\);\015) showline
(         65     nxt=this;   //temporarily point it at itself\015) showline
(  ...\015) showline
(         71     nxt=this;   //temporarily point it at itself\015) showline
(         72  }\015) showline
sf (11) 1 endcol
(11) endpage
%%Page: ? 12
12 newpage
/MailFor (Listing for ) def
/User (Florian Niedermann) def
/TimeNow (Sun Oct 30 17:27:41 2005) def
/Subject () def
sf (         73\015) showline
(-->      74  void Locus::saveLoc\(FILE *fp\) //save locus to file\015) showline
(         75  {\015) showline
(         76     fwrite\(&loc,sizeof\(unsigned int\),1,fp\);\015) showline
(         77  }\015) showline
(         78\015) showline
(-->      79  void Locus::loadLoc\(FILE *fp\) //read a locus from file\015) showline
(         80  {\015) showline
(         81     fread\(&loc,sizeof\(unsigned int\),1,fp\);\015) showline
(         82  }\015) showline
(         83\015) showline
(-->      84  Locus &Locus::operator=\(Locus &lc\)\015) showline
(         85  {\015) showline
(         86     loc = lc.getLoc\(\);\015) showline
(         87     //nxt=this;     for the moment, leave nxt as it is\015) showline
(         88     return *this;\015) showline
(         89  }\015) showline
(         90\015) showline
(-->      91  Locus &Locus::operator=\(unsigned int lc\)\015) showline
(         92  {\015) showline
(         93     loc = lc;\015) showline
(         94     //nxt=this;     for the moment, leave nxt as it is\015) showline
(         95     return *this;\015) showline
(         96  }\015) showline
(         97\015) showline
(-->      98  ostream &operator<<\(ostream &os,Locus &lc\)\015) showline
(         99  {\015) showline
(        100     os << lc.loc;\015) showline
(        101     return os;\015) showline
(        102  }\015) showline
(        103\015) showline
(-->     104  istream &operator>>\(istream &is,Locus &lc\)\015) showline
(        105  {\015) showline
(        106     is >> lc.loc; //in;\015) showline
(        107     return is;\015) showline
(  ...\015) showline
(        122     assert\(loci!=0\);\015) showline
(        123  }\015) showline
(        124\015) showline
(-->     125  Word::Word\(const Word &wrd\)\015) showline
(        126     :wordLen\(wrd.getLen\(\)\),useAmt\(wrd.getUse\(\)\),loci\(0\),tail\(0\),prv\015) showline
(        127  {\015) showline
(        128     word=new char[wordLen];\015) showline
(  ...\015) showline
(        130     strcpy\(word,wrd.getWord\(\)\);\015) showline
(        131\015) showline
(        132     Locus *newLoc,*walker=wrd.getLoci\(\); //create a new locus list\015) showline
(-->     133     while \(walker!=walker->nxt\) {\015) showline
(        134        newLoc=new Locus;   //copy the list of locations\015) showline
(        135        assert\(newLoc!=0\);\015) showline
(        136        *newLoc=*walker;\015) showline
(  ...\015) showline
(        144\015) showline
(X       145  Word::~Word\(void\)\015) showline
(        146  {\015) showline
(-->T    147     if \(word\) delete [] word;\015) showline
(        148     delLoci\(\);\015) showline
(        149  }\015) showline
(        150\015) showline
(        151  //add a locus to the locus list:\015) showline
sf (12) 1 endcol
(12) endpage
%%Page: ? 13
13 newpage
/MailFor (Listing for ) def
/User (Florian Niedermann) def
/TimeNow (Sun Oct 30 17:27:41 2005) def
/Subject () def
sf (X       152  void Word::addLocus\(Locus *lcp\) //add a locus to the word\015) showline
(        153  {\015) showline
(-->F    154     if \(!loci\){ //if no list yet \(NULL loci = no list\)\015) showline
(        155        loci=tail=lcp;   //locus is head of list\015) showline
(        156        return;\015) showline
(        157     }\015) showline
(        158\015) showline
(        159     Locus *walker=loci; //pointer to walk through list - was at top\015) showline
(TF      160     while \(walker!=walker->nxt\) { //go to the end of the list\015) showline
(-->F    161        if \(walker->getLoc\(\)==lcp->getLoc\(\)\){\015) showline
(        162           delete lcp; //unneeded - location already present\015) showline
(        163           return;  //if locus is already recorded, don't record;\015) showline
(        164        }\015) showline
(  ...\015) showline
(        182  //removes locus list\015) showline
(X       183  void Word::delLoci\(void\)\015) showline
(        184  {\015) showline
(-->T    185     if \(loci\){\015) showline
(        186        Locus *delLocus,*walker=loci;\015) showline
(        187\015) showline
(^[[?1;2cTF      188        while \(walker!=walker->nxt\) {   //delete the list of ) showline
(loci\015) showline
(  ...\015) showline
(        197\015) showline
(        198  //copies a char string into Word and sets its use to 1\015) showline
(        199  //does NOT set locus!\015) showline
(-->     200  Word &Word::operator=\(char *wrd\)\015) showline
(        201  {\015) showline
(-->     202     if \(word\)delete [] word;\015) showline
(        203     word=new char[wordLen=\(strlen\(wrd\)+1\)];\015) showline
(        204     assert\(word!=0\);\015) showline
(        205     strcpy\(word,lowerCaseString\(wrd\)\);\015) showline
(        206     useAmt=1;\015) showline
(-->     207     if \(loci\)delLoci\(\);\015) showline
(        208     tail=loci=0;  //no loci!!\015) showline
(        209     return *this;\015) showline
(        210  }\015) showline
(        211\015) showline
(        212  //note that the use of this function requires\015) showline
(        213  //adding the word to a list in order to set prv and nxt!\015) showline
(-->     214  Word &Word::operator=\(Word &wrd\)  //set a word to another word\015) showline
(        215  {\015) showline
(        216     wordLen=wrd.getLen\(\);\015) showline
(-->     217     if \(word\)delete [] word;\015) showline
(        218     word=new char[wordLen];\015) showline
(        219     assert\(word!=0\);\015) showline
(        220     strcpy\(word,wrd.getWord\(\)\);\015) showline
(        221     useAmt=wrd.getUse\(\);\015) showline
(-->     222     if \(loci\)delLoci\(\);\015) showline
(        223     Locus *newloc,*prv=0,*walker=wrd.getLoci\(\); //write the locatio\015) showline
(-->     224     if \(walker\){\015) showline
(-->     225a       for \(unsigned int n=0;\015) showline
(  -->   225b                             n<useAmt&&\015) showline
(  -->   225c                                       prv!=walker;n++\){\015) showline
(        226           prv=walker;\015) showline
(        227           newloc=new Locus\(walker->getLoc\(\)\);\015) showline
(        228           addLocus\(newloc\);\015) showline
(  ...\015) showline
(        237\015) showline
(X       238  void Word::incWord\(unsigned int locus\)  //increment the number of\015) showline
sf (13) 1 endcol
(13) endpage
%%Page: ? 14
14 newpage
/MailFor (Listing for ) def
/User (Florian Niedermann) def
/TimeNow (Sun Oct 30 17:27:41 2005) def
/Subject () def
sf (        239  {                               //and add a new location to the li\015) showline
(-->T    240     if \(word\){\015) showline
(        241        useAmt++;\015) showline
(        242        Locus *newLoc=new Locus\(locus\);\015) showline
(        243        assert\(newLoc!=0\);\015) showline
(  ...\015) showline
(        248     }\015) showline
(        249  }\015) showline
(        250\015) showline
(-->     251  void Word::saveWord\(FILE *fp\)   //save a word to disk\015) showline
(        252  {\015) showline
(-->     253a    if\(\015) showline
(  -->   253b       !wordLen||\015) showline
(  -->   253c                 !word\)return; //on an empty word, don't write\015) showline
(        254     fwrite\(&wordLen,sizeof\(wordLen\),1,fp\); //write the length\015) showline
(        255     fwrite\(word,wordLen,1,fp\); //write the word to the stream\015) showline
(        256     fwrite\(&useAmt,sizeof\(useAmt\),1,fp\);   //write the usage \(also\015) showline
(        257\015) showline
(-->     258     if\(!loci\){  //if there is no locus list, write a unsigned int 0\015) showline
(        259        unsigned int substitute=0;\015) showline
(        260        fwrite\(&substitute,sizeof\(unsigned int\),1,fp\);\015) showline
(        261        return;\015) showline
(        262     }\015) showline
(        263     Locus *prv=0,*walker=loci; //write the location list\015) showline
(-->     264     if \(walker\){\015) showline
(-->     265a       for \(unsigned int n=0;\015) showline
(  -->   265b                             n<useAmt&&\015) showline
(  -->   265c                                       prv!=walker;n++\){\015) showline
(        266           prv=walker;\015) showline
(        267           fwrite\(walker->getLocAdd\(\),sizeof\(unsigned int\),1,fp\);\015) showline
(        268           walker=walker->getNxt\(\);\015) showline
(  ...\015) showline
(        270     }\015) showline
(        271  }\015) showline
(        272\015) showline
(-->     273  Word *Word::loadWord\(FILE *fp\)   //load a word from disk\015) showline
(        274  {\015) showline
(        275     fread\(&wordLen,sizeof\(wordLen\),1,fp\); //read the length\015) showline
(        276     word = new char[wordLen];\015) showline
(  ...\015) showline
(        280\015) showline
(        281     Locus *inloc;  //read in the location list\015) showline
(        282     unsigned int lloc;\015) showline
(-->     283     for \(unsigned int n=0;n<useAmt;n++\){\015) showline
(        284        fread\(&lloc,sizeof\(lloc\),1,fp\);\015) showline
(        285        inloc=new Locus\(lloc\);\015) showline
(        286        addLocus\(inloc\);\015) showline
(  ...\015) showline
(        290\015) showline
(        291  //note that this function is non-functional for reading\015) showline
(        292  //information in from a file as saved by operator << !!!\015) showline
(-->     293  istream &operator>>\(istream &is,Word &wrd\)\015) showline
(        294  {\015) showline
(-->     295     if \(wrd.word\)delete [] wrd.word;  //delete the word in the form\015) showline
(-->     296     if\(wrd.loci\)wrd.delLoci\(\);        //delete the loci in the form\015) showline
(        297\015) showline
(        298     is >> wrd.wordLen;\015) showline
(        299     wrd.word = new char[wrd.wordLen];\015) showline
(  ...\015) showline
(        303\015) showline
sf (14) 1 endcol
(14) endpage
%%Page: ? 15
15 newpage
/MailFor (Listing for ) def
/User (Florian Niedermann) def
/TimeNow (Sun Oct 30 17:27:41 2005) def
/Subject () def
sf (        304     Locus *inloc;\015) showline
(        305     unsigned int lloc;\015) showline
(-->     306     for\(unsigned int n=0;n<wrd.useAmt;n++\){\015) showline
(        307        is >> lloc;\015) showline
(        308        inloc=new Locus\(lloc\);\015) showline
(        309        assert\(inloc!=0\);\015) showline
(  ...\015) showline
(        315  //added spaces and endls to set up for read in - check if it works\015) showline
(X       316  ostream &operator<<\(ostream &os,Word &wrd\)\015) showline
(        317  {\015) showline
(-->T    318     if\(wrd.word\){    //output nothing if the word is empty\015) showline
(        319        os.width\(2\);\015) showline
(        320        os << wrd.wordLen-1;\015) showline
(        321        os << ' ';\015) showline
(  ...\015) showline
(        331        os << " - ";\015) showline
(        332\015) showline
(        333        Locus *walker=wrd.loci;\015) showline
(-->F    334        if\(!wrd.loci\){ //if there is no locus list, write a unsigned\015) showline
(        335           unsigned int substitute=0;\015) showline
(        336           os << substitute << endl;\015) showline
(        337           return os;\015) showline
(  ...\015) showline
(        347     return os;\015) showline
(        348  }\015) showline
(        349\015) showline
(-->     350  void Word::printWord\(void\)\015) showline
(        351  {\015) showline
(        352     cout << word << ", # of uses: "<< useAmt << ", and locations";\015) showline
(        353     Locus *walker=loci;\015) showline
(-->     354     if\(loci\){\015) showline
(-->     355        while \(walker!=walker->getNxt\(\)\){\015) showline
(        356           cout << ", " << walker->getLoc\(\);\015) showline
(        357           walker=walker->getNxt\(\);\015) showline
(        358        }\015) showline
(  ...\015) showline
(        367\015) showline
(        368  SORTORDER WordList::sortOrder=ascending;\015) showline
(        369\015) showline
(-->     370  WordList::WordList\(Word *wrd\) //wordlist receiving a word as point\015) showline
(        371     :numWords\(1\)\015) showline
(        372  {\015) showline
(        373     current = head = tail = new Word;\015) showline
(  ...\015) showline
(        376     head->nxt=head->prv=head;  //point word at itself indicating en\015) showline
(        377  }\015) showline
(        378\015) showline
(-->     379  WordList::WordList\(Word &wrd\) //wordlist receiving a word as ref\015) showline
(        380     :numWords\(1\)\015) showline
(        381  {\015) showline
(        382     current = head = tail = new Word;\015) showline
(  ...\015) showline
(        385     head->nxt=head->prv=head;\015) showline
(        386  }\015) showline
(        387\015) showline
(-->     388  WordList::WordList\(char *wrd,unsigned int loc\) //wordlist receivin\015) showline
(        389     :numWords\(1\)\015) showline
(        390  {\015) showline
(        391     current = head = tail = new Word\(wrd,loc\);\015) showline
(  ...\015) showline
sf (15) 1 endcol
(15) endpage
%%Page: ? 16
16 newpage
/MailFor (Listing for ) def
/User (Florian Niedermann) def
/TimeNow (Sun Oct 30 17:27:41 2005) def
/Subject () def
sf (        393     head->nxt=head->prv=head;\015) showline
(        394  }\015) showline
(        395\015) showline
(-->     396  WordList::WordList\(const WordList &wl\) //copy constructor\015) showline
(        397     :numWords\(wl.getNumWords\(\)\)\015) showline
(        398  {\015) showline
(        399     Word *newWord,*walker = wl.head;\015) showline
(-->     400     if \(walker\){\015) showline
(-->     401        while \(walker!=walker->nxt\) {\015) showline
(        402           newWord = new Word\(*walker\);\015) showline
(        403           assert \(newWord!=0\);\015) showline
(        404           addWord\(newWord\);\015) showline
(  ...\015) showline
(        422     delete walker; //delete the last one of the list\015) showline
(        423  }\015) showline
(        424\015) showline
(-->     425  void WordList::delList\(void\)\015) showline
(        426  {\015) showline
(-->     427     if \(!head\)return;\015) showline
(        428     current=head;\015) showline
(        429     Word *delWord;\015) showline
(-->     430     while \(\(delWord=iterf\(\)\)!=delWord->nxt\) {\015) showline
(        431        delete delWord;\015) showline
(        432     }\015) showline
(        433     delete delWord;\015) showline
(  ...\015) showline
(        444  }\015) showline
(        445\015) showline
(        446  //iterates wordlist.current backward.  Always returns present curr\015) showline
(-->     447  Word *WordList::iterb\(void\)\015) showline
(        448  {\015) showline
(        449     Word *holder=current;\015) showline
(        450     current=current->prv;\015) showline
(  ...\015) showline
(        472              return OK;\015) showline
(        473           }\015) showline
(TF      474           else if\(strcasecmp\(wrd,walker->getWord\(\)\)<0\){//if new wor\015) showline
(-->T    475              if\(walker==head\){   //make newWord the new head\015) showline
(        476                 walker->prv=newWord;\015) showline
(        477                 newWord->prv=newWord;\015) showline
(        478                 newWord->nxt=walker;\015) showline
(  ...\015) showline
(        491           }\015) showline
(        492           //else if\(strcasecmp\(wrd,walker->getWord\(\)\)>0&&strcasecmp\015) showline
(TF      493a          else if\(\015) showline
(  -->t  493b                  strcasecmp\(wrd,walker->getWord\(\)\)>0&&\015) showline
(  tf    493c                                                       strcasecmp\(w\015) showline
(        494              newWord->nxt=walker->nxt;\015) showline
(        495              walker->nxt->prv=newWord;\015) showline
(  ...\015) showline
(        506           return OK;\015) showline
(        507        }\015) showline
(TF      508        else if\(strcasecmp\(wrd,walker->getWord\(\)\)<0\){//if new word <\015) showline
(-->T    509           if\(walker==head\){   //make newWord the new head\015) showline
(        510              walker->prv=newWord;\015) showline
(        511              newWord->prv=newWord;\015) showline
(        512              newWord->nxt=walker;\015) showline
(  ...\015) showline
(        535     }\015) showline
(        536  }\015) showline
sf (16) 1 endcol
(16) endpage
%%Page: ? 17
17 newpage
/MailFor (Listing for ) def
/User (Florian Niedermann) def
/TimeNow (Sun Oct 30 17:27:41 2005) def
/Subject () def
sf (        537\015) showline
(-->     538  int WordList::addWord\(Word *wrd\)\015) showline
(        539  {\015) showline
(        540     Word *newWord=new Word\(*wrd\);\015) showline
(        541     assert\(newWord!=0\);\015) showline
(-->     542     if \(!head\){\015) showline
(        543        current = tail = head = new Word\(*wrd\);\015) showline
(        544        assert\(head!=0\);\015) showline
(        545        head->nxt=head->prv=head;\015) showline
(  ...\015) showline
(        548     }\015) showline
(        549     else{\015) showline
(        550        Word *walker=head;\015) showline
(-->     551        while \(walker!=walker->nxt\) {\015) showline
(-->     552           if \(strcasecmp\(wrd->getWord\(\),walker->getWord\(\)\)==0\){//if\015) showline
(        553              walker->incWord\(\); //add the new location to the word\015) showline
(        554              return OK;\015) showline
(        555           }\015) showline
(-->     556           else if\(strcasecmp\(wrd->getWord\(\),walker->getWord\(\)\)<0\){\015) showline
(-->     557              if\(walker==head\){   //make newWord the new head\015) showline
(        558                 walker->prv=newWord;\015) showline
(        559                 newWord->prv=newWord;\015) showline
(        560                 newWord->nxt=walker;\015) showline
(  ...\015) showline
(        571                 return OK;\015) showline
(        572              }\015) showline
(        573           }\015) showline
(-->     574a          else if\(\015) showline
(  -->   574b                  strcasecmp\(wrd->getWord\(\),walker->getWord\(\)\)>0&&\015) showline
(  -->   574c                                                                  s\015) showline
(        575              newWord->nxt=walker->nxt;\015) showline
(        576              walker->nxt->prv=newWord;\015) showline
(        577              newWord->prv=walker;\015) showline
(  ...\015) showline
(        581           }\015) showline
(        582           else walker = walker->nxt;\015) showline
(        583        }\015) showline
(-->     584        if \(strcasecmp\(wrd->getWord\(\),walker->getWord\(\)\)==0\){//if sa\015) showline
(        585           walker->incWord\(\); //add the new location to the word in\015) showline
(        586           return OK;\015) showline
(        587        }\015) showline
(-->     588        else if\(strcasecmp\(wrd->getWord\(\),walker->getWord\(\)\)<0\){//if\015) showline
(-->     589           if\(walker==head\){   //make newWord the new head\015) showline
(        590              walker->prv=newWord;\015) showline
(        591              newWord->prv=newWord;\015) showline
(        592              newWord->nxt=walker;\015) showline
(  ...\015) showline
(        616  }\015) showline
(        617\015) showline
(        618\015) showline
(-->     619  void WordList::delWord\(char *wrd\)   //find a word and remove it fr\015) showline
(        620  {\015) showline
(        621     Word *wordToDel; //word to be deleted\015) showline
(        622\015) showline
(-->     623     if \(\(wordToDel=this->findWord\(wrd\)\)!=0\){\015) showline
(-->     624a       if \(\015) showline
(  -->   624b           wordToDel==head&&\015) showline
(  -->   624c                            head==head->nxt\){ //at head & no list\015) showline
(        625           head=tail=current=0; //NULL all pointers\015) showline
(        626           numWords=0;\015) showline
sf (17) 1 endcol
(17) endpage
%%Page: ? 18
18 newpage
/MailFor (Listing for ) def
/User (Florian Niedermann) def
/TimeNow (Sun Oct 30 17:27:41 2005) def
/Subject () def
sf (        627           delete wordToDel;\015) showline
(        628        }\015) showline
(-->     629        else if\(wordToDel==head\){\015) showline
(        630           head=head->nxt;          //set next record as head\015) showline
(        631           head->nxt->prv=head->nxt;  //and point it at itself\015) showline
(        632           numWords--;\015) showline
(        633           delete wordToDel;\015) showline
(        634        }\015) showline
(-->     635        else if \(wordToDel==tail\){\015) showline
(        636           wordToDel->prv->nxt=wordToDel->prv; //point previous Word\015) showline
(        637           tail=wordToDel->prv; //make previous Word tail\015) showline
(        638           current = tail;\015) showline
(  ...\015) showline
(        648     }\015) showline
(        649  }\015) showline
(        650\015) showline
(-->     651  Word *WordList::findWord\(char *wrd\) //find a word, given a char st\015) showline
(        652  {\015) showline
(        653     current = head;\015) showline
(        654     Word *walker;\015) showline
(-->     655     while \(\(walker=iterf\(\)\)!=walker->nxt\) {\015) showline
(-->     656        if \(strcasecmp\(walker->getWord\(\),wrd\)==0\)\015) showline
(        657           return walker;\015) showline
(        658     }\015) showline
(-->     659     if \(strcasecmp\(walker->getWord\(\),wrd\)==0\)  //check last record\015) showline
(        660        return walker;\015) showline
(        661     else return 0; //NULL returned on not found\015) showline
(        662  }\015) showline
(        663\015) showline
(-->     664  Word *WordList::findWord\(Word *wrd\) //find a word, given a Word.\015) showline
(        665  {\015) showline
(        666     current = head;\015) showline
(        667     Word *walker;\015) showline
(-->     668     while \(\(walker=iterf\(\)\)!=walker->nxt\) {\015) showline
(-->     669        if \(strcasecmp\(walker->getWord\(\),wrd->getWord\(\)\)==0\)\015) showline
(        670           return walker;\015) showline
(        671     }\015) showline
(-->     672     if \(strcasecmp\(walker->getWord\(\),wrd->getWord\(\)\)==0\)\015) showline
(        673        return walker;\015) showline
(        674     else return 0; //NULL returned on not found\015) showline
(        675  }\015) showline
(        676\015) showline
(-->     677  void WordList::saveWordList\(FILE *fp\)  //save a list to disk\015) showline
(        678  {\015) showline
(        679     Word *svWord;\015) showline
(-->     680     if \(!head\) return;\015) showline
(        681     else{\015) showline
(        682        fwrite\(&numWords,sizeof\(long\),1,fp\);\015) showline
(        683        current=head;\015) showline
(-->     684        while \(\(svWord=iterf\(\)\)!=svWord->nxt\) {\015) showline
(        685           svWord->saveWord\(fp\);\015) showline
(        686        }\015) showline
(        687     }  svWord->saveWord\(fp\);\015) showline
(        688  }\015) showline
(        689\015) showline
(-->     690  void WordList::loadWordList\(FILE *fp\)  //load a list from disk\015) showline
(        691  {\015) showline
(        692     long numWordsToLoad;\015) showline
(        693     fread\(&numWordsToLoad,sizeof\(long\),1,fp\);\015) showline
(-->     694     if \(numWordsToLoad>0\){\015) showline
sf (18) 1 endcol
(18) endpage
%%Page: ? 19
19 newpage
/MailFor (Listing for ) def
/User (Florian Niedermann) def
/TimeNow (Sun Oct 30 17:27:41 2005) def
/Subject () def
sf (-->     695        for \(int ct=0;ct<numWordsToLoad;ct++\){\015) showline
(        696           Word *inWord  = new Word;\015) showline
(        697           assert\(inWord!=0\);\015) showline
(        698           addWord\(inWord->loadWord\(fp\)\);\015) showline
(  ...\015) showline
(        700     }\015) showline
(        701  }\015) showline
(        702\015) showline
(-->     703  WordList &WordList::operator=\(WordList &wl\)  //copy a list into an\015) showline
(        704  {\015) showline
(        705     delList\(\);\015) showline
(        706     Word *newWord,*walker = wl.head;\015) showline
(-->     707     if \(walker\){\015) showline
(-->     708        while \(walker!=walker->nxt\) {\015) showline
(        709           newWord = new Word\(*walker\);\015) showline
(        710           assert \(newWord!=0\);\015) showline
(        711           addWord\(newWord\);\015) showline
(  ...\015) showline
(        725\015) showline
(X       726  ostream &operator<<\(ostream &os,WordList &wl\) //output a WordList\015) showline
(        727  {\015) showline
(-->T    728     if \(wl.head\){\015) showline
(        729        wl.setCurrentToHead\(\);\015) showline
(        730        Word *walker=wl.iterf\(\);\015) showline
(TF      731        while \(walker!=walker->getNxt\(\)\) {\015) showline
(  ...\015) showline
(word.h:\015) showline
(  ...\015) showline
(         67     unsigned int loc;   //unsigned int containing a line location\015) showline
(         68     Locus *nxt; //pointer to the next Locus-singly linked list\015) showline
(         69\015) showline
(-->      70     Locus\(void\):loc\(0\),nxt\(this\){}   //default constructor - point\015) showline
(         71     Locus\(const Locus &lc\);       //X\(const X&\) constructor\015) showline
(         72     Locus\(unsigned int lc\);               //constructor receiving a\015) showline
(         73     Locus &operator=\(Locus &lc\);\015) showline
(         74     Locus &operator=\(unsigned int lc\);\015) showline
(X        75     unsigned int getLoc\(void\) const {return loc;} //return a line n\015) showline
(-->      76     void setLoc\(unsigned int lc\){loc = lc;} //set the location\015) showline
(-->      77     unsigned int *getLocAdd\(void\) {return &loc;} //return line numb\015) showline
(-->      78     void setNxt\(Locus *lp\){nxt=lp;}  //set the nxt pointer\015) showline
(X        79     Locus *getNxt\(void\){return nxt;} //return the pointer to the ne\015) showline
(-->      80     Locus *getThis\(void\){return this;} //return the pointer to this\015) showline
(         81     void saveLoc\(FILE *fp\); //save locus to file\015) showline
(         82     void loadLoc\(FILE *fp\); //read a locus from file\015) showline
(         83     friend ostream &operator<<\(ostream &os,Locus &lc\);\015) showline
(  ...\015) showline
(        104\015) showline
(        105     void addLocus\(Locus *lcp\); //add a locus to the word\015) showline
(        106     void delLoci\(void\); //delete the locus list\015) showline
(-->     107     Word\(void\):word\(0\),wordLen\(0\),useAmt\(0\),loci\(0\),tail\(0\),prv\(0\),\015) showline
(        108     Word\(char *wrd,unsigned int lc,unsigned int numUses=1\);  //args\015) showline
(        109     Word\(const Word &wrd\);\015) showline
(        110     ~Word\(void\);\015) showline
(X       111     char *getWord\(void\) const {return word;}\015) showline
(-->     112     int  getLen\(void\) const {return wordLen;}\015) showline
(-->     113     unsigned int getUse\(void\) const {return useAmt;}\015) showline
(-->     114     Word *getPrv\(void\) const {return prv;}\015) showline
(X       115     Word *getNxt\(void\) const {return nxt;}\015) showline
(-->     116     Locus *getLoci\(void\) const { return loci; }\015) showline
(-->     117     Locus *getTail\(void\) const { return tail; }\015) showline
sf (19) 1 endcol
(19) endpage
%%Page: ? 20
20 newpage
/MailFor (Listing for ) def
/User (Florian Niedermann) def
/TimeNow (Sun Oct 30 17:27:41 2005) def
/Subject () def
sf (        118     void printWord\(void\);  //put word on screen in formatted manner\015) showline
(        119     Word &operator=\(Word &wrd\);  //set a word to another word\015) showline
(        120     Word &operator=\(char *wrd\);  //set a word to an instance of 1 w\015) showline
(        121     void incWord\(unsigned int locus\);  //increment the number of ti\015) showline
(-->     122     void incWord\(void\){incWord\(0\);} //increment a word without addi\015) showline
(        123     void saveWord\(FILE *fp\);   //save a word to disk\015) showline
(        124     Word *loadWord\(FILE *fp\);   //load a word from disk\015) showline
(        125     friend istream &operator>>\(istream &is,Word &wrd\);\015) showline
(  ...\015) showline
(        149     WordList\(const WordList &wl\); //copy constructor\015) showline
(        150     ~WordList\(void\);\015) showline
(        151     void delList\(void\);\015) showline
(-->     152     long getNumWords\(void\) const {return numWords;}\015) showline
(-->     153     Word *getHead\(void\){return head;}\015) showline
(X       154     void setCurrentToHead\(void\){current=head;}\015) showline
(        155     Word *iterf\(void\); //iterators\015) showline
(        156     Word *iterb\(void\);\015) showline
(  ...\015) showline
(obelix[14]% \0071;2c\0071;2c\015\015) showline
(1: Command not found.\015) showline
(2c1: Command not found.\015) showline
(2c: Command not found.\015) showline
(obelix[15]% exit\015\015) showline
(exit\015) showline
() showline
(script done on Sun Oct 30 17:27:16 2005) showline
sf (20) 1 endcol
(20) endpage
%%Trailer
%%Pages: 20
