%!PS-Adobe-1.0
/localeprolog 0 def

%!PS-Adobe-1.0
%%Creator: Steve Holden
%%Modified: John Macdonald, Rich Burridge, Rainer Klute
%%Modified: Bertrand Decouty, Bjorn P. Brox
%%Title: @(#)mp.pro.ps 3.3 93/03/11
%%CreationDate: see above
%%PageLength 60
%%LineLength 80
%%DocumentFonts: Courier Helvetica-BoldOblique Times-Bold Times-Roman
%%Pages: (atend)
%%EndComments

%  @(#)mp.common.ps 3.1 92/04/03
%
%  Mp PostScript routines common to all prologue files.
%
%  The initial header comments are read (and output to stdout)
%  from the individual prologue file, then the contents of this
%  file are read (and output to stdout), then the remainder of
%  the individual prologue file.

/inch { 72 mul } bind def
%
%  IMPORTANT NOTE: The following two variables should be set correctly.
%                  Reasonable values for fullwidth and fullheight are
%                  8.5/11 inch for US Letter, and 8.5/11.4 inch for A4.
%                  Since sites usually have one single format of paper,
%                  mp should be installed with either the USLetter or A4
%                  values.
%
/fullwidth 8.5 inch def
/fullheight 11 inch def

% Define /ISOLatin1Encoding only if it's not already there.
/ISOLatin1Encoding where { pop save true }{ false } ifelse
  /ISOLatin1Encoding [ StandardEncoding 0 45 getinterval aload pop /minus
    StandardEncoding 46 98 getinterval aload pop /dotlessi /grave /acute
    /circumflex /tilde /macron /breve /dotaccent /dieresis /.notdef /ring
    /cedilla /.notdef /hungarumlaut /ogonek /caron /space /exclamdown /cent
    /sterling /currency /yen /brokenbar /section /dieresis /copyright
    /ordfeminine /guillemotleft /logicalnot /hyphen /registered /macron
    /degree /plusminus /twosuperior /threesuperior /acute /mu /paragraph
    /periodcentered /cedilla /onesuperior /ordmasculine /guillemotright
    /onequarter /onehalf /threequarters /questiondown /Agrave /Aacute
    /Acircumflex /Atilde /Adieresis /Aring /AE /Ccedilla /Egrave /Eacute
    /Ecircumflex /Edieresis /Igrave /Iacute /Icircumflex /Idieresis /Eth
    /Ntilde /Ograve /Oacute /Ocircumflex /Otilde /Odieresis /multiply
    /Oslash /Ugrave /Uacute /Ucircumflex /Udieresis /Yacute /Thorn
    /germandbls /agrave /aacute /acircumflex /atilde /adieresis /aring /ae
    /ccedilla /egrave /eacute /ecircumflex /edieresis /igrave /iacute
    /icircumflex /idieresis /eth /ntilde /ograve /oacute /ocircumflex
    /otilde /odieresis /divide /oslash /ugrave /uacute /ucircumflex
    /udieresis /yacute /thorn /ydieresis ] def
{ restore } if

%Title: backspacefont.ps suggested by Glenn Reid (Adobe Systems).

/backspacefont {
    /CourierISO findfont dup length dict begin
        { %forall
            1 index /FID eq { pop pop } { def } ifelse
        } forall
        currentdict /UniqueID known { %if
              /UniqueID UniqueID 16#800000 xor def
        } if
        CharStrings length 1 add dict begin
            CharStrings { def } forall
          /backspace { -600 0 setcharwidth pop } bind def
            currentdict
      end
        /CharStrings exch def
        /Encoding Encoding 256 array copy def
        Encoding 8 /backspace put
        currentdict
    end
    definefont
} bind def

/reencodeISO { %def
    findfont dup length dict begin
    { 1 index /FID ne { def }{ pop pop } ifelse } forall
    /Encoding ISOLatin1Encoding def
    currentdict end definefont pop
} bind def

/fontHd_size 14 def
/fontH2_size 10 def
/fontNd_size 12 def

/setmargin {
  /leftedge 0 def
  /bottomedge 0 def
  fullheight fullwidth LandscapeMode { exch } if
    /rightedge exch def
    /topedge exch def
  9 7 LandscapeMode { exch } if pop
    /FontSize exch def

  0 localeprolog eq
  {
  /font1d /Times-Bold           reencodeISO
  /font2d /Times-Roman          reencodeISO
  /CourierISO /Courier          reencodeISO
  /fontHd /Helvetica-BoldOblique        reencodeISO
  /fontH2 /Helvetica-BoldOblique        reencodeISO
  /fontNd /Times-Bold           reencodeISO
  /font3d backspacefont
  /BoldFont      { /font1d findfont FontSize scalefont setfont } def
  /pf            { /font2d findfont FontSize scalefont setfont } def
  /sf            { /font3d findfont FontSize scalefont setfont } def
  /fontH         { /fontHd findfont fontHd_size scalefont setfont } def
  /fontD         { /fontH2 findfont fontH2_size scalefont setfont } def
  /fontN         { /fontNd findfont fontNd_size scalefont setfont } def
  }
  {
  /font1d /LC_Times-Bold def
  /font2d /LC_Times-Roman def
  /CourierISO /LC_Courier def
  /fontHd /LC_Helvetica-BoldOblique def
  /fontH2 /LC_Helvetica-BoldOblique def
  /fontNd /LC_Times-Bold def
  /font3d /LC_Courier def
  /BoldFont      { font1d findfont FontSize scalefont setfont } def
  /pf            { font2d findfont FontSize scalefont setfont } def
  /sf            { font3d findfont FontSize scalefont setfont } def
  /fontH         { fontHd findfont fontHd_size scalefont setfont } def
  /fontD         { fontH2 findfont fontH2_size scalefont setfont } def
  /fontN         { fontNd findfont fontNd_size scalefont setfont } def
  }
  ifelse

} def

/graybox	% grey x1 y1 x2 y2 graybox --
{
    newpath
      4 -1 roll 2 copy			% y2 x1
      10 sub exch moveto
      4 -1 roll 2 copy			% x1 y1
      10 180 270 arc
      4 -1 roll 1 copy 3 -1 roll	% x2 y1
      10 270 0 arc
      3 -1 roll 1 copy 3 1 roll		% x1 y2 x2 y2
      10 0 90 arc
      10 90 180 arc
    closepath
    gsave
      setgray fill
    grestore
    0 setgray stroke
} bind def

/endpage		% page_number endpage --
{
  gsave
    % listing type, user, date across the top
    0.88                                % gray level
    leftedge  50 add topedge 56 sub     % bottom lt corner
    rightedge 95 sub topedge 36 sub     % top rt corner
    graybox

    currentdict /sfactor known not
    {
      % determine a suitable factor to scale down the header text (done
      % only once per document)
      rightedge 95 sub leftedge 50 add sub % available space
      fontD MailFor stringwidth pop
      fontH User    stringwidth pop add
            (  )    stringwidth pop add
      fontD TimeNow stringwidth pop add    % total length of strings
      div
      dup 1 gt {pop 1} if                  % does it fit?
      /sfactor exch def                    % if not scale down
    }
    if

    leftedge 50 add topedge 50 sub moveto
    gsave
    sfactor dup scale
    fontD MailFor show
    fontH User    show
          (  )    show
    grestore
    fontD
    rightedge 95 sub TimeNow stringwidth pop sfactor mul sub
    topedge 50 sub moveto
    gsave
    sfactor dup scale
    TimeNow show
    grestore
    % page number to the top right corner
    1                                   % gray level
    rightedge 70 sub topedge 56 sub     % bottom lt
    rightedge 50 sub topedge 36 sub     % top rt
    graybox
    fontD
    (Page) dup stringwidth
       topedge 40 sub exch sub                  % y-centered
       exch 2 div rightedge 60 sub exch sub     % x-centered
       exch moveto show
    fontH
    dup stringwidth
       topedge 58 sub exch sub                  % y-centered
       exch 2 div rightedge 60 sub exch sub     % x-centered
       exch moveto show
    0.88                                   % gray level
    leftedge  50 add bottomedge 50 add     % bottom lt corner
    rightedge 50 sub bottomedge 70 add     % top rt corner
    graybox
    fontH
    % compute x pos for centring
      % ((l+50) + (r-50)) / 2 is the page centre
      leftedge rightedge add 2 div
      % but we want to start at the beginning of the string, not the middle
      Subject stringwidth pop 2 div sub
    % y pos is simple
      bottomedge 54 add
      moveto
    Subject show
  grestore
%  PageSave restore      % restore *always* before showpage
  showpage		% display it
} bind def

/endcol			% page_number col_number endcol --
{
  pop			% get rid of col_number
  pop                   % get rid of page_number
  /ypos topedge 92 sub def
  /xpos rightedge leftedge sub 2 div def
  xpos ypos moveto
} bind def

/newpage	% page_number newpage --
{
  pop		% pageno
%  /PageSave save def
  LandscapeMode {setlandscape} if
  /lct 0 def
  /ypos topedge 92 sub def
  /xpos leftedge 50 add def
  xpos ypos moveto
  sf
} bind def

/setlandscape
{
  612 0 translate
  90 rotate
} bind def

/showline
{
  show
  /ypos ypos FontSize sub def
  xpos ypos moveto
} bind def

% see the trouble shooting section in the README for details on setscreen.
106 45 {dup mul exch dup mul add 1.0 exch sub} setscreen

/LandscapeMode false def

setmargin
%%EndProlog
%%Page: ? 1
1 newpage
/MailFor (Listing for ) def
/User (Florian Niedermann) def
/TimeNow (Sun Oct 30 17:23:59 2005) def
/Subject () def
sf (covclear) showline
(#  ===========================================================) showline
(#  Strutural test suite for Concordance) showline
(#  Version 1.21, 30/Oct/05) showline
(#  Author Florian Niedermann, fniederm@uwo.ca) showline
(#  Revision history:) showline
(#  1.0 Initial setup, provided valid test cases and invalid) showline
(#      test cases as "guessed" from concordance.cc) showline
(#      Coverage for concordance.cc at 87%) showline
(#  1.1 Included "-?" and -h parameter. ) showline
(#      Coverage for concordance.cc at 89%) showline
(#  1.2 Included --help parameter) showline
(#      Coverage for concordance.cc at 89%) showline
(#  1.3 Modified input files so that some would contain both) showline
(#      ff and lf characters) showline
(#      Coverage for concordance.cc at 90%) showline
(#  1.4 Added a testcase were the command line just included the ) showline
(#      parameters "inputfile" and "outputfile". Although this) showline
(#      should not work according to the specification it still was) showline
(#      possible to achieve some additional coverage by making sure) showline
(#      that "outputfile" was the name of a file which already existed) showline
(#      Coverage for concordance.cc at 91%) showline
(#  1.5 Added a larger inputfile for one test case \(with more than) showline
(#      512 characters\) to provide additional coverage in concordance.cc) showline
(#      Coverage for concordance.cc at 92%) showline
(#  1.6 Modified one input file to include an invalid stanza. Added stanza to ) showline
(#      multiLinePageText for some additional coverage in the parser) showline
(#      Coverage for concordance.cc at 96%) showline
(#  1.7 Stopped testing concordance.cc, since the remaining) showline
(#      conditions weren't feasible to cover.) showline
(#      Final coverage for cocordance.cc at 96%) showline
(#  1.8 Started testing of alphalst.cc) showline
(#      All non-tested conditions of alphalst.cc were found to be not feasible. ) showline
(#      Final coverage for alphalst.cc at 46%) showline
(#  1.9 Started testing of alphalst.h) showline
(#      According to covfn no functions in this header file were "called".) showline
(#      Therefore, providing coverage is not feasible) showline
(# 1.10 Started testing of concutils.cc) showline
(#      Coverage for concutils.cc is at 19%) showline
(# 1.11 Added some "weird" ASCII characters to one of the input files which) showline
(#      provided some substantial coverage in one of the switch statements) showline
(#      Coverage for concutils.cc is at 27%) showline
(# 1.12 Included an inputfile with an actual file-ending \(.txt\). This provided) showline
(#      some additional coverage.) showline
(#      Coverage for concutils.cc is at 28%) showline
(# 1.13 Stopped testing concutils.cc, since the remaining) showline
(#      conditions weren't feasible to cover.) showline
(#      Final coverage for concutils.cc at 28%) showline
(# 1.14 Started testing word.cc) showline
(#      All remaining conditions are found to be not feasible to cover) showline
(#      Final coverage for word.cc at 24%) showline
(# 1.15 Started testing word.h) showline
(#      According to covfn no functions in this header file were "called".) showline
(#      Therefore, providing coverage is not feasible) showline
(# 1.16 Ended testing for more coverage) showline
(#      Final coverage of the whole testsuite is at 48% or 215/446) showline
(# 1.17 Started minimizing test suite.) showline
(#      Initial number of test cases is 15) showline
(# 1.18 Removed ST09 since it is covered by ST08 and ST10) showline
(#      Coverage remains at 215/446) showline
sf (1) 1 endcol
(1) endpage
%%Page: ? 2
2 newpage
/MailFor (Listing for ) def
/User (Florian Niedermann) def
/TimeNow (Sun Oct 30 17:23:59 2005) def
/Subject () def
sf (#      Number of test cases reduced to 14) showline
(# 1.19 Removed ST12 since it doesn't seem to provide additional coverage) showline
(#      Coverage remains at 215/446) showline
(#      Number of test cases reduced to 13) showline
(# 1.20 Removed ST07 since it is covered by ST08) showline
(#      Coverage remains at 215/446) showline
(#      Number of test cases reduced to 12) showline
(# 1.21 Ended minimizing the test suite) showline
(#      Final coverage is at 48% or 215/446) showline
(#      Final number of test cases is at 12) showline
(#  ===========================================================) showline
() showline
(echo ===========================================================) showline
(echo 1. Test "valid" cases) showline
(echo The following test cases all test "normal" flow in Concordance.) showline
(echo This means that they only use input files which conform to the) showline
(echo specification given by Concordance and do not try to force errors) showline
(echo by using invalid command line parameters etc.) showline
(echo Since no special output is expected from these test cases all ) showline
(echo screen output is piped to /dev/null) showline
(echo ===========================================================) showline
(echo ST01) showline
(echo Only one command line argument) showline
(concordance < /dev/null > /dev/null) showline
(echo ===========================================================) showline
(echo ST02) showline
(echo "-?" argument) showline
(concordance "-?" < /dev/null > /dev/null) showline
(echo ===========================================================) showline
(echo ST03) showline
(echo undocumented -h argument) showline
(concordance -h < /dev/null > /dev/null) showline
(echo ===========================================================) showline
(echo ST04) showline
(echo undocumented --help argument) showline
(concordance --help  < /dev/null > /dev/null) showline
(echo ===========================================================) showline
(echo ST05) showline
(echo Two command lines arguments. Default -p mode.Contains both ) showline
(echo formfeeds and linefeeds to provide some additional coverage.) showline
(concordance inputfiles/multiLinePageText < /dev/null > /dev/null) showline
(# cat inputfiles/multiLinePageText.wds) showline
(rm inputfiles/multiLinePageText.wds) showline
(rm inputfiles/multiLinePageText.abc) showline
(echo ===========================================================) showline
(echo ST06) showline
(echo Three command line arguments, -s mode. Use mcgee.txt to test a ) showline
(echo larger text than usual and to provide some additional coverage) showline
(echo by using a file ending delimited with .) showline
(concordance -s inputfiles/mcgee.txt < /dev/null > /dev/null) showline
(# cat inputfiles/mcgee.wds) showline
(rm inputfiles/mcgee.wds) showline
(rm inputfiles/mcgee.abc) showline
(echo  ===========================================================) showline
(# echo ST07) showline
(# echo Three command line arguments, -qn mode) showline
(# concordance -qn:5 inputfiles/multiLinePageText < /dev/null > /dev/null) showline
(# cat inputfiles/multiLinePageText.wds) showline
(# rm inputfiles/multiLinePageText.wds) showline
(# rm inputfiles/multiLinePageText.abc) showline
sf (2) 1 endcol
(2) endpage
%%Page: ? 3
3 newpage
/MailFor (Listing for ) def
/User (Florian Niedermann) def
/TimeNow (Sun Oct 30 17:23:59 2005) def
/Subject () def
sf (# Note: Covered by ST08) showline
(# echo  ===========================================================) showline
(echo ST08) showline
(echo Four command line arguments, -pqn mode) showline
(concordance -pqn:2 inputfiles/multiLinePageText outputfile < /dev/null > /dev/nu) showline
(ll) showline
(# cat outputfile.wds) showline
(rm outputfile.wds) showline
(rm outputfile.abc) showline
(echo  ===========================================================) showline
(# echo ST09) showline
(# echo Four command line arguments, -lqn mode) showline
(# concordance -lqn:2 inputfiles/multiLinePageText outputfile < /dev/null > /dev/) showline
(null) showline
(# cat outputfile.wds) showline
(# rm outputfile.wds) showline
(# rm outputfile.abc) showline
(# Note: The coverage created by this test case is redundant.) showline
(# ST08 and ST10 provide together provide together a superset of the coverage) showline
(# of ST09) showline
() showline
(echo ===========================================================) showline
(echo 2. Test invalid test cases) showline
(echo These test cases all contain one or several invalid elements.) showline
(echo This may refer to command line parameters, content of input) showline
(echo files or other environmental attributes.) showline
(echo If the screen output is of interest it is displayed.) showline
(echo The same is true for the resulting .wds file.) showline
(echo ===========================================================) showline
(echo ST10) showline
(echo Invalid param for -n) showline
(concordance -lqn:a inputfiles/multiLinePageText outputfile < /dev/null > /dev/nu) showline
(ll) showline
(cat outputfile.wds) showline
(rm outputfile.wds) showline
(rm outputfile.abc) showline
(echo  ===========================================================) showline
(echo ST11) showline
(echo Large number for - n. Should not lead to an error -) showline
(echo it is just reduced to the largest possible number) showline
(concordance -lqn:12345678912345678 inputfiles/multiLinePageText outputfile < /de) showline
(v/null > /dev/null) showline
(cat outputfile.wds) showline
(rm outputfile.wds) showline
(rm outputfile.abc) showline
(# echo  ===========================================================) showline
(# echo ST12) showline
(# echo Non existing file for concordance) showline
(# concordance nonExistingFile < /dev/null > /dev/null) showline
(# Note: This test case doesn't seem to provide additional coverage) showline
(# and was removed) showline
(echo  ===========================================================) showline
(echo ST13) showline
(echo Invalid command line parameter) showline
(concordance -x inputfiles/multiLinePageText) showline
(cat inputfiles/multiLinePageText.wds) showline
(rm inputfiles/multiLinePageText.wds) showline
(rm inputfiles/multiLinePageText.abc) showline
(echo  =========================================================== ) showline
(echo ST14) showline
sf (3) 1 endcol
(3) endpage
%%Page: ? 4
4 newpage
/MailFor (Listing for ) def
/User (Florian Niedermann) def
/TimeNow (Sun Oct 30 17:23:59 2005) def
/Subject () def
sf (echo Two parameters, no switches. For this to work, the file ) showline
(echo existingOutput  must already exist since Concordance will ) showline
(echo else crash at another location in the code) showline
(echo Test > existingOutput) showline
(concordance inputfiles/multiLinePageText existingOutput) showline
(cat existingOutput.wds) showline
(rm existingOutput.wds) showline
(rm existingOutput.abc) showline
(rm existingOutput) showline
(echo  ===========================================================) showline
(echo ST15) showline
(echo Test invalid stanza, where stanza is not a number. Additionally includes) showline
(echo weird ASCII characters to provide some additional coverage in concutils.cc) showline
(concordance -s inputfiles/invalidStanzasText) showline
(cat inputfiles/invalidStanzasText.wds) showline
(rm inputfiles/invalidStanzasText.wds) showline
(rm inputfiles/invalidStanzasText.abc) showline
(echo  ===========================================================) showline
(covfn ) showline
(covbr -u) showline
sf (4) 1 endcol
(4) endpage
%%Trailer
%%Pages: 4
