%!PS-Adobe-1.0
/localeprolog 0 def

%!PS-Adobe-1.0
%%Creator: Steve Holden
%%Modified: John Macdonald, Rich Burridge, Rainer Klute
%%Modified: Bertrand Decouty, Bjorn P. Brox
%%Title: @(#)mp.pro.ps 3.3 93/03/11
%%CreationDate: see above
%%PageLength 60
%%LineLength 80
%%DocumentFonts: Courier Helvetica-BoldOblique Times-Bold Times-Roman
%%Pages: (atend)
%%EndComments

%  @(#)mp.common.ps 3.1 92/04/03
%
%  Mp PostScript routines common to all prologue files.
%
%  The initial header comments are read (and output to stdout)
%  from the individual prologue file, then the contents of this
%  file are read (and output to stdout), then the remainder of
%  the individual prologue file.

/inch { 72 mul } bind def
%
%  IMPORTANT NOTE: The following two variables should be set correctly.
%                  Reasonable values for fullwidth and fullheight are
%                  8.5/11 inch for US Letter, and 8.5/11.4 inch for A4.
%                  Since sites usually have one single format of paper,
%                  mp should be installed with either the USLetter or A4
%                  values.
%
/fullwidth 8.5 inch def
/fullheight 11 inch def

% Define /ISOLatin1Encoding only if it's not already there.
/ISOLatin1Encoding where { pop save true }{ false } ifelse
  /ISOLatin1Encoding [ StandardEncoding 0 45 getinterval aload pop /minus
    StandardEncoding 46 98 getinterval aload pop /dotlessi /grave /acute
    /circumflex /tilde /macron /breve /dotaccent /dieresis /.notdef /ring
    /cedilla /.notdef /hungarumlaut /ogonek /caron /space /exclamdown /cent
    /sterling /currency /yen /brokenbar /section /dieresis /copyright
    /ordfeminine /guillemotleft /logicalnot /hyphen /registered /macron
    /degree /plusminus /twosuperior /threesuperior /acute /mu /paragraph
    /periodcentered /cedilla /onesuperior /ordmasculine /guillemotright
    /onequarter /onehalf /threequarters /questiondown /Agrave /Aacute
    /Acircumflex /Atilde /Adieresis /Aring /AE /Ccedilla /Egrave /Eacute
    /Ecircumflex /Edieresis /Igrave /Iacute /Icircumflex /Idieresis /Eth
    /Ntilde /Ograve /Oacute /Ocircumflex /Otilde /Odieresis /multiply
    /Oslash /Ugrave /Uacute /Ucircumflex /Udieresis /Yacute /Thorn
    /germandbls /agrave /aacute /acircumflex /atilde /adieresis /aring /ae
    /ccedilla /egrave /eacute /ecircumflex /edieresis /igrave /iacute
    /icircumflex /idieresis /eth /ntilde /ograve /oacute /ocircumflex
    /otilde /odieresis /divide /oslash /ugrave /uacute /ucircumflex
    /udieresis /yacute /thorn /ydieresis ] def
{ restore } if

%Title: backspacefont.ps suggested by Glenn Reid (Adobe Systems).

/backspacefont {
    /CourierISO findfont dup length dict begin
        { %forall
            1 index /FID eq { pop pop } { def } ifelse
        } forall
        currentdict /UniqueID known { %if
              /UniqueID UniqueID 16#800000 xor def
        } if
        CharStrings length 1 add dict begin
            CharStrings { def } forall
          /backspace { -600 0 setcharwidth pop } bind def
            currentdict
      end
        /CharStrings exch def
        /Encoding Encoding 256 array copy def
        Encoding 8 /backspace put
        currentdict
    end
    definefont
} bind def

/reencodeISO { %def
    findfont dup length dict begin
    { 1 index /FID ne { def }{ pop pop } ifelse } forall
    /Encoding ISOLatin1Encoding def
    currentdict end definefont pop
} bind def

/fontHd_size 14 def
/fontH2_size 10 def
/fontNd_size 12 def

/setmargin {
  /leftedge 0 def
  /bottomedge 0 def
  fullheight fullwidth LandscapeMode { exch } if
    /rightedge exch def
    /topedge exch def
  9 7 LandscapeMode { exch } if pop
    /FontSize exch def

  0 localeprolog eq
  {
  /font1d /Times-Bold           reencodeISO
  /font2d /Times-Roman          reencodeISO
  /CourierISO /Courier          reencodeISO
  /fontHd /Helvetica-BoldOblique        reencodeISO
  /fontH2 /Helvetica-BoldOblique        reencodeISO
  /fontNd /Times-Bold           reencodeISO
  /font3d backspacefont
  /BoldFont      { /font1d findfont FontSize scalefont setfont } def
  /pf            { /font2d findfont FontSize scalefont setfont } def
  /sf            { /font3d findfont FontSize scalefont setfont } def
  /fontH         { /fontHd findfont fontHd_size scalefont setfont } def
  /fontD         { /fontH2 findfont fontH2_size scalefont setfont } def
  /fontN         { /fontNd findfont fontNd_size scalefont setfont } def
  }
  {
  /font1d /LC_Times-Bold def
  /font2d /LC_Times-Roman def
  /CourierISO /LC_Courier def
  /fontHd /LC_Helvetica-BoldOblique def
  /fontH2 /LC_Helvetica-BoldOblique def
  /fontNd /LC_Times-Bold def
  /font3d /LC_Courier def
  /BoldFont      { font1d findfont FontSize scalefont setfont } def
  /pf            { font2d findfont FontSize scalefont setfont } def
  /sf            { font3d findfont FontSize scalefont setfont } def
  /fontH         { fontHd findfont fontHd_size scalefont setfont } def
  /fontD         { fontH2 findfont fontH2_size scalefont setfont } def
  /fontN         { fontNd findfont fontNd_size scalefont setfont } def
  }
  ifelse

} def

/graybox	% grey x1 y1 x2 y2 graybox --
{
    newpath
      4 -1 roll 2 copy			% y2 x1
      10 sub exch moveto
      4 -1 roll 2 copy			% x1 y1
      10 180 270 arc
      4 -1 roll 1 copy 3 -1 roll	% x2 y1
      10 270 0 arc
      3 -1 roll 1 copy 3 1 roll		% x1 y2 x2 y2
      10 0 90 arc
      10 90 180 arc
    closepath
    gsave
      setgray fill
    grestore
    0 setgray stroke
} bind def

/endpage		% page_number endpage --
{
  gsave
    % listing type, user, date across the top
    0.88                                % gray level
    leftedge  50 add topedge 56 sub     % bottom lt corner
    rightedge 95 sub topedge 36 sub     % top rt corner
    graybox

    currentdict /sfactor known not
    {
      % determine a suitable factor to scale down the header text (done
      % only once per document)
      rightedge 95 sub leftedge 50 add sub % available space
      fontD MailFor stringwidth pop
      fontH User    stringwidth pop add
            (  )    stringwidth pop add
      fontD TimeNow stringwidth pop add    % total length of strings
      div
      dup 1 gt {pop 1} if                  % does it fit?
      /sfactor exch def                    % if not scale down
    }
    if

    leftedge 50 add topedge 50 sub moveto
    gsave
    sfactor dup scale
    fontD MailFor show
    fontH User    show
          (  )    show
    grestore
    fontD
    rightedge 95 sub TimeNow stringwidth pop sfactor mul sub
    topedge 50 sub moveto
    gsave
    sfactor dup scale
    TimeNow show
    grestore
    % page number to the top right corner
    1                                   % gray level
    rightedge 70 sub topedge 56 sub     % bottom lt
    rightedge 50 sub topedge 36 sub     % top rt
    graybox
    fontD
    (Page) dup stringwidth
       topedge 40 sub exch sub                  % y-centered
       exch 2 div rightedge 60 sub exch sub     % x-centered
       exch moveto show
    fontH
    dup stringwidth
       topedge 58 sub exch sub                  % y-centered
       exch 2 div rightedge 60 sub exch sub     % x-centered
       exch moveto show
    0.88                                   % gray level
    leftedge  50 add bottomedge 50 add     % bottom lt corner
    rightedge 50 sub bottomedge 70 add     % top rt corner
    graybox
    fontH
    % compute x pos for centring
      % ((l+50) + (r-50)) / 2 is the page centre
      leftedge rightedge add 2 div
      % but we want to start at the beginning of the string, not the middle
      Subject stringwidth pop 2 div sub
    % y pos is simple
      bottomedge 54 add
      moveto
    Subject show
  grestore
%  PageSave restore      % restore *always* before showpage
  showpage		% display it
} bind def

/endcol			% page_number col_number endcol --
{
  pop			% get rid of col_number
  pop                   % get rid of page_number
  /ypos topedge 92 sub def
  /xpos rightedge leftedge sub 2 div def
  xpos ypos moveto
} bind def

/newpage	% page_number newpage --
{
  pop		% pageno
%  /PageSave save def
  LandscapeMode {setlandscape} if
  /lct 0 def
  /ypos topedge 92 sub def
  /xpos leftedge 50 add def
  xpos ypos moveto
  sf
} bind def

/setlandscape
{
  612 0 translate
  90 rotate
} bind def

/showline
{
  show
  /ypos ypos FontSize sub def
  xpos ypos moveto
} bind def

% see the trouble shooting section in the README for details on setscreen.
106 45 {dup mul exch dup mul add 1.0 exch sub} setscreen

/LandscapeMode false def

setmargin
%%EndProlog
%%Page: ? 1
1 newpage
/MailFor (Listing for ) def
/User (Florian Niedermann) def
/TimeNow (Fri Oct 21 08:52:48 2005) def
/Subject () def
sf (/*) showline
(# $Header: /home/ralph/progs/concordance/RCS/word.cc,v 0.4 1996/11/26 23:55:02 r) showline
(alph Exp ralph $) showline
(# $Date: 1996/11/26 23:55:02 $) showline
(# $Author: ralph $) showline
(# $Log: word.cc,v $) showline
(# Revision 0.4  1996/11/26 23:55:02  ralph) showline
(# Changed loop ints to unsigned to get rid of warning messages that indicated) showline
(# a comparison was being made between unsigned and signed ints.) showline
(#) showline
(# Revision 0.3  1996/11/23 00:51:53  ralph) showline
(#  Added GNU public license.) showline
(#) showline
(# Revision 0.2  1996/11/21 22:22:52  ralph) showline
(# Error in WordList friend operator <<\(\) that crashed at very start corrected.) showline
(#) showline
(# Revision 0.1  1996/11/10 22:09:23  ralph) showline
(# Alpha version test version) showline
(#) showline
(# Revision 0.1  1996/05/21 23:09:56  ralph) showline
(# Initial revision) showline
(#) showline
(* File: word.cc - used by Concordancing program) showline
(* contains wordlist classes' functions & friends) showline
(* Copyright \(C\) 12-16-93 Ralph L. Meyer - R & R Consulting) showline
(* 39 Nelson Avenue, Spotswood, NJ 08884) showline
(*) showline
(* This program is free software; you can redistribute it and/or) showline
(* modify it under the terms of the GNU General Public License) showline
(* as published by the Free Software Foundation; either version 2) showline
(* of the License, or \(at your option\) any later version.) showline
(*) showline
(* This program is distributed in the hope that it will be useful,) showline
(* but WITHOUT ANY WARRANTY; without even the implied warranty of) showline
(* MERCHANTABILITY or FITNESS FOR A PARTICULAR PURPOSE.  See the) showline
(* GNU General Public License for more details.) showline
(*) showline
(* You should have received a copy of the GNU General Public License) showline
(* along with this program; if not, write to the Free Software) showline
(* Foundation, Inc., 675 Mass Ave, Cambridge, MA 02139, USA.) showline
(*) showline
(* Bug reports and suggestions can be sent to:) showline
(* meyer@princeton.edu) showline
(* Ralph L. Meyer, 39 Nelson Ave. Spotswood, NJ 08884) showline
(**********************************************************************/) showline
() showline
(/*) showline
(NOTES:) showline
(Set class definitions up in headers after debugging.  Include forward) showline
(declarations as externs.  Put eof functions in utils file) showline
(check it out to see which it is.) showline
(*/) showline
() showline
(#include "word.h") showline
() showline
(//forward declarations:) showline
() showline
(extern char *lowerCaseString\(char *stringToLc\);  //lower cases a null ended stri) showline
(ng) showline
(   //in concutls.cpp) showline
sf (1) 1 endcol
(1) endpage
%%Page: ? 2
2 newpage
/MailFor (Listing for ) def
/User (Florian Niedermann) def
/TimeNow (Fri Oct 21 08:52:48 2005) def
/Subject () def
sf () showline
(//****   class Locus functions *************************************************) showline
(********) showline
() showline
(Locus::Locus\(const Locus &lc\)       //X\(const X&\) constructor) showline
({) showline
(   loc = lc.getLoc\(\);) showline
(   nxt=this;   //temporarily point it at itself) showline
(}) showline
() showline
(Locus::Locus\(unsigned int lc\)) showline
({) showline
(   loc = lc;) showline
(   nxt=this;   //temporarily point it at itself) showline
(}) showline
() showline
(void Locus::saveLoc\(FILE *fp\) //save locus to file) showline
({) showline
(   fwrite\(&loc,sizeof\(unsigned int\),1,fp\);) showline
(}) showline
() showline
(void Locus::loadLoc\(FILE *fp\) //read a locus from file) showline
({) showline
(   fread\(&loc,sizeof\(unsigned int\),1,fp\);) showline
(}) showline
() showline
(Locus &Locus::operator=\(Locus &lc\)) showline
({) showline
(   loc = lc.getLoc\(\);) showline
(   //nxt=this;     for the moment, leave nxt as it is) showline
(   return *this;) showline
(}) showline
() showline
(Locus &Locus::operator=\(unsigned int lc\)) showline
({) showline
(   loc = lc;) showline
(   //nxt=this;     for the moment, leave nxt as it is) showline
(   return *this;) showline
(}) showline
() showline
(ostream &operator<<\(ostream &os,Locus &lc\)) showline
({) showline
(   os << lc.loc;) showline
(   return os;) showline
(}) showline
() showline
(istream &operator>>\(istream &is,Locus &lc\)) showline
({) showline
(   is >> lc.loc; //in;) showline
(   return is;) showline
(}) showline
() showline
(//***** end of class Locus  ****************************************************) showline
(*****) showline
() showline
() showline
(//*****  class Word functions **************************************************) showline
(*******) showline
() showline
(Word::Word\(char *wrd,unsigned int locus,unsigned int numUses\)) showline
sf (2) 1 endcol
(2) endpage
%%Page: ? 3
3 newpage
/MailFor (Listing for ) def
/User (Florian Niedermann) def
/TimeNow (Fri Oct 21 08:52:48 2005) def
/Subject () def
sf (   :useAmt\(numUses\), prv\(0\), nxt\(0\)) showline
({) showline
(   word=new char[wordLen=\(strlen\(wrd\)+1\)];) showline
(   assert\(word!=0\);) showline
(   strcpy\(word,lowerCaseString\(wrd\)\);  //enter a lower cased word) showline
(   tail = loci = new Locus\(locus\);) showline
(   assert\(loci!=0\);) showline
(}) showline
() showline
(Word::Word\(const Word &wrd\)) showline
(   :wordLen\(wrd.getLen\(\)\),useAmt\(wrd.getUse\(\)\),loci\(0\),tail\(0\),prv\(0\),nxt\(0\)) showline
({) showline
(   word=new char[wordLen];) showline
(   assert\(word!=0\);) showline
(   strcpy\(word,wrd.getWord\(\)\);) showline
() showline
(   Locus *newLoc,*walker=wrd.getLoci\(\); //create a new locus list) showline
(   while \(walker!=walker->nxt\) {) showline
(      newLoc=new Locus;   //copy the list of locations) showline
(      assert\(newLoc!=0\);) showline
(      *newLoc=*walker;) showline
(      addLocus\(newLoc\);) showline
(      walker=walker->nxt;) showline
(   }) showline
(   newLoc=new Locus\(*walker\); //copy the last location) showline
(   assert\(newLoc!=0\);) showline
(   addLocus\(newLoc\);) showline
(}) showline
() showline
(Word::~Word\(void\)) showline
({) showline
(   if \(word\) delete [] word;) showline
(   delLoci\(\);) showline
(}) showline
() showline
(//add a locus to the locus list:) showline
(void Word::addLocus\(Locus *lcp\) //add a locus to the word) showline
({) showline
(   if \(!loci\){ //if no list yet \(NULL loci = no list\)) showline
(      loci=tail=lcp;   //locus is head of list) showline
(      return;) showline
(   }) showline
() showline
(   Locus *walker=loci; //pointer to walk through list - was at top) showline
(   while \(walker!=walker->nxt\) { //go to the end of the list) showline
(      if \(walker->getLoc\(\)==lcp->getLoc\(\)\){) showline
(         delete lcp; //unneeded - location already present) showline
(         return;  //if locus is already recorded, don't record;) showline
(      }) showline
(      walker=walker->nxt;) showline
(   }) showline
(   //add new locus at the end of the list) showline
(   if \(walker->getLoc\(\)==lcp->getLoc\(\)\){ //check last member of list if same loc) showline
(...) showline
(      delete lcp; //unneeded - location already present) showline
(      return;  //if locus is already recorded, don't record;) showline
(   }) showline
(   walker->nxt=lcp;) showline
() showline
(/*formerly:) showline
sf (3) 1 endcol
(3) endpage
%%Page: ? 4
4 newpage
/MailFor (Listing for ) def
/User (Florian Niedermann) def
/TimeNow (Fri Oct 21 08:52:48 2005) def
/Subject () def
sf (//adds loci even if repeating a locus:) showline
(   //add new locus at the end of the list) showline
(   else tail->nxt=lcp;) showline
(   tail=lcp;) showline
(*/) showline
(}) showline
() showline
(//removes locus list) showline
(void Word::delLoci\(void\)) showline
({) showline
(   if \(loci\){) showline
(      Locus *delLocus,*walker=loci;) showline
() showline
(      while \(walker!=walker->nxt\) {   //delete the list of loci) showline
(         delLocus=walker;) showline
(         walker=walker->nxt;) showline
(         delete delLocus;) showline
(      }) showline
(      delete walker; //remove the last member of the list) showline
(      tail=loci=0;  //indicate empty list) showline
(   }) showline
(}) showline
() showline
(//copies a char string into Word and sets its use to 1) showline
(//does NOT set locus!) showline
(Word &Word::operator=\(char *wrd\)) showline
({) showline
(   if \(word\)delete [] word;) showline
(   word=new char[wordLen=\(strlen\(wrd\)+1\)];) showline
(   assert\(word!=0\);) showline
(   strcpy\(word,lowerCaseString\(wrd\)\);) showline
(   useAmt=1;) showline
(   if \(loci\)delLoci\(\);) showline
(   tail=loci=0;  //no loci!!) showline
(   return *this;) showline
(}) showline
() showline
(//note that the use of this function requires) showline
(//adding the word to a list in order to set prv and nxt!) showline
(Word &Word::operator=\(Word &wrd\)  //set a word to another word) showline
({) showline
(   wordLen=wrd.getLen\(\);) showline
(   if \(word\)delete [] word;) showline
(   word=new char[wordLen];) showline
(   assert\(word!=0\);) showline
(   strcpy\(word,wrd.getWord\(\)\);) showline
(   useAmt=wrd.getUse\(\);) showline
(   if \(loci\)delLoci\(\);) showline
(   Locus *newloc,*prv=0,*walker=wrd.getLoci\(\); //write the location list) showline
(   if \(walker\){) showline
(      for \(unsigned int n=0;n<useAmt&&prv!=walker;n++\){) showline
(         prv=walker;) showline
(         newloc=new Locus\(walker->getLoc\(\)\);) showline
(         addLocus\(newloc\);) showline
(         walker=walker->getNxt\(\);) showline
(      }) showline
(   }) showline
() showline
(   prv=0;) showline
(   nxt=0;) showline
sf (4) 1 endcol
(4) endpage
%%Page: ? 5
5 newpage
/MailFor (Listing for ) def
/User (Florian Niedermann) def
/TimeNow (Fri Oct 21 08:52:48 2005) def
/Subject () def
sf (   return *this;) showline
(}) showline
() showline
(void Word::incWord\(unsigned int locus\)  //increment the number of times a word i) showline
(s used) showline
({                               //and add a new location to the list) showline
(   if \(word\){) showline
(      useAmt++;) showline
(      Locus *newLoc=new Locus\(locus\);) showline
(      assert\(newLoc!=0\);) showline
(      addLocus\(newLoc\);) showline
(   }) showline
(   else{) showline
(      puts\("ERROR: Cannot increment usage of word not in concordance."\);) showline
(   }) showline
(}) showline
() showline
(void Word::saveWord\(FILE *fp\)   //save a word to disk) showline
({) showline
(   if\(!wordLen||!word\)return; //on an empty word, don't write) showline
(   fwrite\(&wordLen,sizeof\(wordLen\),1,fp\); //write the length) showline
(   fwrite\(word,wordLen,1,fp\); //write the word to the stream) showline
(   fwrite\(&useAmt,sizeof\(useAmt\),1,fp\);   //write the usage \(also # of locs\)) showline
() showline
(   if\(!loci\){  //if there is no locus list, write a unsigned int 0 for the list ) showline
(& quit) showline
(      unsigned int substitute=0;) showline
(      fwrite\(&substitute,sizeof\(unsigned int\),1,fp\);) showline
(      return;) showline
(   }) showline
(   Locus *prv=0,*walker=loci; //write the location list) showline
(   if \(walker\){) showline
(      for \(unsigned int n=0;n<useAmt&&prv!=walker;n++\){) showline
(         prv=walker;) showline
(         fwrite\(walker->getLocAdd\(\),sizeof\(unsigned int\),1,fp\);) showline
(         walker=walker->getNxt\(\);) showline
(      }) showline
(   }) showline
(}) showline
() showline
(Word *Word::loadWord\(FILE *fp\)   //load a word from disk) showline
({) showline
(   fread\(&wordLen,sizeof\(wordLen\),1,fp\); //read the length) showline
(   word = new char[wordLen];) showline
(   assert \(word!=0\);) showline
(   fread\(word,wordLen,1,fp\); //read the word to the stream) showline
(   fread\(&useAmt,sizeof\(useAmt\),1,fp\);   //read the usage \(also # of locs\)) showline
() showline
(   Locus *inloc;  //read in the location list) showline
(   unsigned int lloc;) showline
(   for \(unsigned int n=0;n<useAmt;n++\){) showline
(      fread\(&lloc,sizeof\(lloc\),1,fp\);) showline
(      inloc=new Locus\(lloc\);) showline
(      addLocus\(inloc\);) showline
(   }) showline
(   return this;) showline
(}) showline
() showline
(//note that this function is non-functional for reading) showline
(//information in from a file as saved by operator << !!!) showline
sf (5) 1 endcol
(5) endpage
%%Page: ? 6
6 newpage
/MailFor (Listing for ) def
/User (Florian Niedermann) def
/TimeNow (Fri Oct 21 08:52:48 2005) def
/Subject () def
sf (istream &operator>>\(istream &is,Word &wrd\)) showline
({) showline
(   if \(wrd.word\)delete [] wrd.word;  //delete the word in the former data) showline
(   if\(wrd.loci\)wrd.delLoci\(\);        //delete the loci in the former data) showline
() showline
(   is >> wrd.wordLen;) showline
(   wrd.word = new char[wrd.wordLen];) showline
(   assert\(wrd.word!=0\);) showline
() showline
(   is >> wrd.word >> wrd.useAmt;) showline
() showline
(   Locus *inloc;) showline
(   unsigned int lloc;) showline
(   for\(unsigned int n=0;n<wrd.useAmt;n++\){) showline
(      is >> lloc;) showline
(      inloc=new Locus\(lloc\);) showline
(      assert\(inloc!=0\);) showline
(      wrd.addLocus\(inloc\);) showline
(   }) showline
(   return is;) showline
(}) showline
() showline
(//added spaces and endls to set up for read in - check if it works DEBUG) showline
(ostream &operator<<\(ostream &os,Word &wrd\)) showline
({) showline
(   if\(wrd.word\){    //output nothing if the word is empty) showline
(      os.width\(2\);) showline
(      os << wrd.wordLen-1;) showline
(      os << ' ';) showline
(      os.width\(15\);) showline
(      os.setf\(ios::left\);) showline
(      os.fill\('.'\);) showline
(      os << wrd.word;) showline
(      os.width\(6\);) showline
(      os.setf\(ios::right\);) showline
(      os.fill\('.'\);) showline
(      os << wrd.useAmt;) showline
(      os.fill\(' '\);) showline
(      os << " - ";) showline
() showline
(      Locus *walker=wrd.loci;) showline
(      if\(!wrd.loci\){ //if there is no locus list, write a unsigned int 0 for the) showline
( list & quit) showline
(         unsigned int substitute=0;) showline
(         os << substitute << endl;) showline
(         return os;) showline
(      }) showline
(      else{) showline
(         while \(walker!=walker->getNxt\(\)\){) showline
(            os << walker->getLoc\(\) << " ";) showline
(            walker=walker->getNxt\(\);) showline
(         }) showline
(         os << walker->getLoc\(\) << endl;  //put tail on stream) showline
(      }) showline
(   }) showline
(   return os;) showline
(}) showline
() showline
(void Word::printWord\(void\)) showline
({) showline
sf (6) 1 endcol
(6) endpage
%%Page: ? 7
7 newpage
/MailFor (Listing for ) def
/User (Florian Niedermann) def
/TimeNow (Fri Oct 21 08:52:48 2005) def
/Subject () def
sf (   cout << word << ", # of uses: "<< useAmt << ", and locations";) showline
(   Locus *walker=loci;) showline
(   if\(loci\){) showline
(      while \(walker!=walker->getNxt\(\)\){) showline
(         cout << ", " << walker->getLoc\(\);) showline
(         walker=walker->getNxt\(\);) showline
(      }) showline
(      cout << ", " << walker->getLoc\(\);  //put tail on screen) showline
(   }) showline
(   cout << endl;) showline
(}) showline
() showline
(//***** end of class Word ******************************************************) showline
(***) showline
() showline
(//*****  class WordList functions **********************************************) showline
(***********) showline
() showline
(SORTORDER WordList::sortOrder=ascending;) showline
() showline
(WordList::WordList\(Word *wrd\) //wordlist receiving a word as pointer) showline
(   :numWords\(1\)) showline
({) showline
(   current = head = tail = new Word;) showline
(   assert\(head!=0\);) showline
(   *head = *wrd; //put word into head of list) showline
(   head->nxt=head->prv=head;  //point word at itself indicating end of list) showline
(}) showline
() showline
(WordList::WordList\(Word &wrd\) //wordlist receiving a word as ref) showline
(   :numWords\(1\)) showline
({) showline
(   current = head = tail = new Word;) showline
(   assert\(head!=0\);) showline
(   *head = wrd;) showline
(   head->nxt=head->prv=head;) showline
(}) showline
() showline
(WordList::WordList\(char *wrd,unsigned int loc\) //wordlist receiving a word as ch) showline
(ar string) showline
(   :numWords\(1\)) showline
({) showline
(   current = head = tail = new Word\(wrd,loc\);) showline
(   assert\(head!=0\);) showline
(   head->nxt=head->prv=head;) showline
(}) showline
() showline
(WordList::WordList\(const WordList &wl\) //copy constructor) showline
(   :numWords\(wl.getNumWords\(\)\)) showline
({) showline
(   Word *newWord,*walker = wl.head;) showline
(   if \(walker\){) showline
(      while \(walker!=walker->nxt\) {) showline
(         newWord = new Word\(*walker\);) showline
(         assert \(newWord!=0\);) showline
(         addWord\(newWord\);) showline
(         walker=walker->nxt;) showline
(      }) showline
(      newWord = new Word\(*walker\); //get last member of wl) showline
(      assert \(newWord!=0\);) showline
sf (7) 1 endcol
(7) endpage
%%Page: ? 8
8 newpage
/MailFor (Listing for ) def
/User (Florian Niedermann) def
/TimeNow (Fri Oct 21 08:52:48 2005) def
/Subject () def
sf (      addWord\(newWord\);) showline
(   }) showline
(}) showline
() showline
(WordList::~WordList\(void\)) showline
({) showline
(   Word *walker=head,*delWord;) showline
() showline
(   while \(walker!=walker->nxt\) {) showline
(      delWord=walker;) showline
(      walker=walker->nxt;) showline
(      delete delWord;) showline
(   }) showline
(   delete walker; //delete the last one of the list) showline
(}) showline
() showline
(void WordList::delList\(void\)) showline
({) showline
(   if \(!head\)return;) showline
(   current=head;) showline
(   Word *delWord;) showline
(   while \(\(delWord=iterf\(\)\)!=delWord->nxt\) {) showline
(      delete delWord;) showline
(   }) showline
(   delete delWord;) showline
(   head=tail=current=0;) showline
(   numWords=0;) showline
(}) showline
() showline
(//iterates wordlist.current forward.  Always return present current!) showline
(Word *WordList::iterf\(void\) //iterators) showline
({) showline
(   Word *holder=current;) showline
(   current=current->nxt;) showline
(   return holder;) showline
(}) showline
() showline
(//iterates wordlist.current backward.  Always returns present current!) showline
(Word *WordList::iterb\(void\)) showline
({) showline
(   Word *holder=current;) showline
(   current=current->prv;) showline
(   return holder;) showline
(}) showline
() showline
(//adds a word to the list in ascending alphabetic order \(at the moment\)) showline
(int WordList::addWord\(char *wrd,unsigned int locus\)  //add a word to the list) showline
({) showline
(   Word *newWord = new Word\(wrd,locus\);) showline
(   assert \(newWord!=0\);) showline
(   if \(!head\){) showline
(      current = tail = head = new Word\(wrd,locus\);) showline
(      assert \(head!=0\);) showline
(      head->nxt=head->prv=head;) showline
(      numWords++;) showline
(      return OK;) showline
(   }) showline
(   else{) showline
(      Word *walker=head;) showline
(      while \(walker!=walker->nxt\) {) showline
sf (8) 1 endcol
(8) endpage
%%Page: ? 9
9 newpage
/MailFor (Listing for ) def
/User (Florian Niedermann) def
/TimeNow (Fri Oct 21 08:52:48 2005) def
/Subject () def
sf (         if \(strcasecmp\(wrd,walker->getWord\(\)\)==0\){//if same word) showline
(            walker->incWord\(locus\); //add the new location to the word in the li) showline
(st) showline
(            delete newWord;   //delete the new word - it is unneeded) showline
(            return OK;) showline
(         }) showline
(         else if\(strcasecmp\(wrd,walker->getWord\(\)\)<0\){//if new word < word in li) showline
(st) showline
(            if\(walker==head\){   //make newWord the new head) showline
(               walker->prv=newWord;) showline
(               newWord->prv=newWord;) showline
(               newWord->nxt=walker;) showline
(               head=newWord;) showline
(               numWords++;) showline
(               return OK;) showline
(            }) showline
(            else{) showline
(               newWord->prv=walker->prv;) showline
(               newWord->nxt=walker;) showline
(               walker->prv->nxt=newWord;) showline
(               walker->prv=newWord;) showline
(               numWords++;) showline
(               return OK;) showline
(            }) showline
(         }) showline
(         //else if\(strcasecmp\(wrd,walker->getWord\(\)\)>0&&strcasecmp\(wrd,walker->n) showline
(xt->getWord\(\)\)<0\){   //wrd > walker & < walker->nxt 15.004 sec 21% of time!!**) showline
(         else if\(strcasecmp\(wrd,walker->getWord\(\)\)>0&&strcasecmp\(wrd,walker->nxt) showline
(->getWord\(\)\)<0\){   //wrd > walker & < walker->nxt) showline
(            newWord->nxt=walker->nxt;) showline
(            walker->nxt->prv=newWord;) showline
(            newWord->prv=walker;) showline
(            walker->nxt=newWord;) showline
(            numWords++;) showline
(            return OK;) showline
(         }) showline
(         else walker = walker->nxt;) showline
(      }) showline
(      //if the word is the same as the word at tail, increment the word at tail) showline
(      if \(strcasecmp\(wrd,walker->getWord\(\)\)==0\){//if same word) showline
(         walker->incWord\(locus\); //add the new location to the word in the list) showline
(         return OK;) showline
(      }) showline
(      else if\(strcasecmp\(wrd,walker->getWord\(\)\)<0\){//if new word < word in list) showline
(         if\(walker==head\){   //make newWord the new head) showline
(            walker->prv=newWord;) showline
(            newWord->prv=newWord;) showline
(            newWord->nxt=walker;) showline
(            head=newWord;) showline
(            numWords++;) showline
(            return OK;) showline
(         }) showline
(         else{) showline
(            newWord->prv=walker->prv;) showline
(            newWord->nxt=walker;) showline
(            walker->prv->nxt=newWord;) showline
(            walker->prv=newWord;) showline
(            numWords++;) showline
(            return OK;) showline
(         }) showline
sf (9) 1 endcol
(9) endpage
%%Page: ? 10
10 newpage
/MailFor (Listing for ) def
/User (Florian Niedermann) def
/TimeNow (Fri Oct 21 08:52:48 2005) def
/Subject () def
sf (      }) showline
(      //then at end of list: add new word to end) showline
(      else{) showline
(         tail->nxt=newWord;) showline
(         newWord->prv=tail;) showline
(         newWord->nxt=newWord;) showline
(         tail=newWord;) showline
(         numWords++;) showline
(         return OK;) showline
(      }) showline
(   }) showline
(}) showline
() showline
(int WordList::addWord\(Word *wrd\)) showline
({) showline
(   Word *newWord=new Word\(*wrd\);) showline
(   assert\(newWord!=0\);) showline
(   if \(!head\){) showline
(      current = tail = head = new Word\(*wrd\);) showline
(      assert\(head!=0\);) showline
(      head->nxt=head->prv=head;) showline
(      numWords++;) showline
(      return OK;) showline
(   }) showline
(   else{) showline
(      Word *walker=head;) showline
(      while \(walker!=walker->nxt\) {) showline
(         if \(strcasecmp\(wrd->getWord\(\),walker->getWord\(\)\)==0\){//if same word) showline
(            walker->incWord\(\); //add the new location to the word in the list) showline
(            return OK;) showline
(         }) showline
(         else if\(strcasecmp\(wrd->getWord\(\),walker->getWord\(\)\)<0\){  //wrd < walke) showline
(r) showline
(            if\(walker==head\){   //make newWord the new head) showline
(               walker->prv=newWord;) showline
(               newWord->prv=newWord;) showline
(               newWord->nxt=walker;) showline
(               head=newWord;) showline
(               numWords++;) showline
(               return OK;) showline
(            }) showline
(            else{) showline
(               newWord->prv=walker->prv;) showline
(               newWord->nxt=walker;) showline
(               walker->prv->nxt=newWord;) showline
(               walker->prv=newWord;) showline
(               numWords++;) showline
(               return OK;) showline
(            }) showline
(         }) showline
(         else if\(strcasecmp\(wrd->getWord\(\),walker->getWord\(\)\)>0&&strcasecmp\(wrd-) showline
(>getWord\(\),walker->nxt->getWord\(\)\)<0\){   //wrd > walker & < walker->nxt) showline
(            newWord->nxt=walker->nxt;) showline
(            walker->nxt->prv=newWord;) showline
(            newWord->prv=walker;) showline
(            walker->nxt=newWord;) showline
(            numWords++;) showline
(            return OK;) showline
(         }) showline
(         else walker = walker->nxt;) showline
sf (10) 1 endcol
(10) endpage
%%Page: ? 11
11 newpage
/MailFor (Listing for ) def
/User (Florian Niedermann) def
/TimeNow (Fri Oct 21 08:52:48 2005) def
/Subject () def
sf (      }) showline
(      if \(strcasecmp\(wrd->getWord\(\),walker->getWord\(\)\)==0\){//if same word) showline
(         walker->incWord\(\); //add the new location to the word in the list) showline
(         return OK;) showline
(      }) showline
(      else if\(strcasecmp\(wrd->getWord\(\),walker->getWord\(\)\)<0\){//if new word < wo) showline
(rd in list) showline
(         if\(walker==head\){   //make newWord the new head) showline
(            walker->prv=newWord;) showline
(            newWord->prv=newWord;) showline
(            newWord->nxt=walker;) showline
(            head=newWord;) showline
(            numWords++;) showline
(            return OK;) showline
(         }) showline
(         else{) showline
(            newWord->prv=walker->prv;) showline
(            newWord->nxt=walker;) showline
(            walker->prv->nxt=newWord;) showline
(            walker->prv=newWord;) showline
(            numWords++;) showline
(            return OK;) showline
(         }) showline
(      }) showline
(      //then at end of list without match: so, add new word to end:) showline
(      else{) showline
(         tail->nxt=newWord;) showline
(         newWord->prv=tail;) showline
(         newWord->nxt=newWord;) showline
(         tail=newWord;) showline
(         numWords++;) showline
(         return OK;) showline
(     }) showline
(   }) showline
(}) showline
() showline
() showline
(void WordList::delWord\(char *wrd\)   //find a word and remove it from the list) showline
({) showline
(   Word *wordToDel; //word to be deleted) showline
() showline
(   if \(\(wordToDel=this->findWord\(wrd\)\)!=0\){) showline
(      if \(wordToDel==head&&head==head->nxt\){ //at head & no list) showline
(         head=tail=current=0; //NULL all pointers) showline
(         numWords=0;) showline
(         delete wordToDel;) showline
(      }) showline
(      else if\(wordToDel==head\){) showline
(         head=head->nxt;          //set next record as head) showline
(         head->nxt->prv=head->nxt;  //and point it at itself) showline
(         numWords--;) showline
(         delete wordToDel;) showline
(      }) showline
(      else if \(wordToDel==tail\){) showline
(         wordToDel->prv->nxt=wordToDel->prv; //point previous Word at itself as ) showline
(tail) showline
(         tail=wordToDel->prv; //make previous Word tail) showline
(         current = tail;) showline
(         numWords--;) showline
(         delete wordToDel;) showline
sf (11) 1 endcol
(11) endpage
%%Page: ? 12
12 newpage
/MailFor (Listing for ) def
/User (Florian Niedermann) def
/TimeNow (Fri Oct 21 08:52:48 2005) def
/Subject () def
sf (      }) showline
(      else{) showline
(         wordToDel->prv->nxt=wordToDel->nxt;) showline
(         wordToDel->nxt->prv=wordToDel->prv;) showline
(         numWords--;) showline
(         delete wordToDel;) showline
(      }) showline
(   }) showline
(}) showline
() showline
(Word *WordList::findWord\(char *wrd\) //find a word, given a char string) showline
({) showline
(   current = head;) showline
(   Word *walker;) showline
(   while \(\(walker=iterf\(\)\)!=walker->nxt\) {) showline
(      if \(strcasecmp\(walker->getWord\(\),wrd\)==0\)) showline
(         return walker;) showline
(   }) showline
(   if \(strcasecmp\(walker->getWord\(\),wrd\)==0\)  //check last record) showline
(      return walker;) showline
(   else return 0; //NULL returned on not found) showline
(}) showline
() showline
(Word *WordList::findWord\(Word *wrd\) //find a word, given a Word.) showline
({) showline
(   current = head;) showline
(   Word *walker;) showline
(   while \(\(walker=iterf\(\)\)!=walker->nxt\) {) showline
(      if \(strcasecmp\(walker->getWord\(\),wrd->getWord\(\)\)==0\)) showline
(         return walker;) showline
(   }) showline
(   if \(strcasecmp\(walker->getWord\(\),wrd->getWord\(\)\)==0\)) showline
(      return walker;) showline
(   else return 0; //NULL returned on not found) showline
(}) showline
() showline
(void WordList::saveWordList\(FILE *fp\)  //save a list to disk) showline
({) showline
(   Word *svWord;) showline
(   if \(!head\) return;) showline
(   else{) showline
(      fwrite\(&numWords,sizeof\(long\),1,fp\);) showline
(      current=head;) showline
(      while \(\(svWord=iterf\(\)\)!=svWord->nxt\) {) showline
(         svWord->saveWord\(fp\);) showline
(      }) showline
(   }  svWord->saveWord\(fp\);) showline
(}) showline
() showline
(void WordList::loadWordList\(FILE *fp\)  //load a list from disk) showline
({) showline
(   long numWordsToLoad;) showline
(   fread\(&numWordsToLoad,sizeof\(long\),1,fp\);) showline
(   if \(numWordsToLoad>0\){) showline
(      for \(int ct=0;ct<numWordsToLoad;ct++\){) showline
(         Word *inWord  = new Word;) showline
(         assert\(inWord!=0\);) showline
(         addWord\(inWord->loadWord\(fp\)\);) showline
(      }) showline
(   }) showline
sf (12) 1 endcol
(12) endpage
%%Page: ? 13
13 newpage
/MailFor (Listing for ) def
/User (Florian Niedermann) def
/TimeNow (Fri Oct 21 08:52:48 2005) def
/Subject () def
sf (}) showline
() showline
(WordList &WordList::operator=\(WordList &wl\)  //copy a list into another list) showline
({) showline
(   delList\(\);) showline
(   Word *newWord,*walker = wl.head;) showline
(   if \(walker\){) showline
(      while \(walker!=walker->nxt\) {) showline
(         newWord = new Word\(*walker\);) showline
(         assert \(newWord!=0\);) showline
(         addWord\(newWord\);) showline
(         walker=walker->nxt;) showline
(      }) showline
(      newWord = new Word\(*walker\); //get last member of wl) showline
(      assert \(newWord!=0\);) showline
(      addWord\(newWord\);) showline
(      numWords=wl.getNumWords\(\);) showline
(   }) showline
(   return *this;) showline
(}) showline
() showline
(/*istream &operator>>\(istream &is,WordList &wl\) //input a WordList \(???\)) showline
({) showline
(} */) showline
() showline
(ostream &operator<<\(ostream &os,WordList &wl\) //output a WordList stream) showline
({) showline
(   if \(wl.head\){) showline
(      wl.setCurrentToHead\(\);) showline
(      Word *walker=wl.iterf\(\);) showline
(      while \(walker!=walker->getNxt\(\)\) {) showline
(         os << *walker;) showline
(         walker=wl.iterf\(\);) showline
(      }) showline
(      os << *walker;) showline
(   }) showline
(   return os;) showline
(}) showline
() showline
(//***** end of class WordList **************************************************) showline
(*******) showline
() showline
sf (13) 1 endcol
(13) endpage
%%Trailer
%%Pages: 13
